label,content
1,不用送了，都给我吃掉算了[哈哈]
1,小心前列腺[嘻嘻]//@姜海洋David:
1,"[鼓掌]感谢您的支持, 欢迎您有时间常来哈![太开心]"
1,哈哈！仔细品味一下，或许你的女上司不会像你想像中的冷血~.[嘻嘻] //@镱霖妞:工作帮助一个女人如何去爱自己，然后才体会到如何去爱这个世界
1,我家的小美女。。。春天来了，万物复苏，孩子们又开始户外活动了。今天我要出门，所以一大早和她视频，听说最近学习不错，开心呀。孩子一天天长大，明显懂事了，不过，少了小时候的嬉闹，多了一分安静，宝贝，咱开始走淑女路线了哈，爱你[爱你]
1,#快乐鸭粉high游江城# @周黑鸭官方微博 @新浪湖北 @新浪湖北旅游 偶们已经到了?[太开心][太开心] 我在这里:http://t.cn/zHeVAMl
1,来啦您呐。//@三角龙电台贴吧: #三角龙电台# 伙计上菜！- 客官不可以！[嘻嘻] [ 选你的菜！选秀，谁是你的菜！]
1,小咪和塔米米哥哥到国家大剧院欣赏@中国交响乐团少年及女子合唱团 成立30周年庆典音乐会...各种花絮屡屡哈...本人今晚表现极为出色，特此表扬！[偷笑][偷笑][偷笑]感谢@塔米米2013 特别友情无私提供的粉底和眉笔...否则我愧对观众哈...[鼓掌][鼓掌][鼓掌]@向民CCOM @郭蕊
1,一朝入党，样样精通。//@王福重: 2008年，我就跟朱清时说南方科技大学是不会成功的//@品读人生JNU: //@上海陈子善: 副教授领导公安局，公安局长领导大学，外行变内行，内行又变成外行，内行外行，外行内行，反正只有一行：领导行。[偷笑][哈哈] //@朱田夫:到底是内行管了内行还是外行管了内行
1,[可爱]俺家也有站点啦~~真好~~[围观][威武]
1,【#天天向上#公益】天天向上绵薄之力，希望能抛砖引玉！[爱你]
1,咋一笑眼睛就小了捏[哈哈]
1,auau！好幸福！ //@达观闲人王小猪:[爱你][花心]幸福的一家子！
1,回复@凉夏Sunny:[鼓掌] //@凉夏Sunny: @小象爸 @小虎同学tiger @1Crane @1058小K @1058姗姗 @-磊磊 @衷声_Yeti @ZhangYang?? @云南张玫
1,可悲！//@石小杰微博:中国公安机关都不知道他们是那国的!人大代表，政协委员外国人大大地有，每年中国开联合国二会![哈哈]//@莱德赵克强:[嘘]
1,回复@特里萨哎:高米店，回一起去@冀晨 //@特里萨哎:在哪啊，不远的我也用去[嘻嘻] //@吴小楠同学的围脖:恭喜韩娘娘和小韩子的美甲店开张！（好像有哪里不对）歪爱屁卡啊！
1,哈哈，礼物收到啦~？[礼物][太开心]
1,觉得贵的童鞋，就转给身边的“土豪”吧[偷笑]然后求带走[哈哈][哈哈] //@玉毛毛的说：某人自己去了几个…还得带我去，快点！//@Lois-墨尔本：谁请我去住吧-”！//@钟阿薇Jovi：圆妮 我要去杭州[泪][泪]
1,[兔子][可爱]
1,#百名达人游津城#@新浪天津 @新浪天津旅游 @天津旅游 小伙伴儿们high爆了！从天津之眼看天津，天津太美！[带着微博去旅行][鼓掌]
1,回复@惠游网:[太开心][太开心][鼓掌] 最美杨凌农博园~ //@惠游网: //@黑白de兔兔: @惠游网 @白华武 @快乐的老鼠2011 @兰斯先生 每年春节都有好礼，真贴心呐[兔子] //@黑白de兔兔: @惠游网 @白华武 @快乐的老鼠2011 @兰斯先生 每年春节都有好礼，真贴心呐[兔子]
1,"哈哈，真心到处有""单身""""""艳遇""""的字眼。~~~好吧~~~[哈哈][哈哈]"
1,九霖兄[威武] //@陈九霖:回复@?峻康: 未提当年勇，而是自揭其短哩！@思想史略 @曾维? @黄茜 @王普会 @杨建国 @方子强 @姜岚昕 @云泉微博 @思想聚焦 @彭曙光V @王永 @广东共青团 @广州共青团 @杨承平 @刘刚吃亏是福 @四川共青团 @四川共青团 @姜明 //@?峻康:[哈哈]陈总，好汉不提当年勇，是吗？
1,"三字经威武[哈哈] @英语口语精华:三字经：夜奔党,失足妇。时极骚,时若木。吾本色，君可入。如不喜,请自顾。唐诗：一朝弹冠入凤池,篷门湘华洗凝脂。娇吟婉啭韵不定,云雨无情君自辞。宋词：夜入党支部,自诩性感夺目,时常喜怒无度,尤物尤物,非干爹勿入。"
1,还有专业版微博 //@万能的大熊:回复@Highkick_c:哈哈 水平很不错的 心生佩服 //@Highkick_c:今晚看到最好笑的评论，给大雄看看[嘻嘻]「老公杀人，我已释怀，已消除业障，儿子抄袭，我没有办法，很遗憾；几米告我，是他解不开心结，网友骂我，是你们造下口业。初中生水平真高，赶上外交部发言人 」
1,回复@ParadiseDoll:[呵呵]俺滴好朋友，虽说不长见面 //@ParadiseDoll:哇 你认识蔻蔻哇 我超级喜欢@蔻蔻梁 嗒 [爱你]
1,九号九点九分~让「我们的」快乐更九点更久点~[抱抱][抱抱][抱抱]
1,欢迎越来越多的朋友们和我们一起美丽同行，一起优雅的变老！[爱你] @孔姐的轻奢生活 @林姐姐花园 @新吴亚凝
1,新的隐形眼镜颜色很喜欢哈[嘻嘻]
1,回复@王旭峰营养师:可以多一点点时间陪陪孩子[嘻嘻] //@王旭峰营养师:我明天去串亲戚，大多数时间在家休息 //@金牌厨师磊磊:回复@王旭峰营养师:哈哈串亲戚明天去庙会您呢  //@王旭峰营养师:你春节都忙些啥？  //@金牌厨师磊磊:回复@王旭峰营养师:兄弟说的好[给力]
1,不是所有人都可以成功的化身为一只胖胖的土拨鼠[哈哈]
1,#发现新潘婷#经常染烫头发的妹纸们不用担心了，全新升级的潘婷可以对秀发进行“修护+隔离”的双重保护，[鼓掌]让秀发无惧损伤，快试试看吧[心]
1,回复@mavis美味:有理！ 独立其实也是未必的。 写完整理的时候加进去[哈哈] //@mavis美味:核心竞争力还有 独立么。。。技术好是未必的，有的也是缺乏经验才剩下的
1,//@被时光掩埋的秘密-陆boss: 好经典的哇爷#钟汉良#带来的#浮夸#[good]//@梦之林一触即发: //@视觉系某棠:戳人的来了。。。[泪]//@轻松小鱼喜欢花花草草: 总是那么具有感染力[?你]//@钟汉良资讯台: 因为他，我们知道世间多浮夸~#钟汉良#，我们爱你！[爱你]
1,回复@nepallover:像做梦一样。。。有点感伤。。。 //@nepallover:boy![爱你]
1,这次上海和苏州的两场音乐会中国古筝网做了全程跟踪报道和记录，团队的每个朋友都那么可爱，敬业和专业，谢谢你们为推广中国文化做出的努力，谢谢对我的支持和厚爱，认识你们，真好[爱你]//@中国古筝网: [cai开心]@常静
1,@咸蛋小超? //@星座爱情001: 大爱[爱你]
1,早安大家！睡到自然醒真是一件愉快的事，连日来的疲惫立刻被一扫而光！今知昨天坐在观众席上的真是十几国的首脑，不知他们对我的演唱作何评价聂？[哈哈]
1,强烈支持达成兄[给力]//@艺人李达成: 回复@石小文:谢谢小文支持啦！ //@石小文:拍手，成哥主持节目啦，加油呀！[鼓掌][耶][赞] //@艺人李达成:第一次啊，有点紧张！希望大家多多支持！
1,最美徒步季节10月下旬到11月//@军哥-野战军: 这是香格里拉小环线，线路有重复，建议上大环，川进滇出啊[哈哈]。 //@戈尔户外梦想实现:同意，这条线路骑行很爽。 //@小黄他爹老黄: 骑游也很爽，不过成都-康定一段路线重复了，可以考虑单边坐车
1,居然又有了？猛转啊！！！//@最后的Q版: [哈哈]不看报也不刷微博，我肿么知道我过的幸福呢
1,恭喜啦[鼓掌]看南方影视《??娱乐圈》及《幸运快的》的亲们#幸运码上到#啦！只要留意屏幕出现的幸运密码，发至
1,[汗]//@茶人冯建华: 银行太过分！[哈哈]//@豆腐笑谈中:884[哈哈]//@李不白观天下1:[哈哈]//@律坛阎王:[哈哈]
1,原来龙猫系巨蟹座的[给力][给力][给力][给力][鼓掌][鼓掌] //@趣味时尚馆:十二星座的英雄形象
1,四个箭人[嘻嘻]@?帆道 ，常去哈。
1,求帽子一枚！各位亲，请帮我关注~@Myy小姐 @菲-sara @某言某ivy @哆哆小仙儿  //@张俪:儿子的绿帽子也有春天[哈哈]
1,只有一天不要错过@我想说真话-不错不错支持支持哈哈，看看有没有老妈喜欢的[嘻嘻][嘻嘻][嘻嘻]//感谢这些孝顺麻麻的11家好餐厅！@芝士蜜餐厅 @BBSP大碗小碟 @乌巢krosnest @湘聚湘彬萱 @饪酷中国菜 @一坐一忘餐厅 @在河上 @田树的厨房 @-情忆草原- @翻滚的辣椒 @暹罗象泰餐 。餐厅们别忘了统计人数哦！
1,[威武] //@俺叫老鬼:回复@杰尼妈妈JanarSlanbek:好！[鼓掌] //@杰尼妈妈JanarSlanbek:加俺一个！[耶] //@俺叫老鬼:老鬼新疆人，老鬼自豪！[得意地笑] //@俺叫老鬼:老鬼新疆人，老鬼自豪！[得意地笑]
1,用美食向大家说早安~[嘻嘻]
1,好可爱 //@不倒翁Jacky:N多年没住过集体宿舍了，今天好像回到了十八九，很是想念上铺兄弟@妮子她老爹  //@jenniferwzm:哈哈...穿越吧...  //@张泽-:难忘的回忆，大学的寝室就是219，我挑了同样位置的床铺  //@雪羽千寻:最左边的象是童军营的.[哈哈]
1,太欢乐了！//@KiKi-?思琪:[嘻嘻]笑死了
1,太赞了，屁股都笑开花了。//@业余巡天猎手: 让你的屁股笑开花，[哈哈]//@熊富华: [哈哈][哈哈] //@上海广告媒体圈:前面@扭发条猴子 已经发过一轮了，确实很有才[偷笑]//@星小白: @上海广告媒体圈 哈哈哈 让你的屁股笑开花 ，听到这句我彻底hold不住了
1,@梦岛花静开 让你开心一下！嘻嘻！ //@橙梧桐: [嘻嘻]//@此刻_时间到: 王大牌快到三亚鸟。。。转机中。。。。
1,好书再推荐一次[可爱] //@陈-小娇:转发微博
1,[嘻嘻] //@人本是兽:摇滚音乐，我的最爱
1,疑惑的转~[思考] //@李锐CC伊诺婚纱:很和谐！// @馨晓妞 : [晕] // @菠菜natalie :额.......我深度无语 [猪头]//  @车若  :我对政府官员的智商真是不知道该怎么膜拜。//  @欧美二线品牌  : [哈哈][哈哈]
1,嗯，很好，增幅很大，看看未来几年这个满意度会不会达到100% //@倪正东:[哈哈] [哈哈]  谁悄悄地蒙上了我的眼睛？
1,[哈哈][偷笑]//@李开复:太坏了！[偷笑]
1,生活如此美妙@小?孩儿 @川濑清春 @Vivi-茜茜茜子 @猎人阿宝-然 @潘黎尔 @我爱C宝宝 @自我催眠感觉很好 @闹闹飞 [爱你]
1,#APU激发小宇宙#+想让APU帮我激发幸运大奖[嘻嘻]小宇宙”， 地址：http://t.cn/zOmh7nT
1,[哈哈][哈哈][哈哈] //@?舅Leo:[哈哈][哈哈]//@非要游泳的猫: [哈哈][哈哈][哈哈][哈哈][哈哈][哈哈]//@李开复: [吃惊] //@多贝陈广涛: 司马先生，这英文的意思是你该去医院测测智商水平了
1,[鼓掌][鼓掌][鼓掌]@海底捞火锅 @廖靖雄-中国餐饮利润倍增第一人 @宏爱餐饮推广骆颖颖 @大众点评网-北京美食 @餐饮优惠总部基地 @北京美食导航 @餐饮世界杂志社 @边疆边吃边说 @餐饮世界赵泽瀛 @大众点评网-北京美食 @点评团_北京
1,#舌尖上的中国# 筷子的诱惑[亲亲] 详情:http://t.cn/zjEnFBz
1,看完电影，俺脑海里马上开始搜索，这是咱认识的哪位美食编辑呢？[哈哈]没敢对号入座！//@美食地主: 难道@北京遇上西雅图 剧中用的是@好豆网 [江南style]
1,回复@iWater:就是！ //@iWater:我觉得 应该没有 godzilla 好吃 //@首都机场朗豪酒店:@苗_条_肥_仔 @iWater @北京土著老孙 @曹小迪抗大包 各位可以开辟新战场了。不过我们的汉堡比赛比较人性化，可以抽烟可以上厕所[嘻嘻] //@keke芥小茉：@首都机场朗豪酒店 ：棋逢对手了[花心]
1,[嘻嘻]过奖啦。关键咱互粉了！[哈哈]
1,Happy Birthday Lotusland[爱你][爱你][爱你] //@丽江花间堂听荷:祝我生日快乐！[爱你]@花间堂官方微博
1,"回顾有他的专注，才有不断的超越 //@蔡文胜:回顾2010-4-16号的帖子。开始是买iPhone,android都报销，为了鼓励多用安卓，我只给买安卓系统手机才报销。[嘻嘻]"
1,#开饭早安# 坏消息，今天上班[衰] 好消息，后天又放假了[嘻嘻] 各位早啊~
1,[嘻嘻][嘻嘻][嘻嘻][嘻嘻][嘻嘻][嘻嘻][嘻嘻] //@老武是文建:先不说狭隘的民族主义思想情结。就服装设计而言，这叫神马鸡8玩意儿啊!还没大清狱卒的服装漂亮呢。生扳硬套没整体性，如同猪与驴杂交，不符合基本的规律。】
1,欢迎啊 [太开心][太开心]
1,得去吃吃。 //@精品购物指南:世界一流的卤煮[哈哈]
1,雅萍说得好啊！[鼓掌]//@大西迁林玉: 回复@央广雅萍:[哈哈][哈哈][嘻嘻][嘻嘻]哈哈！雅萍评论的好到位！必须赞一个！真的期待我们再次相聚呢！//@央广雅萍:阿依如天使般空降鸟市，直接空投于大西迁，引众位大侠尽开颜，这才是重点之亮点！[偷笑]大家的表情与表现真是各有特色、各有千秋！期待再相聚！
1,羡慕啊！！！好丰富的行程~~~别忘记发照片给小佰哦！//@骄阳似我1980: 日本九州温泉赏雪、菲律宾董索追鲸鲨看萤火虫、吉隆坡遛达、土耳其观蓝色清真寺看以弗所古迹、南澳房车大洋路。全部都出好票啦！[嘻嘻]@佰程旅行网
1,4月10日-5月20日，进入开饭喇“优惠券”频道打印优惠券到相应餐厅消费，并发布相应要求的食评，即可获得 “卡玫尔香氛沐浴露400ml”一份 。奖品包邮。心动不如行动，赶快打印优惠券消费吧！~ [鼓掌]活动地址：http://t.cn/zTatbq3
1,大家来找茬！[抱抱]
1,日本入手，yeah！感?日本的同事[嘻嘻]
1,[哈哈] 这菜让人想入非非啊。O(∩_∩)O哈哈~
1,大家伙阿，亲们！[哈哈][给力]不断在冒泡呢。洗葡萄中[嘻嘻]@SLAYER停在路上 @Acoustic_Echo @米兰魔术师 @跨区家里卡 @小莱飞车与拉布拉多
1,看我爸受宠若惊的样子~心里活动肯定是，这闺女没白养，咋这么好呢[哈哈][哈哈]今儿小年，祝爸妈身体健康！祝天下的爸妈都健康[太开心]
1,这个气球质量好好阿！到现在还有气！[鼓掌]已经过了1个月了！
1,这个好！搞推荐的当跑堂的，绝对个性化服务！[赞][哈哈]
1,情人节来了，依旧没有过节的安排，不过我特意穿了条红裤子，喜庆喜庆，朋友们节日快乐呀～[爱你][爱你][爱心传递][爱心传递][亲亲][亲亲]
1,#CityFM十周年 城市至尊音乐盛典#闪耀开启！感谢@姚贝娜 的精彩演唱！感谢各大联盟台和各唱片公司的诚挚祝贺！@乐华娱乐 @华谊兄弟 @?研??音?北京 @环球音乐 @海蝶音乐 @尚雯婕工作室 @亚神音乐 @美妙音?不亦?乎 @梦响强音文化传播有限公司 @福茂唱片 @金牌大? @当然娱乐 @四川新闻网 [鼓掌]
1,hiahiahia，猜我看到什么[哈哈]@逗豆芽儿
1,可耐可耐[din摸头]//@小予CAT: @边边小猫 @ajoin @叶菲Fely 好个文艺小清新[爱你] //@思维怪异的猫: [飞个吻]
1,活动非常丰富哦亲[太开心]
1,“最可爱的人”说话能不温柔么？ //@Xiao_箫:哈哈哈哈 我也发现坤哥说话好你妈可爱[哈哈][哈哈][哈哈]  //@Loewe_L:回复 @William--K:我发现你现在说话真他妈柔情似水！[神马][给力][威武]   //@William--K:嘎嘎！不过你会遇到真心对你的那个人...以前有，已经是过客了，未来你会有归人出现滴！！！
1,佛祖保佑，剧组顺利登船[爱你]，祈祷岛上这两天不要来台风吧[耶]//@神风汤:晚点一小时，损失惨重[泪]
1,比赛今晚正式开始，“孙家班”迎战“饭团”“和宝仪战队”，18：10分“我主厨房”演示开始，19：30分三队开始第一轮比赛，今晚会很刺激哦?[鼓掌]
1,成都的小伙伴们阔以去柬埔寨体验一把异域年味儿[嘻嘻]
1,回复@语真a:[鼓掌] //@语真a:欢迎五月来了[呵呵] //@五月V:回复@彼岸无花君子为她醉:五月来了，五月很好，无花安好[呵呵] //@彼岸无花君子为她醉:回复@五月V:五月可好？
1,[哈哈] [围观] //@资芭咖：回复@天天天秤:不哭哈！今晚蹬回来哈[威武] //@天天天秤:回复@资芭咖:[泪]
1,[鼓掌][鼓掌][good][赞]
1,[萌]可爱的小芊芊[爱你]真正的小辣妹，无辣不欢，点菜都要特辣??
1,#漫游厦门#如此角度的厦门，依旧是那么动人。[抱抱]
1,周末开播的美食节目，请大家关注#和平饭店行政副总厨#@刘一帆Steven ，敬请期待[嘻嘻]
1,#My Dubai#金童玉女双双获奖[威武] 有新车了[哈哈]#迪拜乒乓球世界杯#@迪拜新视野 @迪拜旅游局 @迪拜卓美亚帆船酒店 我在:http://t.cn/8FwuZY8
1,都比刚出生的小孩可爱 //@小蕾丽莎: //@何洪波:小王八蛋[晕] //@陈安在:小草泥马可爱到爆[呵呵][爱你][爱你]
1,善举转 //@鲍奕:聚焦的亲人们，你们太有爱了[鼓掌]
1,我们马上出发了[嘻嘻]@tempuse
1,感谢今晚所有发短信祝男盆友生日快乐的达人老师们，地方站超带感的同学们和多年不嫌我烦的我的朋友们[爱你]
1,忙得没时间分享最近享受的美食，手机了存了太多的照片，午饭前偷个闲回忆一下，姐姐哪天见面呐，还有东西要给你呢[可爱] @菁制美食
1,喜欢我滴新发朵[爱你][爱你][爱你][爱你]
1,罗恩老师，你要火了么[偷笑] //@天天向上官方微博:快喊爸爸妈妈一起看！！在开心中找到学习记忆法[太开心][太开心]
1,??，吾女??芝麻， //@央央央皮:呵呵。我不是烧饼。我是麻圆。  //@樊荣强重庆口才培训: //@波佩:想起将艾青译成易经者，这个太欢乐了[哈哈] //@薄伽蓝: 转发微博
1,[哈哈][哈哈] //@白宗晋:[?]
1,诶，小年民俗活动就今天一天哦亲……下午来吧！[嘻嘻]已经不下雪了，但开车还是要注意哦。 //@飞猪猪猪:亲，活动到哪一天呀？看着眼馋，很想去呢~[蛇年快乐]
1,[太开心][亲亲][鼓掌]
1,三个小时的霍比特人，希望不要睡着#霍比特#[熊猫][哈哈]
1,《独立评论文选》毛边，美貌吧？[抱抱]
1,可惜今天学校注册没空，作二十四孝爹妈去。//@菜农XX:今天有演出呢 //@小小喔:[哈哈]哼哈二将//@滇剧传习馆张雄:我还没过克！
1,有选择性障碍的同学伤不起啊[偷笑] 马尔代夫偶这周又回来了[鼓掌]
1,一会儿见[爱你] //@雅尼中国乐迷会官方微博:我们最亲爱的雅尼来了！[太开心][泪][爱你]@雅尼Yanni
1,谢谢侯老师给我们的帮助和鼓励[呵呵][呵呵][呵呵]//@劲松侯老师:恭喜！[围观][鼓掌]
1,品木宣言面膜?惠套??好咯@小蛇k-s-babe [爱你]送?佳品
1,[哈哈] //@宣亚张秀兵:[哈哈]/@Terence_Zeng://@张岩爱琢磨://@王琪cnmo:乔布斯重新定义了手机，罗永浩重新定义了傻逼。//@邱赞?: //@马晓松:点评的太狠了[偷笑]//@明威:[good]//@老玉米农场主:够狠 //@互联网的那点事:等老罗今天骂人！[哈哈]
1,回复@黑米粒:下一次我们不住单人房，还同居~~[偷笑][哈哈] //@黑米粒:回复@泡鱼儿:谢谢泡兄，期待我们下一次的旅程。
1,这个不错。//@厦门小凯:原价49，现价40元！！！[偷笑] 点击购买支持[爱你]//@神龙创意出版:附送驴友音乐MP3光碟限量版，全国仅神龙创意淘宝店有售哦，台湾旅游必备书！仅售40元！！！热卖地址：http://t.cn/hb5Ytg
1,[哈哈]上班都没有这么穿过，起床自拍 我在这里:http://t.cn/zjitak2
1,颁奖开始，激动人心。@干邑之王路易十三 @Yan-Kuang [鼓掌]
1,哈哈哈，你有伴了 [哈哈][哈哈][哈哈][哈哈] @tungsten阿汤
1,回复@左岸一员:菊花残[哈哈] //@左岸一员:她坐在一个棒槌上呢[偷笑] //@易游天下国旅周军:说这话的时候，您坐得住吗？[汗]
1,信任你我的怡宝 [嘻嘻][嘻嘻][嘻嘻]
1,这个太支持了[哈哈]//@羊子手稿:想看小奴倒起走[哈哈][哈哈][哈哈] //@方澜静的??奴灬:狮子想听啥子  //@羊子手稿:冒冒说了些啥子？[偷笑] //@冒白烟哥:刚喝完冒哥也要吃[?嘴][?嘴]  //@宜良大锅米线:自甩[哈哈]  //@嘴嘴香:甩米线   //@方澜静的??奴灬:米线什么时候饱过[挖鼻屎]   //@南蛮洋芋:
1,回复@语真a:[嘘][偷笑] //@语真a:请问@五月V 老师，首席执行官书中的男主人公林肯是真实姓名吗？[嘻嘻]
1,杭帮菜叫化鸡。。。还有我的新鼻环[哈哈][哈哈][哈哈]
1,回复@elephant系谭宝滢:谢谢宝贝的支持哦~还要多多参加我们的活动哦~ //@elephant系谭宝滢:[鼓掌][鼓掌][鼓掌][鼓掌][鼓掌]
1,我打算周末带果果来汤山度假了！只是不知道有没有房噢……[可爱][可爱] 我在这里:http://t.cn/z8MDGDG
1,@上帝是仁慈的 [嘻嘻]  //@微博搞笑排行榜:以后家里就这么整[鼓掌]
1,考?女王啊，期待你?快?澳?找我喝一杯咯。[爱你]
1,我这戏看的还带表演的！ //@段焘:今天这戏演的，大碗儿来的真多，@姚晨 来了，@曹云金 来了，@素描闫妮 也来了，其实今天@刘仪伟 也来了，不知道我们的摄影师是否捕捉到了镜头！总之欢迎欢迎，热烈欢迎！[鼓掌]
1,#周末去哪儿#漳州长泰古山重，花都开好了。[爱你]
1,这时候去  @ 千岛湖旅游  踏青旅游正当时，刚结束拍摄回广州途中.[哈哈]
1,擦肩而过啊[哈哈]
1,大家来捧场@妙已 姐姐和俺做的这期伊斯坦布尔[嘻嘻]//@大黄力宏517OH: 耶！太棒了！我今天去西单图书大厦还问人家时尚旅游杂志怎么还不出啊？急死我了。。今天为了找一本伊斯坦布尔的书，趴那找了好半天，为什么每次时尚旅游都能出到心坎儿里去呢//@时尚旅游杂志: 时尚旅游2月号《城市读本》[赞]
1,#复活节早午餐#―重温奇幻时刻之甜点篇。送上饼房厨师们在复活节早午餐上的精心杰作，愿可爱风趣的小点心带来好心情，提前祝大家周末愉快啦~[爱你]
1,[哈哈]拉萨啊！
1,一品蛋酥算是甜品，喜欢干煸四季豆，家里是没法用这么多油煸出来这个效果啦，水煮牛肉比较奇特，跟川味有区别带点酸，还有辣子鸡丁，还是重庆歌乐山本地的比较赞拉，最后是菌类粥品，很香的药材味喜欢这种味道~[爱你]
1,[害羞][哈哈]@魔王1987
1,打算去张家界的同学快来瞅瞅~[嘻嘻]
1,我在南京，是人品失败吗？厚厚的一脸面膜中居然被告知今晚停水到明天早上！[衰]尼玛，亏好还有一缸子泡澡水！[晕][晕][鼓掌][鼓掌]  #自拍#  http://t.cn/zRXdBOM (免费下载http://t.cn/zj9vjC3 )
1,@2b气质小青年 这个DJ秒杀我了，真人比照片帅多多了，你下次来西安咱一起去看他[哈哈]#我又花痴了吗#
1,巨蟹的快来报到，我等着呢???????[哈哈]
1,[哈哈][哈哈][哈哈]赵老师戏说酒店！//@星硕-袁学娅:[酷] //@赵焕焱:父亲酒店业收入的67.12%、利润的62.40%来自于民族饭店、京伦饭店、前门饭店3个亲孙子。3个亲孙子没有家庭负担，做生意的利润率16.68%。3个亲孙子于2009年11月30日由父亲作亲子鉴定。
1,@妲小妲  这个有点意思，你懂的。 //@使徒子: 那场比赛记忆尤新啊[哈哈]
1,教主就是爱抓小辫子，A型血的教主就是乐此不疲的爱纠错[抱抱]
1,非常非常中肯的推荐啊，推荐大家都来网上购票，既方便又快捷，行动起来！[鼓掌][转发]
1,//@千里兵锋: O(∩_∩)O~//@文摘精选:笑死我了[哈哈]，给生活加点料，每天看一看让你笑到便秘[哈哈]
1,有一种秀叫亲切。[围观][鼓掌]
1,ヒマだったら?いてね[嘻嘻] // 有空的话请收听[嘻嘻] //@color-迦南:この状?なですか？嬉しいです！こんにちは！静?のおじさん[嘻嘻][嘻嘻][嘻嘻] //@静冈叔叔:富士山富士山！！！！ //@fiona_昂帕帕斯sama:@color-迦南 静冈静冈！！！！
1,今晚成绩不错，娱乐开心。。。[哈哈][哈哈]
1,希望她们永远都开心欢乐～//@林姐姐花园: 欢乐与美丽同在！[哈哈]//@彼得兔与丑小鸭:[哈哈][哈哈][哈哈][可爱].......搞笑一家人..... //@静老师:亲们欢乐的有点过分了!
1,回复@威士忌斯基: 昨天晚餐先生给沈爷提了几个问题了？！[哈哈][哈哈]//@威士忌斯基:哈哈，可以多问几个吗？凑一桌海参。
1,一个都不认识[汗] //@了宝宠物店_索爷大莉贝贝小帕:[ppb鼓掌]//@最销魂的电影: 同意[哈哈]
1,不好意思，没看懂，是半机器半手工吗？ //@非常友普茶楼高剑飞:回复@罐罐神:早9点半到凌晨1点半[微风] //@罐罐神:营业时间 //@非常友普茶楼高剑飞:回复@罐罐神:有免费无线网络，电视只有一个房间有[鼓掌] //@罐罐神:茶楼有无线网络么？有电视么？ //@非常友普茶楼高剑飞: @佳洁恒通商贸，@喜茗悟慧
1,回复@刘?a:还坚守在微博上，不容易[哈哈] //@刘?a:好久不见，问候谭总！[让红包飞]
1,#维他命选址#利苑酒家(金宝店)，东城区金宝街89号金宝大厦3层，010-8522 1212。吃完还可顺便去逛逛金宝汇购物中心，上人少座宽的百丽宫看场电影，招商卡买一赠一哦[嘻嘻]
1,#我不是明星#第二季我不是明星总决赛精彩重制彩蛋版还有五分钟就开始啦！各位已经备好炸鸡啤酒搬好小板凳坐在电视机前守候了么？[爱你]与此同时，第三季我不是明星也正在录制中……[偷乐][偷乐] 我在这里:http://t.cn/z8AqKFs
1,哈哈，菊家小熊[爱你]
1,好彩我都有得食[嘻嘻] //@KC?味??：感??的割?我才可以在深宵?份吃一件呀！[呵呵] //@人地女朋友:我都好喜?呢味甜品~正~[心]
1,回复@Phoebe富翁:我才不告诉你：高考数学不及格的人，一般不敢要100千印尼卢比的钞票，因为…作者常把100千印尼卢比的钞票当10千的给人――第二次换钱就特别说明：我不要100千的，你给我50千的――我被你们钞票的n个0搞晕了！//@Phoebe富翁:[嘻嘻][嘻嘻][哈哈][哈哈][哈哈]学得多快，赞一个吧//@大卫独
1,有儿不愁厨艺潮，百练成师厨艺高！[嘻嘻]
1,诈一听还以为是国安呢[哈哈][哈哈][哈哈][哈哈][哈哈] //@流落一瞬:[哈哈][哈哈][哈哈]
1,[哈哈] //@小小听听: //@费炜CK14:钱好像和我有仇// @Annie朱妈 : 我不得不转，祝大家都能这样[嘻嘻]
1,回复@南宁地铁之星:[鼓掌]太棒了！ //@南宁地铁之星:开了一段时间了，由原来的南宁至广州两趟列车中的一趟延长至深圳 //@小峻film:开通了？ //@POCO南宁站: [鼓掌]南宁直达深圳的列车呦
1,小自然再次获胜，手臂怎么才能那么细呢？手臂上有鸡皮肤的童鞋们，要记得适当去角质并每天擦上身体乳哦。这方法已经救了我的不下10个朋友了，腿也一样，就这么简单，坚持下去。鸡皮肤除了毛周角化症要靠抹尿素霜减轻，其它多数情况都是因为角质过厚，并且不滋润造成的。[抱抱]
1,//@散仙建龙: //@立耳犬://@草民专家://@骑天大盛: 拉屎需要报批//@立耳犬: 当大粪作为“武器“时，化粪池也就成为军火库，应派城管重点把守。[哈哈][哈哈][哈哈] //@天外说天下:致歉：博主未仔细检查，把时间错写成昨天！应为4月16日。内容无误。 //@渌江钓翁: 与民为敌者臭不可闻[哈哈]
1,歪打正着，今又打扫卫生了[嘻嘻] //@Poppy刘小佳:转发微博
1,等着。[哈哈]
1,有一个地方，去的时候如同归家，只想静对青山绿水，不接电话不发微博。离开之后，它却仍在你的心里、你的梦里，你的歌声里。[哈哈]@成都市街子古镇 @潘琪是我 @小谅谅的blog
1,五星要显在前额上，像包公，或显在胸口上。//@张晨初艺术空间: 整个新浪微博都知道是您原创的，还用得着注明出处吗?[哈哈]我也是从别人处转来的，知道肯定是您写的，就是这140个字写不下啊!//@法制洋葱头:转发我的微博而不注明出处，罚您给齐奇画幅中国角色。[亲亲]
1,每一个美居的成员祝福大家新年幸福安康！2013年一定是精彩的一年！[给力][爱你]
1,请大家仔细地查看活动规则，务必按规则出牌！大家一定要关注哦~惊喜不止一个呢[转发]@石城旅游 @赣州同城会 @瑶里景区 @明月山风景名胜区 @大江网 @爽网 [太开心]
1,多谢师弟！明儿演出完早点到哦。[嘻嘻]
1,[哈哈]//@方刚中国: 生活中往往，前面“高富帅”，后者“?丝男”。
1,@David?文天 //@enos_wong:今晚睇东哥//@演员程东: [围观][围观][围观]//@大嘴米高: 今晚见吧![哈哈][哈哈][哈哈][馋嘴][馋嘴][馋嘴]//@文萱fion:[围观][围观][围观] //@TVS我爱返寻味:@南方电视台@都市笑口组
1,再不用送我了！我自己可以的！@胡唐僧  //@Iam梦小仙:@秦秦磊 还有这样滴！ //@Cloey楠:@maybebaby 你家最近广告部钱太多了吧～//@冯跃Jimmy:看来A6还不能卖[鼓掌]
1,第三部咱们一起玩儿吧。//@judyg的遐想: [太开心][太开心][鼓掌][鼓掌]，期待大作！ //@王晟Daisy:[非广告贴] 北欧之行必备书目：《北欧的灿烂阳光》2006、《阳光不锈》2010。闺蜜圈，一人赠一本。//@judyg的遐想: 姐妹们，咱们北欧吧？！@王晟Daisy @土豆火锅韩 @阿拉锅 ！
1,晚安！过个精彩的周末吧！[鼓掌]
1,回复@CC_陈倩:祝福航班别延误!深圳见。 //@CC_陈倩:我到机场啦[嘻嘻] //@玉珠子:公关方案版本号都得上双号! //@kingo刘员外:呀呀呀呀呀！  //@张昊ali1976:广告公司设计也没好哪里去
1,又对着搞～非常怀疑，中间那场大雨是不是省台打了炮弹。[哈哈]
1,新买的笔记本到货喽~！[鼓掌]~质感，音响效果，画面……哎呀呀就是我要的那种感觉~！鼓捣了一上午了喜欢得不得了！――话说新浪微博为什么没有下面这个表情？好过分哦~！[哼]
1,公司birthday party下午茶[爱你][花心]爱巧克力[亲亲]
1,【来自甘肃的喜讯】‘主任，我老婆生了一个7斤6两的儿子，太谢谢您啦。’激动之后回想，她是一位弱不禁风的女孩子，第一胎因为发烧，孕六个月孩子夭折，再不怀孕。经过调理，她怀孕了，保胎至孕七个月，回到了老家。他们的信任让我感动。电话的那一端充满了喜悦。[哈哈][爱你]
1,任很重，道远不远? //@今视网陈大圣:钱只是一方面，观念，环境，体制都有待改善//@华子:说明中央财政比地方财政钱多[嘻嘻]
1,我放假啦放假啦啦啦啦[鼓掌][鼓掌]???????
1,[鼓掌][鼓掌]//@杨娇0707: 国丰维景的京都……@violet潇潇 @宁波开元名都大酒店 @Care-Elsa @王土土_trainer @李家熠-Jet @暮色流云天
1,哈哈哈，我0099 //@甘肃耳东木:[哈哈][嘻嘻]搞笑。
1,[爱你]快乐天天
1,[可爱] //@黄?泥: @茜吉尔
1,终于蓝天白云了[哈哈]
1,#为什么大家都买这一瓶？#到底是哪一瓶呢？难道是这一瓶？！三个提示：1、一件产品两个颜色2、宫廷御用古方3、线上线下秒杀万件的明星单品 即日起，关注@家化E起来 ，转发此条微博并写出答案，另@三位好友，就有机会获佰草集太极随身套装！只有20个名额哦！赶快来参加吧[抱抱] ~http://t.cn/aYQxLw
1,回复@yuki__yuan:期待您下次下榻~ 祝生活愉快~亲~[爱你] //@三亚亚龙湾华宇度假酒店:阳光暖洋洋的照射在海面及沙滩上。那些白色的细沙，被阳光染成了一片金黄。海面上，像是敲碎了一海的玻璃屑，反射着点点光华，亮晶晶的，闪熠熠的，明晃晃的……炫耀得人睁不开眼睛。
1,我要去一个地方，为我晚上要做的一件很有兴趣的事情做准备[嘻嘻]
1,//@方舟子:海峡两岸都一样，大陆这边不懂牛顿第二定律的文科学者也是一抓一大把吧。 //@太蔟:“理盲文”不就是咱们这儿的“文傻”么？[哈哈] //@三思柯南:龙应台竟然连牛顿第二定律是什么都不知道[吃惊] //@荒川围脖:[哈哈] [哈哈] [哈哈] 值得一看的文章，收藏了。
1,北京很难吃到的法国贝隆belon生蚝[哈哈][爱你][哼]????
1,理想的下午就是有好朋友自远方寄来的美味[太开心]那久违的玫瑰红糖和猪油缠绕的特别香气只属于喜洲粑粑[馋嘴]@丽江纳西妈妈
1,刚好粉丝在呢？[哈哈][哈哈][哈哈] //@超级走神女王:路边的女子不能睬[哈哈]
1,艾玛，也是要闹哪样？ //@微博搞笑排行榜: 太可爱了[抱抱]
1,腊九天，无限温暖?[心]谢谢@活着活着就明白了 @好摄女 [爱你][爱你]
1,还有12天就可以亲临现场了[嘻嘻]
1,是的，厚积薄发！喜得一副名书法[鼓掌]
1,寻找同人！ //@新派白领公寓:该房间现有新派公民寻求合租：单身女性，非常喜欢新派，现寻觅共同合租开间的女性！有意者请私信或拨打电话与新派联系：65258366、65131799！[鼓掌][太开心]@王戈宏 @赛富阎焱 @李坚Ken
1,坐等双十二[哈哈][嘻嘻]
1,我也是有Q章的人啦！[哈哈]]吼吼，没想象那么大，稀饭稀饭！谢专门送章印的老哥和雕刻师小宁哦?[鼓掌][good][威武]  我在这里:http://t.cn/8kRnZR4
1,昨天两集中最大的笑点！！[哈哈][哈哈]//@陈赫: 我真的笑翻了！当时拍戏的时候也是全场笑翻了！完全即兴的！我服了自己了！[嘻嘻][嘻嘻][嘻嘻] //@陈耘康康:卧槽~~~果断手机彩铃！！！！小东西长的真别致！！！
1,看经典有感觉。。。。。。。[嘻嘻]
1,#新鲜旅人看海南#【好色白沙---云飞雾飘九架岭】九架岭位于白沙黎族自治县县境，独特的地理位置，赋予了九架岭独特的自然风貌和景色。九架岭木棉漫山遍野，尤其是在三月，木棉花绽放，如铺天盖地的红云，真是“漫天锦绣连云开”。跟着@海南一明 看一场九架岭的云飞雾飘吧！[爱你]http://t.cn/zQ0TOeK
1,组团去点赞[爱你][爱你][爱你] //@刘忻:好意思吗[崩溃][崩溃][崩溃][抠鼻屎][抠鼻屎][抠鼻屎]还不快点点赞去[纠结][纠结][纠结][偷乐][偷乐][偷乐]
1,姑娘们，看过来//@王珏_OHC: #随手发解救静安男#[鼓掌]
1,[哈哈][嘻嘻][呵呵] //@龙腾精英超级模特大赛:哇哦~~#2013龙腾精英超级模特大赛# 太给力啦~~~[笑哈哈][给力][威武]我们就要让每一个参加大赛的选手有一个最威武的起点~~~[酷]@龙腾精英模特经纪-北京官方 @田晓龙
1,[耶]小扁豆//@BaoBao小小系列: 这光线这性感的小嘴儿，真是美翻了~[mua]//@万宝宝: 大仙儿真厉害！大仙照片儿真诱人！大仙儿预测真准?小扁豆卖光了！不过马上补货了！耐心啊！ //@DiDi得:橙色我的最爱[爱你]
1,"今天苏州2,3,4台依然可以看到哦[鼓掌]"
1,一直喜欢东子的主持风格 现在到了要检验他的评判水准的时候啦[鼓掌] @胡滨微博 @韩姐教你下厨房 @熊丽电台 @小二黑日记
1,黑人总是要多看很多眼才会觉得好看，有内在的气质[哈哈]虽然长得和炭似的，不过笑起来真是如沐春风啊
1,哈哈哈，你被录取了！@韩雪knight @洪毅7027 @在给我个号吧 @赵洲JJ //@咱们一起去旅行: 你被录取了！[哈哈]
1,#今日见识#听见一位男士教诲：＂只有被打死，也坚决不离婚的女人，才做得了亿万富翁的太太。＂我脑中当即闪过林凤娇隐忍素淡的脸。。。谢天谢地，这世上，尚余一部分女人，不想嫁亿万富翁[打哈气][鼓掌][酷]
1,普通码工 这其实和职业无关 即便打零工 只要有驿动的心肯定还是会走世界//@九万里而南:请问您是从事什么职业的？太让人羡慕了。可以经常带咪旅行真是人生一大幸事啊。//@咪游记:偶尔[嘻嘻]
1,看看自己哪里不好哦。。。//@安东尼写给不二的情书: 痘痘告诉你身体哪里生病了，实用！[鼓掌]
1,多可爱的宝宝，因为有了宝贝之家，她获得了新生，大家一起来关注#爱佑?一汽大众奥迪上海宝贝之家#[爱你]
1,回复@新浪福建:祝朋友们新年快乐！幸福平安！一切尽在其中，你懂的！[哈哈][哈哈][哈哈][哈哈][哈哈] //@新浪福建:借来用用！ //@TIM生命?客:#新年祝福#福建地名版祝词[围观][礼物][礼物]@新浪福建 @新浪厦门
1,人之福，又是什么呢？ //@一枚小女耶:哈哈，孟子曾经曰过的，人之患，在好为人师。// @lonelist :[哈哈]// @土摩托 : 禅师换成现实生活中的谁好呢？李元霸？XX仁波切？星云禅师？于丹？大家说说？
1,无限快乐的日子在等着你呢！话说每天早上也捡个小星星 送给我吧！//@李慧珍:好棒！等我啊！我们一起！[爱你][爱你]
1,真美。@薛欣 @中国摄影师杂志 //@小海学摄影:中国摄影师协会高级摄影师！[鼓掌]【颐和晴雪】摄影：平凡记录（北京）
1,想当年第一次出国，所以新加坡对于我而言有着很特别的意义，希望找机会能带着LG故地重游（PS：新加坡两年多次往返的签证真给力）[爱你]@新加坡旅游局官方微博
1,有你们这帮朋友我很幸福！！足矣[爱你][爱你][爱你][爱你]
1,[哈哈] //@喵呜_澄: 正确[给力]回复@WHO-R-U123:哈哈 害羞了[害羞] //@WHO-R-U123:今天讲课内容？ 要是来上这段 估计台下无数女粉丝为之倾倒 嘻嘻 配图好棒[得意地笑]
1,#三亚跨季营销 蓝海体验推介会# 【“精彩琼南?欢乐万人游”】各位领导共同按键，“精彩琼南?欢乐万人游”大型推广活动正式启动！[鼓掌]这个冬天，有你，真暖！
1,想挖社会主义墙角门都没有！[哈哈]
1,拉皮条的公司[哈哈]
1,祝大家有个更好的2014，马年吉祥，春节愉快！//@daiyu带鱼: [心]心中有爱[爱心传递]，有梦，健康，知足，平安，快乐[嘻嘻]，一路同行！
1,#Travelzoo旅游族超值酒店特惠情报#将酒店与当地特色必玩景区联合起来的一站式套餐，你感兴趣吗？@开元酒店集团 推出【旺季优惠套餐】[鼓掌]如@德清开元-曼居酒店￥358起；@绍兴开元名都大酒店 ￥520起； @丽水开元名都大酒店 ￥518起；@余姚四明湖开元山庄￥568起[撒花]http://t.cn/8sOVj2c
1,转//@kookzhang: 改天过来吧[可爱][可爱] //@高亚宁://@LOCAAMANDA: 必转呀！ //@kookzhang: 各位看到的亲们转起来我相信团队的力量是很大的哈哈@Seven_Zhang @LOCAAMANDA @NadiaFeng @amor27 @Arielarielbaby @阿一哒 @chloe-ren 我不一一@了[爱你][爱你][爱你][爱你]
1,终于看见初雪啦[馋嘴]是吃炸鸡喝啤酒的时候了吧[嘻嘻]#来自星星的你 #今天谁喝啤酒吃炸鸡了？我就#让红包飞起来#要不@济南火老幺食尚餐吧 喝一杯？[馋嘴][爱你]
1,上大片喽[鼓掌][鼓掌][鼓掌]
1,都是大家努力的结果，感谢[爱你] @健康主题酒店-sally苏 //@TINA_加菲喵:恭喜恭喜?
1,回复@SOSO星:[哈哈]改良一个大众点评 //@SOSO星:恩，绝对是手机应用，最好是菜单式是，点击我要去的景点，然后时间预算想吃的东西，就自动给我设计一条路线出来，附带相关信息。
1,回复@海南陈英文:就是故意的。[哈哈] //@海南陈英文:[右哼哼]你这是故意的么？[偷笑][偷笑]
1,矮哟~看到好多熟悉的名字呀~~@姜小顺 @大鹏wedding @金小?青儿Cindy @大于小文琳 还有各位我不知道微博账号的 葛钰莹、李依纯、常行行、王孟思、李亚仙子、张予佟 等等各位，让小宇宙爆发吧~！[鼓掌] @Bruce伊楠 @水果考拉 @徐景微博 我遥祝一下  呵呵~
1,这不是我家闺女吗？[爱你][爱你] //@一本书一句话一段情:有多少人的人生目标就是一定要生个女孩，然后天天把女儿打扮的美美的~
1,他的孩子能再给我一只吗…@爱在蔓延ai亦泷 大姐可喜欢暹罗了… //@爱在蔓延ai亦泷: @爱在蔓延安德森卡卡 @爱在蔓延的芝芝 @爱在蔓延马梁 @爱在蔓延那只叫高兴的猫 看看好奇妙的宝宝英俊吧[爱你][心]
1,将此种天气定格 //@黄玺赫:[鼓掌]
1,《Gravity》我是特意挑了IMAX 3D第二排正中看的……幸福的眩晕感~[哈哈]
1,[偷笑] //@逆境到顺境:@怀念那抹忧伤: [哈哈] //@海耀律师万文志:[哈哈] //@丹东小哥2010: [哈哈] //@邹佳莱: [哈哈][哈哈][哈哈] //@逆境到顺境: 胖：用那黏糊糊的大大棒往你奥叔那大核弹库处捅看他啥反映。[哈哈][哈哈][哈哈]
1,我请您吃：蒸羊羔、蒸熊掌、蒸鹿尾儿、烧花鸭、烧雏鸡儿、烧子鹅、卤煮咸鸭、酱鸡、腊肉、松花、小肚儿、晾肉、香肠……[哈哈]
1,@金宝汇购物中心 [鼓掌][鼓掌][鼓掌]
1,这样哪里是生病了，就是爱干净一些[嘻嘻]
1,快唱，快唱，协调一次喷泉容易吗[哈哈]《郑州解放之歌》如意湖场景[哈哈]@郭郭郭应巍 @活力944田歌 @DJ叶芊 @主持人大龙 @郑州新闻广播王婧 @主播杨奕 @光影蔓延 @爱在蔓延
1,全鱼宴开吃@范翔_舞台剧 [馋嘴][馋嘴][哈哈][哈哈]
1,#爱佑新生#[太开心]夏天真的到啦，快来一起活动活动吧！ [围观]
1,日光浴，没防晒霜又不会晒黑的办法。多长一点吧[偷笑][嘻嘻]
1,回复@我是六大:那件绿色是雨衣，来自美国TOTES品牌[嘻嘻][嘻嘻] //@我是六大:很喜欢之前橱窗里的绿色风衣？雨衣?每次路过都要多看很多眼。
1,回复@苏大美:这张照片你什么时候照的？ //@苏大美:[哈哈][哈哈][哈哈][哈哈][哈哈]我操，我笑死了行吗！！！
1,摘草莓[嘻嘻][嘻嘻]看看远方网新出的摘草莓攻略吧
1,@漓江出版社阅美文化 @阅美_王欢欢大魔王  //@bjfangfang:时尚的目光 //@北理工出版社亲子馆:这词用的好，纯自然上榜，[哈哈]//
1,皆さん、おはようございます[呵呵]今天名古屋晴，最高气温11度，最低气温零下2度。早晚的低气温，还是感觉离春天有点距离呢。从明天开始，天气转暖，感受春天吧！本博的活动还在进行，随手转一转，说不定就有好运哦[哈哈]
1,看来这一天的天气不错呦 阳光明媚 天空湛蓝 祝您也好心情 入住愉快[太开心]
1,[爱你][爱你][爱你] 节快!//@制片小林不加V:美女一枚 男淫们 真心不该错过 哈
1,两位歌坛麦霸@东方骏 @高山林 强强合作（@演员顾海 哥哥，那强强真不是你这个光头强强！[抓狂]），肚子都不小哦[偷笑]~~@青岛啤酒啦啦队郭婷文 @大唐玄机图_百鑫 你们家宝贝在中间抢镜呢[哈哈]~~
1,期待，我已替郭伟老师收了几个学员了@DJ桐桐991  下次一起。//@后花园-青色:希望木有令大家失望~！反正我是尽力了的~~[太开心]感谢今天到场捧场的朋友们~[爱你]这会都应该平安到家了？[din推撞]下次有机会我把@华泰明爵郭伟肚皮舞 请到家里作客，你们又来耍哈~@家家超超 @悦雨粤语 @绮琪-S @Lee-sofa
1,//@杜?YangDu:thanks Lucia！我要叫你雷锋啦！[爱你]
1,在爱琴海圣托里尼岛，清澄的天与地，显著的蓝白?色。选一家看海的小旅馆#The Regina Mare Santorini Hotel#，寂寂地看日出日落。#去哪儿酒店试睡员#的<试睡员十大最爱酒店清单> [爱你] 快来拍砖啦~http://sinaurl.cn/hbIsBj
1,[呵呵][呵呵][呵呵][亲亲][亲亲] //@时尚趣闻:我不喜欢AA制
1,真像。。。//@oo-bee: 哈哈 笑抽了 //@OO小黑猫:@oo-bee 是你是你[嘻嘻][嘻嘻][嘻嘻]
1,像！ //@俭小鱼:[耶][哈哈]
1,呵呵，没有时间去啊。。。要上班啊 //@怯弱的狮子Susan:[鼓掌]@轮滑风影 @李飒22688 @赵震浩
1,有意义的生日礼物，谢谢我的大哥[哈哈]
1,带着幸福休假，想大家（是不是表达的过了[偷笑]） //@燃烧的麦子:[哈哈]too// @Qunar?? : 我也很的幸运，哈哈，这真的是我第一份工作哦// @IM黄天文 :这样看来我真的是很幸运，哈哈。  @lily_李立   @Qunar??   @燃烧的麦子   @行者--佳明   @湿人彭文华
1,要幸福哦[爱你]
1,回复@强李有道:是真的开茶餐厅和水吧的结合体[委屈] //@强李有道:您的梦想是火锅店吧，哈[哈哈]哪天一起吃苗乡啊？@谢瀚Henry:开咖啡馆不是梦想，在咖啡馆里幸福着才是梦想！赞同[good]，本来鼓足勇气想开一家，结果，还是变成开茶餐厅了，看来，我还没有到追求梦想的阶段！！！[委屈]
1,十螺十足，骑马唱曲[哈哈]//@岩茶缘:没有斗怎么算？//@野山狐:你有几斗几螺？
1,[鼓掌]//@美库原创黎冬:[耶]//@龙瑞国际传媒:突破以往流行歌曲演唱会的框架，将军营文化生活全面展示，结合杂技、音乐剧、舞台剧等多种形式@美库原创黎冬 @喜悦蜘蛛侠组合 @章磊-新中国风王子 @追风骏马边疆 @追风骏马巴拉吉 @章磊-官方后援会 @范儿-鹏少 @美库原创music-莉莉王
1,一定要点酸菜鱼啊，他们家的酸菜鱼可正宗了！[哈哈]
1,呀嘉@阿?IS??嘉 首先更?祝你生日快?身?健康，原?你是1914年出生，真是?命百?[哈哈][哈哈][哈哈]
1,[威武][围观][给力] //@法图麦的妈妈:介是传说中的黄金组合？[哈哈]@李佳明 @杨帆的StyLE
1,您今天吻了吗? 亲一下![亲亲]
1,回复@泰禾-小田:[哈哈][哈哈][嘻嘻][嘻嘻]谢谢 //@泰禾-小田:真牛逼！赞！！
1,一出非常好的话剧，「撒娇女王」，有关四个女人幸福的故事！爆笑中满含眼泪，数次啊，眼泪哗哗的，后悔没带纸巾进去！每个演员都好优秀！[good][good][赞][赞][鼓掌][鼓掌][鼓掌]
1,//@最神奇的视频: 推荐大家都看看！更多精彩稍后@最神奇的视频 将继续为大家献上，欢迎继续关注！ [太开心]
1,据说即将兼任体育频道总监?[鼓掌]
1,#真人版“变相怪杰”#想看看中国版变相怪杰如何用下嘴唇包住鼻子吗？赶紧戳图啦！！！[哈哈]
1,闷骚男一枚，鉴定完毕！[思考]//@方大少HOW:[哈哈]这不就是说我吗？
1,#万圣节#祝大家万圣节快乐，我们马上就要出门讨糖喽 ，不给糖就捣蛋哦！[馋嘴][嘻嘻][嘻嘻]  @父母世界Parents杂志
1,移轴中的海参崴，像不像玩具城？[爱你] #途秀爱摄影#
1,谢谢老兄！//@嘎代才让:挺兄弟！//@尕让邓真: 回复@Sunny--TB:[可爱] //@Sunny--TB:[鼓掌][鼓掌][鼓掌][鼓掌][鼓掌][鼓掌][鼓掌]
1,回复@凉夏Sunny:[鼓掌][鼓掌] //@凉夏Sunny: @小象爸 @小虎同学tiger @1Crane @1058小K @1058姗姗 @-磊磊 @衷声_Yeti @ZhangYang?? @云南张玫
1,这功率够大的//@王金一STEVEN: 我看安不好的可能性很大。。[哈哈][哈哈]
1,"一起,再品它家好香[偷笑]//@齐柏林飞船:我们自媒体一起呗。 //@小小喔:[鼓掌][鼓掌][鼓掌] //@凌落777:算我一个吧！[嘻嘻]约@小小喔 一道[嘻嘻] //@嘴嘴香:速度报名 //@凌落777:[给力]"
1,[哈哈]后经过调查发现为猴王之子为早日夺权，被一小撮境外猴群利用进行颠覆猴王统治的行为，对此表示谴责。。//@贼不走空: 众猴儿纷纷表示将围绕在新猴王为中心的猴中央周围，建设和谐新猴群 [哈哈] //@我是黄乐:各类洋猴发来唁电[衰]
1,[鼓掌] //@???v:[鼓掌] //@财经新周刊:小编怀着万分激动的心情和大家汇报，第一期的财经新周刊收视率位居全国同一时段的第三名！谢谢大家对财经新周刊的支持！我们一定会再接再厉把节目做得更好。也特别感谢屠总对本节目的厚爱~[给力]@屠红燕杭州 @李建华中国 @万事利 @浙江卫视中国蓝 @80后沈涛
1,好久没自己做早饭了，煮好玉米，洗净黄瓜，煎锅无油牛肉火腿双面，锅都不用洗[哈哈]周一竟然挺畅通，要是再有点阳光就更配合了
1,可不是嘛，2012年 @酷盆 的新欢呀[嘻嘻]
1,回复@胡洪侠:明知故问，不好[哈哈] //@胡洪侠:是谁在网上调侃？查！[酷][哈哈]
1,痕都在心里~[哈哈] //@山奇导演:岁月无痕啊……[哈哈]//@冯楚迦_冯敏: 回复@瞿颖:[嘻嘻]哪能一样一样滴嘛，制作了一下撒~~[偷笑] //@瞿颖:冯敏你跟十几年前一样一样的！
1,我为什么总被问，您有邮箱吗？我每次听见就想笑，后来我就说，我有，我啥都有，有邮箱，电子和不电子的，qq、msn、微博、微信、飞信、陌陌等 [哈哈]
1,这样醒来就有惊喜啦。//@中昊传媒: 半夜里发福利[哈哈][哈哈][哈哈]
1,萝卜饺子.[围观] //@5A嵩县阳天池:对，白菜萝卜 //@饺子哥-:正是吃白菜的季节[馋嘴]  //@5A嵩县张相正:菠菜在秋天[哈哈]  //@5A嵩县范小红:青菜不在大棚里！
1,钟爱大粉的亲们，这一茬我们又种大粉了，座果也不错，能吃上了[嘻嘻]
1,快乐帝，一定要跟让你感觉快乐的人在一起交流。大排档，没有情人的花，还有好基友的饼干，七夕快乐[嘻嘻]
1,下班后迅速买菜，迅速做好两菜一汤，一个清蒸鲫鱼，一个葱烧豆腐，一个莲藕骨头汤，然后看着老公吃两大碗，阿宝吃一大碗――这也是一个女人的成就感。[鼓掌]
1,我得先减个20斤 //@正能量工坊: @张玉贞 @马小翠 @二狗 @柏莲美学生活馆 欢迎提问喔！[嘻嘻][哈哈][爱你] //@正能量工坊:与Iceman兵兵老师在微博上对话，共同探讨健身方式，关注你我最最重要的健康！
1,回复@克州电视台:好，继续唱下去……[鼓掌][挤眼] //@俺叫老鬼:吐鲁番。 //@迎风也三尺:哪的葡萄干最好 //@古道驼铃368: 就像新疆的葡萄干，这的空气潮气适度，风适度，别的地方很难晒出新疆的口感，白可儿晒。 //@俺叫老鬼:新疆，尤其多……[good]
1,这个猥琐的表情[嘻嘻]//@相声演员刘涛: 卖保险的[偷笑]//@相声演员侯振鹏: 有点上个世纪电子元件业务员的意思
1,回复@黑松白鹿-高琴:谢谢，效率高主要是和@北京黑松白鹿餐饮管理有限公司 这样的优秀企业合作，长期以来已经达成了很好的默契，谢谢你们三年来对博斐的支持！ //@黑松白鹿-高琴:感谢玉姐的辛苦，工作效率非常高。菜单做的很漂亮[爱你] //@陈玉霞博斐秀禾:大家辛苦啦，加油
1,谢谢海总！情谊如酒！[太开心] //@海拉特-苹果之父:[蛋糕][心]
1,@Touchchina应杰 ：美女征婚，征台湾骑行同伴，求转播~//@周小周: 回复@剽悍的:，来自真实的群众声音，谢谢亲[爱你] //@剽悍的:眼睛会说话 //@周小周:我能说其实我眼睛也挺大的嘛。。正经征友贴来了，天平女，近期征骑行台湾，远期征人生伙伴。希望你30+，有耐心，灵活幽默。欢迎各大V及粉丝团转发哈。
1,“自救”这个词的体现 //@布什说逆咋才来捏:[哈哈]
1,肥要减，但健康也很重要哦[可爱]
1,盖着~~千万别着凉啦[哈哈]
1,牛叔真牛~大爱奶特[爱你][爱你]
1,[嘻嘻][给力] //@梁静weibo:这小狗吃的什么啊，体格真棒[偷笑]
1,China Daily～[太开心] 我在这里:http://t.cn/z8AlIX8
1,丑妻乃是家中宝!不过诸葛亮要活在当下早就妻妾成群了!//@清华秦鹏:[哈哈]还是诸葛亮聪明，知道老天不允许人太完美，所以找了个丑老婆。
1,[可爱] //@诗人梦冉:这是我见过最美的房子和自然风光。 //@育邦:[good]//@子梵梅: //@摄影师曹有涛: 隐士，体验孤独的心灵之旅！
1,[嘻嘻]//@财讯欧文: ，形象！//@给力GIF精选:终于知道，为什么物价上涨了！！
1,[花心]//@绿茵战士: 一哥要不当明星都耽误了[哈哈]
1,谢谢帮俺做广告[哈哈]
1,#洋早点##一起来做中国好早餐#怎么做是技术问题，做不做是态度问题，所以，今天我还能爬起把这顿凑出来，从态度上来讲那是极好的！[嘻嘻][嘻嘻][嘻嘻]求表扬！
1,#植物控##多肉家族#翡翠珠到手啦~[偷笑][爱你]耶耶耶~[耶]@夏灼妍
1,因为曹植同样拥有曹操的基因，于是他对自己哥哥的妻子也产生了兴趣，并写了隐晦的情诗表达自己思念。曹丕因此囚禁了曹植，勒令他七步之内作出一首诗来，否则就得死。中国的诗歌很短，一般只有四行，于是曹植凭着自己的才能逃过一死。感谢上帝，那时候中国人――尤其是曹丕――还不了解十四行诗。[哈哈]
1,笑比哭好、笑比哭运动肌肉少、笑不长皱纹心里年轻面儿上不老[哈哈]//@北京乐成国际学校: 看着孩子们的笑脸总能开始快乐的一天！我们常说笑比哭好，但您是否知道其实笑比哭也要容易得多，据说“笑”这个表情用到的肌肉数量远比“哭”用得少，那就笑着面对新得一天吧！北京乐成国际学校向您问好！
1,呵呵，真的很不错哦！！[鼓掌]
1,[哈哈][哈哈] 如果匪徒再加一句：不准订餐呐？//@吴去非:KFC.......
1,回复@染香姐姐:我送@鸡排哥哥 的第1佳鸡排给你[嘻嘻][耶] //@染香姐姐:[爱你][爱你]要送饭哦 //@染香姐姐:怕的是你也进去了，咱们被一锅端。[哈哈]  //@隋牧青律师:三位无论哪位进去，在下一定尽力帮助请中国最优秀的律师来辩护，让你们感受到俺的守望相助情义 //@染香姐姐: 有我吗？
1,是不是石榴知道自己的季节短暂，才那么颗颗晶莹，粒粒饱满。。。嘿，九月，请叫我石榴姐！[太开心][太开心]
1,[爱你]亲爱滴粉粉们，一花一叶咖餐厅西单旗舰店、五彩城店、爱琴海店会员统一享受7折优惠喽[得意地笑]！五彩城店、爱琴海店更有好礼相送，开卡即送价值41元下午茶套餐券（卡布奇诺一杯、提拉米苏甜点一份），数量有限，先到先得哦。[礼物]快来走起吧[鼓掌]~//@中国烹饪大师-于铁柱: 转发微博
1,谢谢汕头网友社区[鼓掌]
1,[鼓掌][鼓掌][鼓掌]大家快帮我加油把吧！
1,[太开心]漂亮
1,回家学学啊~[哈哈]
1,@野树林花  耳朵飞起来啦~~[哈哈]//@JaneN简安: 太逆来顺受了！太逆来顺受了！我们摩卡有它的1/100乖，我已经谢天谢地了
1,//@林筱诺alin: 支持然然 喜欢的朋友快来听听 很棒[爱你][太开心]
1,呵呵，汤不错[偷笑][偷笑][鼓掌][鼓掌]//@陆小?儿:@杜小猫是条狗  吃的！
1,回复@朱芫玉:这个问题我也想知道，不过我估计，可能不是咱们想滴那个[嘻嘻] //@朱芫玉:我比较八卦的想知道你拉谁出来了  嘎嘎
1,[可爱]  要学游泳，学台球，学高尔夫，学插画，学架子鼓，学吉他。诚觅老师，本学生智力还行，不保证一学就会，但肯定虚心求教！
1,回复@凌引迪:怕给领导添堵，远离城市[嘻嘻] //@凌引迪:长沙的朋友如果不想雨中浪漫，去国际会展中心看中国中部博览会也是不错的选择，有很好看好玩好吃的东西。
1,多谢你的戚风蛋糕和那么多有趣的故事[爱你]
1,木有你怎么可能呀！ //@张丽124:哈哈必须的，瑶姐在里面的确是美极了！[鼓掌]
1,感谢飘尘给我们带来的这次愉悦之旅[good]也很高兴认识这么多英雄豪杰[嘻嘻]
1,今天感觉很累。但一看见这位小爷的照片，就会觉得很治愈[太开心]
1,哇，我要我要[嘻嘻]
1,争取今年能落地中国[鼓掌]
1,@王可以Kimi @开心Tingting @小粽子?? 发福利了啊~//@Debra_JULY: 回复@安安angel叶子:你给吃得下去 //@安安angel叶子:我负责泡菜烤肉，然后看你整容[嘻嘻] //@Debra_JULY:走，韩国吃个泡菜，整个容去，思蜜达~~~[偷笑]@安安angel叶子 @风间零式 @舒susuzhu
1,Cuesta-Rey Centenario ?[可爱]
1,#Dusit Thani Laguna Phuket#游客的安全是我们最关心的~[爱你][爱你]
1,[哈哈][哈哈]//@黎光寿:以一种占便宜和贪婪的心来解释历史问题，就像万花筒一样
1,"#免费去远方?花海里的美食之旅# 怀柔月牙湾的美景[爱你]结束行程才发现我相机里居然没有一张自己的照片,一张都没有...[委屈]艾欣是多认真的孩纸啊,只顾拍月牙湾的美丽,还友情做起外拍模特...@远方网 这种行为值得奖励不...[害羞][嘻嘻]喜欢的照片,摄影by老骆驼。"
1,罗老师应该用微信找周围的人[嘻嘻] //@冯洁-去哪儿网:要离的近就冲过去了，好歹见着老罗真人呢。 // @罗永浩可爱多 :微博的效果还是很有限啊，算了，到点开场了，我扔掉了。
1,狗爪~[哈哈]
1,[耶][耶][耶] //@我是宇宙无敌小水:我相信你的实力[闭嘴]//@刘海斌强强:好吧 //@我是宇宙无敌小水:有压力才有动力[耶]//@刘海斌强强:有点压力了！[汗][汗] //@我是宇宙无敌小水:吃饭包婚介[哈哈]不成不要钱[嘻嘻]//@刘海斌强强:求姻缘来这里！你们懂得！
1,[哈哈][哈哈] //@Jessicalinan:我嘞了个去！@谁谁-LinLin @Cici妖怪 @卡拉羊Carla @青山眉黛 @头号吃货爱唱歌  //@胡秀英---减脂塑形:在配合营养和运动，效果更好。
1,如果在海贼王里，我的性格最像路飞。据说@相声演员康松广 和@相声王威 的性格最像山治，@叶子上的雪 @星?molly 和@雅楠Shirley 最像娜美。还挺像你们的哦，不信去测试一下。[嘻嘻]http://t.cn/zOHhdZV
1,@?氏?? 这是你在妈妈@??兔拉拉 肚肚里就已经和他是好朋友的小海马[鼓掌]管大用了，你把我们吸引力全聚你身上，他是把你吸引力全聚他身上啦[抓狂]用他来哄你太好使了。[偷笑]
1,//@野歌：想念！//@厦门大学: 最美校园里有你也有我，让我唱一首爱你的歌[爱你]
1,今天阳光太好了，这样的天气[太阳] ，心情好，偶们当然要自驾出游咯。[亲亲] 另外，看到围脖上说，今天是小满，我开始还以为又和“私奔”“520”差不多的无聊搞笑咚咚。。后来才晓得这指的是夏季的节气，呵呵，惭愧惭愧[害羞]
1,很美的啊！//@三亚国光豪生度假酒店：//@捷报摄影JBPHOTO：@行者无疆365820 欢迎随时关注 [哈哈]
1,欢欢喜喜过大节喽[爱心传递]//@威廉餐饮管理机构:[哈哈]
1,[鼓掌][鼓掌][鼓掌] //@哈义热木:不错~
1,回复@Po要poo:亲 咱们目前只做淘宝经营 计划一年内实现实体经营哈~谢谢亲的支持！ //@Po要poo:还是没说啊… //@BraveCake洛凝L:亲这是吃太爽的节奏啊[哈哈]
1,你们这也搭车了 //@苏拉--墙根:回复@-逆风飞行-西瓜妞-:[哈哈][嘻嘻]迷路了！走到盘山公路上了！被一辆货车救了！  //@-逆风飞行-西瓜妞-:昂？  //@苏拉--墙根:[哈哈][哈哈]好啊！今天我们又被救了一次   //@墙根网-蜗牛:等着回去看照片
1,休息一下眼睛，期盼已久的花花终于开了……这万绿丛中的一点红啊，高贵死了[亲亲][亲亲][亲亲]
1,和老外朋友?在好?笛午睡中，奇?啊！[哈哈]
1,支持！//@DJ曙光: 都来投票啊[嘻嘻]@阿仝木 @背包客小鹏 @BTV杨艳 @BTV祖冲冲 @DavidFeng冯琰 @冯关蕾 @高颂 @高欣_百合 @郭茜Cherry @九歌宣元 @Lu瑶Yao @趴趴熊-Elsa @馒头圆圆 @美丽毅 @怒怒小哥 @齐天胤的微博 @田野Manu
1,偶正在努力中。。。[害羞] //@lovesumisumi:我可以都做得到......哇嘎嘎。。。哈哈哈哈哈。。。[哈哈] [跳舞花]
1,我只要新娘 //@刘万祖:是没人要[汗]//@刘敏-旅游达人: 木有人要 //@白雪新娘:那还是把你送出去得了//@刘万祖:不满意可以退换。[花心]//@白雪新娘: 没有三包保证哦[嘻嘻]//@刘敏-旅游达人:谢家门兄! //@刘万祖:送给刘总@白雪新娘: 各位把我送到哪儿啦[怒]//@罗旭友-品酒论道:下手晚了[泪]
1,那我们是超文艺公司把~放10天[嘻嘻]
1,又上高速奔驰了！一周三次了！全是为了自己的事儿！与你 @Poet小峰峰 有一拼了！[哈哈]
1,实在禁受不住原宿娃娃的诱惑，于是决定把它带在身边，那甜甜的感觉呀[亲亲]
1,[鼓掌]不错，回家我也给你亲笔签个名。。。
1,My 3rd song[嘻嘻]【你我的心：中文歌词】→ http://t.cn/zj4XvoF 歌，合唱：Miss X and 大村敦志 作?，作曲，演奏，?音：大村敦志 翻译：树海森[可爱]
1,好棒~文科的孩子继续加油吖~[鼓掌][心]/@lzh桦_:理科好像跟我们11届差不多，文科算是有点进步啦！[鼓掌]//@Astro敏娃要启动飞翔吧涂墙模式: 从今年情况看还是文科生考得不是很好啊 理科就真的挺强大的
1,[鼓掌]欢迎入住老磨坊[抱抱][抱抱][抱抱]
1,花牛也想着下回做时，好好聊聊这种奇特蘑菇[哈哈][哈哈]//@新浪广东美食:求科普~~//@嘟嘟小花牛: 回复@营养师娟子:是吉林这边，妈妈去农村里的山上采的。哈哈，很清香的菇味，透着山里的土香[哈哈][哈哈] //@营养师娟子:这个蘑菇在哪个地方有生长？怎么吃？
1,白娘子，你在哪里啊？//@1句实话: 可爱！！[心]//@丰乳肥臀v: 小可爱！[爱你]
1,[鼓掌] 欣赏、赞赞~
1,祝贺！！[鼓掌]@宋玉伟2010
1,小马哥真有格局[呵呵] //@宅男小徐老师: 如果真可以，我愿意申请一本，出国旅行方便[爱你]
1,没有胡子的李大仁一样爱！[亲亲]
1,亲们奉献手指不？ 我来试试[嘻嘻]//@陈涛carlos: [哈哈]可以试试，好玩@安妮宝贝佳丽 @艾子Gio @客家ROCK陈善宝 @吴铭rose
1,哎呀呀收到啦好好看呀果果看起来也很开心呐哈哈哈[亲亲][花心][心][兔子]
1,模范司机的美好回忆。[哈哈]//@肉头阿咚:勾起我美好的回忆。特别是我驾车的一段，总有华子点好烟递上来，还有两位美女不停地递过来好吃的小吃，曰“香香嘴”。当然也还记得大家要把蓝风的摄影卡格式化的蠢蠢欲动。
1,[嘻嘻]祝生日快乐！玩的开心喔
1,小编也很爱[哈哈]
1,我居然有?家秀啦哈哈哈[爱你]
1,回复@魂在丽江:有小伙伴成功秒到3元机票，恭喜哈 //@魂在丽江:居然秒到。[哈哈]
1,ok 一路顺风啊[耶][握手][亲亲]
1,奇石节[鼓掌]
1,@小糊涂诸 @张泉灵 [哈哈][哈哈] //@甲申辰:[笑哈哈]//@yinyin刘: 那不要孩子的应该立刻击毙吧。。。。。 //@财经网: 【哈！哈！哈！哈！】暴笑转身去，不留一云彩。
1,[哈哈]那个你更期待呢？
1,[可爱][太开心] //@lsp宝环:@燕赵美食
1,哈哈，这样的瓜是肿么弄出来的啊[哈哈]只能说确实是日本人啊！
1,支持下我们帅哥会员拍的片子！[嘻嘻]
1,回复@张革:哈哈，哪个女孩想使用这尤物？文气、帅气、又有Iphone4 //@涂孝丰:相当不错 //@张革:难得被@传媒老王 表扬回…[哈哈]是都市快报美编朱玉辉的作品，中国美院最早的视觉传达专业毕业生了…
1,[good] //@七仙瑶池康年温泉度假酒店:位于七仙岭国家旅游度假区，想象一下躺在椰林里，在一片绿郁葱葱、花香岛语的环境下洗温泉澡，是多么的心旷神怡、宛入仙境。[心]//@佳堤国际贸易: 美妙的巴厘岛风情！还应该有鸡蛋花的身影~[可爱]//@涵舍木制别墅: //@翔子PHOTO:我想去泡~
1,给大家拜年哈，一切都很美好，我也很美好，幸福生活开始了[嘻嘻]
1,ICS上海外语频道《独立探店报告》年度颁奖礼即将在朗廷扬子火热上演！@ICS独立探店报告 期待……[鼓掌]
1,这刀补的[哈哈][哈哈]
1,收藏了！未来北京开店打广告。[嘻嘻]
1,//@第二类爱情: 后面两只你们凑什么热闹！[哈哈]
1,最喜欢第二张了，你们呢？[爱你]
1,期待秋天到来～早安[爱你]
1,//@萌宠集中营：帅。[哈哈]
1,北京人民也没闲着，比如今晚[哈哈]！
1,//@非诚勿扰: 新年的脚步近了近了~~[偷笑] [哈哈] 我！要！过！年！
1,这得是多大的企业，连饮水机都有专人管！讲究！//@Ami大爷: 哈哈哈哈哈哈哈哈哈[哈哈][哈哈][哈哈][哈哈][哈哈] //@衣锦夜行的燕公子:哈哈哈哈哈哈哈，要是饮水机本人就更牛了！
1,女会员专属月拉开序幕.打造北京地区最大女性跑车车主平台[嘻嘻]//@汽车微吧:90后小MM 新提座驾宝马Z4入门跑车！超酷哦~ http://t.cn/zHyAT41
1,[嘻嘻] 爱户外、更爱自己，请选好出行装备~
1,回复@湖北黄陂大余湾:春天来了，小伙伴没们去大余湾踏青看油菜花玩穿越正当时哈[哈哈][马到成功] //@湖北黄陂大余湾:百闻不如一见，到大余湾来看现场更精彩！ //@简安然: //@黄陂旅游: 看过《还珠格格》的小伙伴应该会记得[偷笑]
1,收下钻研~[哈哈]
1,物业不给力啊，周末没空调啊，36度的杭州伤不起啊，敢不敢给周末加班的人一点生存空间啊！从来不咆哮的人都咆哮了啊！！！[抓狂] 高温折磨下，我想出一个点子，以后是不是可以按性别分区域办公，男的一个屋女的一个屋，然后都光着身子工作……@#%￥……YY中……[哈哈]
1,?欢乐康源年?全体演职人员大合唱，将此次联欢会推向高潮，希望康源瑞廷的每一年都充满欢乐，让我们在这欢歌笑语中一同迎接2012龙禧之年[鼓掌][鼓掌]
1,//@我是歌手: 从摇滚最顶峰跌落，唱出的都是她的故事！[泪]好在一切又美好了，祝福摇滚妈妈！#我是歌手# [爱你]
1,"这才是真正的角色互换cosplay,就是口味削微重了点！[哈哈]"
1,生活中也有比童话更美好的事[爱你]
1,[偷笑] //@丛真: [哈哈]
1,#梦想成真#从这个星期开始，我们陆续收到一些爱心人士捐助的礼物。其中部分无法亲临现场的“助梦”者也亲笔写下了自己的祝福和鼓励，让我们转交给被捐助的孩子。看到更多的人参与这个爱心活动，我们更要努力前进，召唤更多的正能量！ [围观][鼓掌][拳头][爱心传递]
1,五台山上[兔子] [可爱]@釜山那些事儿 @酷讯旅游体验师.
1,回复@羊小羊0707:[嘻嘻]必须赞一个，呵呵！~[话筒]玉林烤鸭的粉粉们，建达店已正式开业啦，欢迎大家前来捧场哦，会员享受5折优惠啦（酒水除外）！[鼓掌]地址：朝阳区东土城路14号建达大厦二层。（地铁路线：地铁2号线东直门站、13号线柳芳站下车）。详询：66572688 //@羊小羊0707:羊大爷赞一个[赞]
1,#新加坡.淘周末# No.13浪漫的水下餐厅 @圣淘沙名胜世界 的海之味餐厅，在这里来上一顿精致的午餐，是不是一件绝顶浪漫的事情，心动了么大家？人均消费大约60新币，还不错吧[嘻嘻][嘻嘻] 我在这里:http://t.cn/8FST5aq
1,回复@鸵鸟5号:没链接。海淘拼单的//@鸵鸟5号:花朵衣七八个月时能穿吗？给个链接呗？谢谢[嘻嘻]
1,同感……难道是自卑型人格大爆发？[泪][嘻嘻]//@西岭雪: 我觉得没有安全感，怕欠了别人……//@画眉: 呃，这是因为讨好型人格么?[挖鼻屎] //@西岭雪:你也有这恶习啊……//@画眉: 同病相怜的转[偷笑] @坏蓝眼睛
1,摄影师技术一流！[嘻嘻]
1,[哈哈][哈哈][哈哈] //@明月文馨812:[鼓掌]
1,这是又来梨子家的节奏么[嘻嘻]//@张一桢Aries: @大鸭梨中国 会员果然很强力！还有招行信用卡！吃空！[哈哈]
1,"好快又到星期五咯, ?末又到了, 好期待!! [嘻嘻] 期待??天都是好天?呀! 提提大家今天下午五?截?咯, 明天??, ??又得等下次咯。嘻嘻! [哈哈] 4天真?去??, 明年努力咯~"
1,酸汤肥牛和这个酒，绝配[嘻嘻][馋嘴] 我在这里:http://t.cn/8ke3pnA
1,[哈哈]//@Aikey哩小?:她实在编不下去了
1,早傍晚时间，最合适的就是有一只煎?得外脆内嫩的鸡腿，配上一杯冰镇白葡萄酒，先顶着，然后一路吃一路想着宵夜吃啥？[太开心]
1,我的新书也要4月24日当当网即将上市了哦！关注支持啊![哈哈]#就想开家咖啡馆#
1,[可爱] //@心影随行: @红脸兔子 报道出来了哦！
1,呵呵 咸阳，曲江离留坝都不远，既然幕后了，就请来坐坐! @张良庙紫柏山风景区管委会 没说错吧，去拉上@楚汉传奇 你和萧兄韩弟该认真请请客啦~ [哈哈][哈哈][哈哈]
1,相当于国内价格的一半多。[鼓掌]
1,我想要大眼仔[嘻嘻]
1,#2013CBC&SCAE咖啡烘焙 Level 1#哥伦比亚咖啡行业协会大中华区代表吴嘉航先生（左二）来探班[嘻嘻]
1,哈哈哈姐们哥们真捧场[嘻嘻][喜得金牌]//@爷爷的咖啡磨: 我也支持支持 //@朴儿虫:俩美女都是我的爱！ //@Asn天天叫潇: 同支持~//@女尼兔娘: 支持好朋友@霏霏和SpongeBob 的文章！采访得好，祝福！
1,回复@弥藏乐队:[威武][爱你]
1,//@爬山的二飞: 绝对立志！[good] //@胸器锅:首转。活脱脱的变型记。为你的魄力鼓掌。[鼓掌]
1,生快[嘻嘻][嘻嘻][嘻嘻] //@琳琳达达:今儿谁在微博上祝安达仕一周年生日快乐，琳琳达达立马就送蛋糕给你吃！[蛋糕][心][握手][ok][耶]
1,哈哈，反正我乐了。 //@那志东:[哈哈][哈哈][哈哈] 三胖碉堡了！@杨亚洲导演 @导演高升中 @导演龚艺群 @高玉庆 @高亮一演员 @丁海峰 @韩刚导演 @柳小海 @演员由力 @吴刚de微博 //@导演潘镜丞:[哈哈][哈哈][哈哈][哈哈][哈哈][哈哈][哈哈]
1,"[爱你]//@冬雨5188://@蓝风摄影: 周末好！[咖啡]//@书涵云冰: 紫藤春?迎风垂,??细蕊千紫媚."
1,没问题，来时记得带着???????????拜师礼[哈哈] //@没名字0261: @卤煮鲍鱼 四岁的儿子，给你当徒弟吧
1,"都怪我?知至?，才?出你?。[哈哈][鼓掌] //@镜享人生-重庆:丹氏汉堡包乃我独创之中式汉堡,里面暗藏羊肉,你个只知垃圾烂火锅的没美食基础之盲流,是欣赏不来的!老子非常同情你,同时必须原谅你的无知[哈哈] //@哈戳戳: 牛尾煲?藕尚可，?堡包?垃圾如你。[哈哈]"
1,"//@Ophelia_钟惠妍:忧郁的眼神,唏嘘的须根……姐姐爱你[爱你][爱你]"
1,还是来半岛吧。清新幽静私密给力[哈哈] //@蜜蜜嘎儿: 破地方，还都爱去
1,早客有礼奥[爱你] //@TRB欧式西餐厅:早客有礼的星期五来了！[嘻嘻]
1,早上7:30考试的，因为信息没被录入，等到10点再考[泪]我那个紧张啊，好不容易倒桩过了，我册那小路考侧方移位机器故障一刚！好在姐今天拼命淡定，没有补考一次过[嘻嘻][哈哈][偷笑][鼓掌][太开心][做鬼脸] 谢谢兄弟姐妹们的支持[鼓掌]
1,[鼓掌][鼓掌][照相机]
1,//@VVuTing:[哈哈] //@李开复:还好有个李安争光，否则我们姓李的要被你们黑死了...@追梦之尘
1,洋儿的夏日。[嘻嘻]
1,回复@释迦子V赵州茶:[哈哈]您太幽默了！俺们公司今儿提前半小时下班 //@释迦子V赵州茶:回复@有福社长:全部休假来庆贺这个节日。
1,@非凡精选xGallery  [嘻嘻][鼓掌][鼓掌][鼓掌]
1,青海湖，陆心之海。火车上的广播介绍着：被中国国家地理2005年选美中国评选为中国最美的五大湖之首！[酷][太开心] 我在:http://t.cn/zW8TVHm
1,帮转 //@冷小曦Qoo://@王小源: 您真是被逼上梁山了。。。[汗] 帮转！[哈哈]
1,[哈哈][哈哈][哈哈] //@黄雪冬:你们今天特别帅，高导连肚腩都没有了。[good]
1,[哈哈]不怕抄，要抄出特色//@赛赛身边王兴文:哈哈 //@新浪科技:2002年，盖茨手持微软平板电脑，无人问津；2010年，乔布斯推出iPad，风靡全球；2012年，鲍尔默发布Surface平板，人们说他抄袭了苹果。
1,[哈哈]很气场的说，突然想念哥顿哥哥的无限创造力！//@杨青YangQing: 今天被我的闺蜜哥顿挑衣服，在适合我的有限的范围内，哥顿发挥了无限的创造力，店员和顾客纷纷驻足围观，我羞涩万分，这套似乎是不错，但似乎又热了点儿，呃.......
1,[偷笑]我努力笑得低调点 //@及时行乐a: 第二个太不严肃了[嘻嘻] //@kb8q:转发微博
1,有趣的“悲剧”设计！[哈哈]
1,回复@24K庚金:人生路漫漫…与吃为伴是最好的选择。 //@24K庚金:冷无可忍，今晚若不去@风林火山私家牛板筋火锅 吃个火锅，人生简直失去意义[嘻嘻]
1,产品主视觉无新意啊[哈哈]
1,可爱的设计 //@美国加州核桃协会:哇，这是哪位大师设计的呀，太赞了，既饱了口福，又刺激到了萌点，啦拉啦～[抱抱][抱抱]
1,"看着瑶里稻田里金黄的麦穗，远处俊秀的青山，路边挺拔的参天大树，呼吸着天然氧吧里清新的空气，立刻感觉到身，心，眼的通泰舒畅，有一种远离城市喧嚣的惬意。亲们来瑶里吧,给心灵放个假.静静地![抱抱]"
1,果冻想抱抱你们！[哈哈][爱你]
1,[鼓掌]恭喜恭喜！期待您再中大奖哦~[ok]
1,今晚Cad73！露台时代回来啦[嘻嘻][嘻嘻][嘻嘻]
1,什么价位? //@青岛热门:[爱你][爱你][爱你]
1,一个字：美！[爱你][爱你][爱你] //@蔡紫芬官方影迷会:[给力][给力][给力]
1,你又进步了，越来越能吃辣了呗[哈哈]
1,打开冰箱的瞬间，我感觉到了作为吃货的压力[哈哈][哈哈][挖鼻屎]
1,[泪][泪][泪]感动啊[good]//@武汉权金城韩国烧烤:[鼓掌][鼓掌][鼓掌]祝贺权金城，[围观][群体围观]权味员工获得2012年度北京市餐饮业感动服务之星[太开心][爱你]
1,亲情与爱的力量是伟大的！小郭奥，加油，希望你能早日醒过来！[爱你]
1,[哈哈][赞]//@重剑wu锋: 脸皮薄吃不着
1,哈哈哈、真好//@小迟妮子: @相声演员张瀚文 还是那个地，还是那个桌子，只不过你换成了叉子媳妇。[哈哈][哈哈][哈哈][哈哈]
1,@崔程 确实要花一笔人情费[哈哈]准！
1,[哈哈]看来决定的时延是6秒才对
1,来看好风光啦！[嘻嘻]
1,两点起床跑步，然后作饭，现在要开吃了[馋嘴]享受一把无时间概念的自由[哈哈]
1,内什么 其实那些年我也光头来着 并且带过眼镜 不过就是没坚持下去 咳咳 看来坚持一件事是很必要的 为此我在一个特别北京的小店 小吊梨汤 开了一瓶牛二 这里小菜做的可真地道 跟我小时候做的一样一样的好吃的恨人 太对胃口了！ //@四海游龙1018:哎呀，老怀安慰，终于成功嫁出一个了，高兴嘻嘻][嘻嘻]
1,祝贺！[赞]//@心理学向晴: 做心理学应用领域的创新工场！精进！祝贺团队！[good] //@aprilchen的午后暖茶: 团队融合了，更有凝聚力和更加坚定目标了，找到自己的方向，[嘻嘻]很开心！
1,感谢@单反这样玩 的分享。借此分享给各位即将前往#安纳塔拉#度假的朋友们，期待各位分享假期靓照[鼓掌]
1,回复@李丹翼辣妈:那个祝美娟还没发来呢，让我来这么早，特约演员也是演员啊……[泪][雪] //@李丹翼辣妈:[可爱]
1,再次表扬与我同床8天的90后美女，超超可爱的小跳同学！但是――你们聚会……这不是气我离得远吗？[懒得理你] //@谢惠乾_左琴右书:[太开心] //@张雅雯雯雅张: 亲爱哒们，哪天聚聚呗[嘻嘻][嘻嘻] //@魏音音:想念各位……@谢惠乾_左琴右书 @leila是莱拉不是莉拉 @张雅雯雯雅张 @摩羯甜甜的
1,秒拍#李云迪工体新年音乐会#，赢门票[耶][太开心] http://t.cn/8kmdagk（来自@秒拍 http://t.cn/zQwVyZf）
1,想去//@食品界姜昆: [哈哈][赞]//@秦州牛:[哈哈]给你养养眼！//@食品界姜昆:最近跟风景干上了！//@秦州牛:@食品界姜昆 @陈东平微博
1,怎么都爱不够你！你的好，你的坏，你的淘气，你的小心眼儿~有你陪伴的八年，每天都是幸福的！希望你能在陪我N个8年！???大狗咪[爱你][爱你]
1,交规成就达成！感谢超哥感谢康爸爸，感谢驾考宝典，感谢木仓科技，海驾是个好驾校！[可爱]
1,回家看CCTV5冬奥会节目，组委会新闻发布会刚刚解释五环之一没有打开，接下来就是奥迪广告-奥迪见证冬奥辉煌时刻，太欢乐了[哈哈]，CCTV5你故意的吧[做鬼脸]
1,比@破破的桥 的好哈[哈哈]//@乔淼Roy: UIUC，University of Inland Unqualified Chinese//@御马墩上蹲: 英属哥伦比亚 UBC，University of Billion Chinese
1,那时就有型有款了~[赞]//@无敌兔66: 20碎俺就是这种打扮[酷] //@整合营销传播推动者:狠帅啊~~[酷]//@无敌兔66: 剃掉长发胡须其实就是一猛男[哈哈] //@整合营销传播推动者:@爱运动的道长 @无敌兔66 [酷] //@西湖曾驻:谁拍的―我的―未来！[酷]
1,有村上的推荐哦//@磨铁第一编辑中心: [抱抱] 你好，小确幸！欢迎大家借阅，让我们的“小确幸”都流转起来吧！
1,故事男猪脚名字还挺特别的[嘻嘻]
1,可能就是那一秒爱上一个人[偷笑]欺负二叔的日子心情就是好[哈哈][哈哈]坐在车里看着二叔抱着我一打的快递在小雨中踱步走来，我就好想笑[哈哈][哈哈][哈哈][哈哈]
1,//@叟头卦弃: //@施微微: //@Juliayli: //@大风海上:[哈哈]//@欢喜liao: [哈哈]//@高慧然: [哈哈][哈哈][哈哈][哈哈][哈哈][哈哈][哈哈]@FAIKUNG
1,城市1对1对咱家的报道三[可爱][爱你]
1,新郎新娘及双方父母共舞一曲感动喝彩[哈哈]
1,冬天吃吃海鲜火锅，不亦乐乎[嘻嘻][嘻嘻][嘻嘻]
1,2000字是个太可爱的要求，至少4000才能写出点东西吧。你们别打我哈[嘻嘻]
1,回复@85年加密绿茶:恭喜你，写对了，格式正确[嘻嘻] //@85年加密绿茶:#途易在线竞猜欧洲杯# 4强为德国、法国、英格兰，班牙，冠军为英格兰。
1,#生涯小厨#可乐鸡翅～燕雀何须鸿鹄志，乐得快意任凭生@刘波平厨师军团 @中信出版李明 @言冬 @主播胡哲峰 @福建我爱厨房2012 @名厨 @潘泺蔓 @大宝贝梦琪maggie @春妮 @郭小懒 @董克平 @熊丽电台 @小P的自由生活 @颜小兽 @经典丶古诗词 @美食一角 @刘颖SEO @美味人生 熬夜加班的有木有？福利来啦[嘻嘻]
