label,content
0,房间太小。其他的都一般。。。。。。。。。
0,"1.接电源没有几分钟,电源适配器热的不行. 2.摄像头用不起来. 3.机盖的钢琴漆，手不能摸，一摸一个印. 4.硬盘分区不好办."
0,机器背面似乎被撕了张什么标签，残胶还在。但是又看不出是什么标签不见了，该有的都在，怪
0,呵呵，虽然表皮看上去不错很精致，但是我还是能看得出来是盗的。但是里面的内容真的不错，我妈爱看，我自己也学着找一些穴位。
0,"这本书实在是太烂了,以前听浙大的老师说这本书怎么怎么不对,哪些地方都是误导的还不相信,终于买了一本看一下,发现真是~~~无语,这种书都写得出来"
0,我看过朋友的还可以，但是我订的书迟迟未到已有半个月，都没有收到打电话也没有用，以后你们订书一定要考虑好！当当实在是太慢了
0,1.模具有摄像头的位置，但是没有摄像头。 2.做工一般。 3.说明书和驱动都是电子版。 4.没有预装XP系统。
0,送的内胆包有点不好，还有外接电源中间连接处无法全部插入。续航时间也没有标称的那么长，希望京东能注意宣传的真实性。
0,很好的地理位置，一蹋糊涂的服务，萧条的酒店。
0,内存太小，偶配了2根“金条”，目前兼容。但不知道是内存不兼容还是什么，有时会听到硬盘“咔咔”运行的声音。预置系统下Office是2007试用版，偶自装2003，则每次启动弹出正版增值计划窗口，很麻烦！
0,"书看到最后几页居然是?双眼皮?,所有的字都印成了两遍头，根本就不能看。书的质量实在太差."
0,有些东西不赞同，事后的捷径，不过如此，年青人该经历的还是要去体验，否则拥有后还会抛弃，因为那不是他自己选择过的，所以此书可是说有误导成分
0,我去官网下了最新的XP驱动，结果声卡装好了，有声音了，接着装显卡，装完显卡，电脑就没声音了，一共装了四次，第三次才发现显卡驱动和声卡驱动冲突， 然后在官网下了前一个显卡驱动，终于搞定了，没有冲突
0,跟住招待所没什么太大区别。 绝对不会再住第2次的酒店！
0,"差得要命,很大股霉味,勉强住了一晚,第二天大早赶紧溜"
0,1.上了半天网，都上不去，问酒店，答曰坏了。气愤！ 2.晚上入住适逢变天，天气变冷，开了半天空调，竟然还是冷风，问酒店，答曰晚上关空调。晕！床上只有一床单被，到处找被子，无。问酒店要，半小时催了三次电话才来。还是冷，要求在加一床被子，服务员去后再也没回，打到总台，又等了半天，回复没被子了。不把顾客当人啊。 3.一晚没睡成，凌晨5点多，被不知道哪里来的低沉的轰鸣声吵醒。在房间找了半天没查出哪里来得声音，叫来服务员，（半小时催了三四次才来，人都要疯掉）。六点多服务员才来，也解决不了。就这么一夜没睡。买气受来了。 4.到总台要求当班经理来解释，换了几个人来，说了几遍，酒店不断去落实事情真相，最后才来一个自称客服经理的，说却有其事，表示道歉，做了一小时的冷板凳，一口热水没喝，口都讲干了。这就是他们的诚意。 总结：硬件老旧，服务太差。
0,没有比这更差的酒店了。房间灯光暗淡，空调无法调节，前台服务僵化。用早餐时，服务员居然叫我回房间把拖鞋换成皮鞋再下来，到底谁是上帝，这家酒店的老总应该马上辞职。建议大家不要住这家酒店，有被骗的感觉！
0,语言轻松幽默，阅读起来让人心情大好，内容实用，但是不喜欢把博客回复内容以及跟读者互动的话题全部照搬上来。感觉比较杂乱。
0,不是电脑高手千万别买，没有windows系统，而且主板和bios有很多限制 导致不能顺利安装windows 我搞了一天 才勉强搞定，要不是曾经搞过一段时间计算机 还真搞不定这个机器。
0,我家宝宝快两岁了，这套书对于她来说太简单了，没有吸引力，我是看了大家的评论才买的，不太理想。
0,"价格还可以再往下一点(港行这个价钱可是双电+内包+xp),3芯电池有点小,1g内存有点小,最重要的是分辨率是1024*576,这个有点烦"
0,一翻开这本书，就让人想起韩剧里头那些不温不火絮絮叨叨的韩国女人，可能这就是文化差异吧
0,破酒店上网慢的一踏糊涂。网卡只有10M的连接速度。什么年代了。还用这么慢的交换机。会还有早餐难吃的要死。没什么东西吃的。连煎个鸡蛋都等不到。还是他们的领班在煎店。一边煎还一边在吃。水果就更没什么好吃的了。住了几次就没吃到什么水果。。
0,本书其实没说什么，也看不出价值在哪，作者倒是牛，把西医批评的一无是处，感觉就是根本不懂科学
0,本想卖给朋友作为英语入门的教材，没想到效果不佳，中英文夹杂着阅读确实不太习惯，还好是买了第一册。
0,卡梅拉是之勇敢的小鸡简单而执着我喜欢哦~同事的小宝宝也很喜欢~还有我将给我男朋友听的也很投入~
0,一本教女孩子怎么追求物质的书，值得大家伙这么追捧么？在这物欲横流的社会，有精神追求的人真是越来越少了~
0,价格太高，性价比不够好。我觉得今后还是去其他酒店比较好。
0,非常容易看，一共也没几页，《庄子》的原文就占了53页，排版又稀疏，所以轻松搞定。给我的感觉是借着庄子的名声做文章，确实浅显。庄子讲了很多故事和寓言，这种原创性难能可贵，但于丹的这本书就没什么新意了。我没有听过她的讲座，也许加上体态语会生动引人，反正光看文字，可有比她强的作品。
0,房间外声音太大，比较吵闹！直接到前台预定费用更合理。
0,"酒店太旧,不象4星,房间隔音太差,隔壁打了一晚麻将,太吵了"
0,卫生条件比较差，真的很差！毛巾白里透着黑，马桶和地面已经分家，一碰就要倒。没有停车场，车放在马路边不是太安全
0,我共买了7本，大多书的纸质很差，很轻，像盗版，希望管理员能标明纸的质量，如果下次再发现这个问题退货。。
0,不知道是因为是翻译的书本还是其他原因感觉整本书老是围绕着相同的话题在重复
0,太玄了，反而不可信。给爸妈买了有一个月了，还是全新的，完全不敢兴趣。我看那么多人追捧，一直建议他们看，可自己看了几页，也扔到了一边，浮夸-----
0,"<色,戒>是一本挂羊头卖狗肉的书,本来买回家准备过足读小说瘾,结果是一本短篇集.网上购物有缺陷,因为我们不能动手去翻要买的书,买者应该对其进行必要的,一目了然的说明,哪怕加一句?短篇集?,读者也不会对到手的书如此失望,啊.......受骗了"
0,没有想象中的好，原来以为是一本风趣幽默的读本，可以轻松学外语。看了以后才发现内容只是一些普通的单词拼写上的错误纠正等，没意思。
0,内存偏小，不过送了1G，就是2G了，还是怀念XP系统，不过照情况看来预装系统vista是大势所趋了
0,壳子太薄太嫩，显示屏旁边的塑料壳子用指甲一扣就翘起来了。 用了2个礼拜，划痕很多阿，懒得管了。 无线驱动不在光盘里，华硕的人比我还懒。 键盘里面掉了根大头针拿不出来了。。。
0,酒店空调有问题!蚊子太多!简直无法入睡!!!服务员的态度还不错的!
0,刚开机没一会 就很热了机子 作为10寸便携小本 还是厚了点 还是重了点 因为电池的缘故吧 因为蓄电时间的提升 忍了~
0,"伟大领袖毛主席早以对孔孟之道思想作过批判,几千年来对广大的民众毒害之深.毛主席作出了名确的定论.对发展现代化的中国没有一点帮助.国人应彻底抛去之."
0,做工不够细致，没主要表现为 启动按钮生涩 光驱合上时生涩 发热较大 外壳会粘手印
0,第一次来当当买书，选择这本书看上的是它的销售量和顾客的评价。老实说，这本书没有多大的可读性，我儿子只对讲故事那册有兴趣，也许是年龄偏差吧，我儿子四岁。这本书的主打《忙忙碌碌镇》实在没有多少吸引人之处~~
0,我三个星期前定的货，配送公司星期六送货我没在公司，他们说三天后会再送，结果竟然给我当作退货处理了，耽误了我的时间，还让我评价，我评价个P，气死我了！以后再不在当当买书了～～～
0,这种酒店如果也算3星级酒店的话，我真的无话可说了。 从入住开始就不舒服： 因为没定到4星级的酒店，所以携程建议住这里，说是3星的，还可以。晚上12点多到的，check in时，服务员登记完也不问你刷卡还是付现金，直接告诉你，交500压金，我说我就200元现金，刷卡行不？ check in完了，就看不到服务员了，自己找电梯。电梯是迷你型的，瞠死能站4个人就不能动弹了。 房间一股难闻的怪味，闻着就反胃。桌子上不知道多久没擦过，用手摸了一下，漆黑的，那卫生纸擦了好几遍，凑合着先上网吧邮件发了。卫生间的门是破的，门框上全是大破洞，像是炮弹炸过的，房间没有暖气，半夜被冻醒了，找不到被子可以加的，只好把衣服压在身上，这才感觉身上不冷了。 早餐加上小菜一起，不超过10样，不知道吃什么，没有水果，吃了碗稀饭就算了。 check out时，服务员打电话到楼层让查房，1分钟后，服务员气凶凶的跟我说，你有没有拿黄页，要赔偿的。晕！！！什么黄页呀。问了半天，说是一本放在抽屉里的什么书不见了。靠，那么脏的桌子，抽屉我连碰都没碰，卫生间我连毛巾都没敢用，拿你什么破书干什么。你放没有放，或者是你放在别的地方了，自己找去。MD，什么破地方呀。折腾半天，还不让我走。最后我也不知道他们是找到了还是没找到，或者是他们发现自己根本就没放什么黄页，没有任何人向我解释，也没有人给我道歉，可是总算是可以让我走了，还不主动给我发票。要求打印后，给我出了份收据。 好在4星级的景德镇大酒店的房间已经出来了，可以住进去了。赶紧离开这个是非之地吧。 后来想想，前台打电话上去，然后1分钟左右楼上就打电话下来说不见了书，这么快的速度，好像早就知道少了什么似的，让人不能不怀疑其目的性了。
0,淋浴头竟然自己掉了下来，后来修理好了。马桶一直堵。请求修理两次，态度很好，无奈技术不佳，最终没有解决，大便硬是憋着！
0,本书其实没说什么，也看不出价值在哪，作者倒是牛，把西医批评的一无是处，感觉就是根本不懂科学
0,住过这么多酒店，从来没有住过这么小旧脏老臭的“大床房”！一进门就被一股臭味熏了出来，开了一天的窗户也不见减少多少。洗手间又小又脏，恶心死了！我和老公从进门开始，就只能一个在床上，一个才有站在地上的空间！ 唯一的好处：地点不错，下楼就是商业街，很热闹，晚上还有小吃，就在楼下，距大相国寺和山陕甘会馆也不远，走路即可。不过，对小吃的期望值千万不要太高，以免有上当受骗的感觉。价格姑且不论，卫生是实在没有办法入眼的。
0,"房间细小、地毡恐布，空调不够、服务差劣。应立刻取消预订服务。 免费注册 网站导航 宾馆索引 服务说明 关于携程 诚聘英才 代理合作 广告业务 联系我们 Copyright1999-2008, ctrip.com. all rights reserved."
0,非常一般的酒店，完全不够4星的级别，到了才发现酒店外观和照片相差很远，不是很大。大堂很土，房间很冷，那天正好赶上下雨，入住的时候窗帘上拉上的，睡到半夜被冻醒了，早上起来才发现，原来窗户是开着的，为什么服务员不把窗户关上呢，也许是我太粗心了。洗澡的地方也不好，淋浴房很小，都伸展不开。床上的用品也很差，被子也薄。楼上的餐厅超贵，一个西红柿炒蛋要28还是38，刀磨的是相当的快呀！下次不会住了，太差了！
0,这个宾馆太差了，厕所感觉不消毒，而且房间里面任何吃的东西都没有，连水都没有，电视而且都不清楚，门还不用，马桶的水要等半个小时在按才可以下去，如果不是车坏了别的酒店都满了，我是实在不想选这个酒店，宾馆服务人员态度不好，这
0,商品没问题！就是京东预定说是1-6天发货，可实际等了10天左右！其实等等也没关系，可是你京东6天发不了货，就别写1-6天可以发货！希望以后可以改进！
0,键盘不是很稳当，感觉好象要翘起来一样。 外表是真正的指纹收集器。
0,于丹的，讲教还可以吧译注的当然是比较不上大师们的了。比较适合学生吧，做人做事的道理。
0,"给朋友订的,原来计划2天,结果入住遭遇使得第二天改到凯悦了, 1)送朋友入住,所有的车位都上锁,只好找别的收费的,其实在同一个院子里 2)办理入住时竟说没查到有订房,不知是携程还是酒店的原因 3)房间的床上竟然有一条很长的血迹,恶心 4)所以要求换一个房间,被很不客气的告知只此一间,感觉给我房间是给我很大的恩惠和施舍了 5)竟然没有热水洗澡, 朋友强烈要求以后不要再订这家酒店了"
0,"房间小得无法想象,建议个子大的不要选择,一般的睡觉脚也伸不直.房间不超过10平方,彩电是14寸的,晕死,交通还算方便,离地铁不行10分钟内,但你必须知道哪条是正确的路,如果入住,必须要有心理准备,一个字""小""!"
0,看这本书有种感觉就是作者在苦口婆心的告戒读者如何如何，为了证明她说的是对的，然后举一堆自己身边女性的例子来自圆其说。内容很空洞，说话很苍白无力。感觉没什么深度，我比较后悔买了这本书，不会再看第2次了。
0,做工一般，屏幕盖不严，应该是没有锁扣的原因，感觉没有图片中漂亮
0,"直接装vt,装前也要sata2驱动盘启动，然后许多设备都有？再从网上找驱动，折腾半天终于装好。惠普有病，不提供一张包括所有设备驱动程序的光盘。usb少，无1394。关机有轻微嘀声。bios能改项目少。"
0,单人间房间极小，只能放下张小床和一张小沙发，第一个房间空调坏了，换了个房间，连沙发都没了！房间设施陈旧，只是卫生间还可以。根本达不到四星级标准，连如家这类商务酒店都赶不上，强烈不推荐
0,价格要是能再低点就更好了！京东应该多搞特价活动!快递的服务态度不是很好
0,"建议携程不要和这家酒店合作,名曰三星,要我看准星级都勉强!首先不在市区里面(去涵江区打车还要10块钱,当然你能打到的话)在一条前不着村后不着店的公路旁,交通极其不便;其次一进入酒店就一股霉味,地毯上到处都是污渍,很像地图.最不能容忍的是有很多小虫子,到处乱爬.我正好赶上台风没有办法只能在那住要不我不敢保证还会住那里."
0,"散热口很烫,可以加热水杯,也许AMD的CPU就这个德性,重装XP系统很麻烦"
0,我是耐着性子看完的，无非是为了多一点谈资罢了。这样的书也会流行，说明我们大众的阅读水准还真不怎么地！
0,设备很简单 服务意识很差 餐厅的设施就跟街边的小滩一样，卫生条件很不好。
0,不知道前面这位弟兄是不是和我一样住的同一天。 我是7.24入住的，25日一早怀着极其极其悲愤的心情愤然离开。 对于房间，极度失望。 1、潮湿得不得了，一股浓重的霉味，叫来服务员，说是这几天下雨，比较潮湿，没有办法，要不喷点空气清洗剂。难道这是理由吗？一个4星的酒店，下两天雨，就要住客接受发霉的房间？？？什么逻辑？？？？？ 2、房间小得不得了。前面那位还有两张床的位子。我那间房间面积为6平方米，卫生间约2平方米！绝对不是危言耸听，我都拍下了照片，如果要和我对质的话，随时奉陪！！！！ 3、交通极不方便。让前台叫车，必须提前起码半小时，否则，嘿嘿，你就等着吧！ 4、床上用品！床上用品！！又潮又旧，我也都拍下了照片，床靠背上积着一层厚厚的灰。头发我就没找，因为就那环境，有头发根本不稀奇。 5、空调正对着床，因为床两头都顶着墙，因此无论空调朝哪里吹，都对着人。更要命的还在后面：晚上才发现——空调漏水（酒店要不信，去看看你们房间的墙面去），出风口挡板是不能固定的（只能一直摆动）。天哪，可怜的我们啊：打开窗，窗外是虫子不停的鸣叫和其他房间空调室外机的轰鸣；关上窗，6平米的房间闷的我们喘不过气。这叫酒店吗？我怎么觉得是被关在看守所里啊！！！ 6、我们订的两个一样的房间——商务单人间（因为预订的时候，很多房间已经没有了，只能订这个）。可另一间无论房间大小、房间内设备和物品，都比我们这间强很多，当我们问服务员为什么我们房间没有塑料拖鞋、没有“收费”食品（最普通的矿泉水也是收费的）的时候，服务员回答：“因为房间太小，放了这些就更小了！”同志们，是不是从这里又能感觉到房间真的有多小了吧？ 7、结帐的时候，竟然还问我：“对房间满意吗？”什么意思？？？我预订两天，结果住了一天就走了，你看不见吗？看不见也就算了，难道你不知道你们的这个房间有多小多差吗？？？？问这话什么意思？？？？？是不是要让我蹲了一晚“看守所”后，还要堆上笑容和你说：“啊，真舒服啊！！！”你们才满意？？？？ 8、我可以很负责任地说，我是一个很宽容的人，否则入住的时候、结帐的时候，我完全可以据理力争。大家也可以看看我之前对于入住酒店的评价，我想也足以证明一些什么。 9、最后一点，想对携程说：从携程创办之后不久，我就是你们的忠实会员，很久之前就成为了你们的钻石贵宾。我想对携程说，你们也有责任要向你们的会员推荐好的酒店，我们不奢求家家都价廉物美，但至少你们要把握住要将价不廉物极差的酒店排除出去，这点要求不过分吧？？？另外，如果你们需要，我可以把我住的房间照片给你们作为证据，或者提供给你们，让大家预订前先看看，这点实事求是的要求不难吧？ 10、客观地说，早餐还是不错的。服务员的态度还是可以的，虽然回答的内容让人直来气。 鉴于以上，我觉得此酒店总体让我非常失望。我们第二天一早就撤了！！以后也不敢再住了！！！！398元，我们加点钱，去住了“泛海名人酒店”，真是一个天一个地啊，着实让我体验了一把什么叫“从地狱到天堂”的感觉。 补充一点：离开青岛后去了郑州和山西，刚回来，正想上来发帖子，就看见了前面这位兄弟的评价，实在深有同感，故借鉴了几点意见进行了修改和补充，不过看的出，我住的房间应该比你的还要小。 奉劝看到帖子的各位，宁可去找个招待所，也别住这个4星酒店！！！切记切记！！！
0,"我笔记本5月8日买,今天5月9日就发现接电源后,笔记本上的电源灯不亮了.倒霉啊,现申请换货中."
0,当当虽然很便宜，原价是23.80.我买回是10块多，但里面很多页是漏印的，请当当网还是那个中国社会科学出版社检讨。
0,我们一家厦门四日游的最后一天就是选择了这家酒店，简直后悔死了。 先说交通，酒店有自己的码头，不过一小时只有一班船，错过就得苦等。而且码头也很简陋，我们一家有老有小，每次上下船都得小心翼翼。 再说环境，我们订的是豪华房，跑进去一看：里面的设施陈旧，衣柜的门很难关上，地板没扫干净。最要命的是空调只能制冷，浴室没有浴霸。大冬天的，岛上还比市区要低1－2度。打开水龙头，水是黄的，热水也很小，不要说洗澡，洗个脸都勉强。拉开窗帘，外面是一片工地！住在酒店里，心比天气还要冷...喜欢清静的人大概会喜欢这里，因为除了总台有2个人，其他工作人员基本难得一见，所以要什么都得自己想办法。本来想打个市话，结果告诉我开通市话要10元／天，晕！我就打个问讯电话，还是用手机吧！
0,（接上面的） 最后才发现左侧用了双面胶，这是什么意思啊！不想让我换内存？？我最讨厌那个东西了，这个东西意味着短时间看不出来，可是时间长了就会发现，这明显是厂家的态度问题，敷衍了事！
0,预装系统不咋地 XP系统BIOS改成IDE 启动项 第一项启动改成DVD 一切ok 没有像他们说的那么麻烦 光驱像发动机 哄哄的 送的瑞星真的很没必要 建议不要使用
0,370的房间，性价比很低，也就内地150的水平，自助餐品种那是相当的少，成天一堆喝得红赤胡脸的中年FB男出入，很不爽，决不再住
0,拿到的当天给他装xp，折腾n久没搞定，上网查才发现此款驱动比较搞，建议要买此款的买好vista盘先
0,房间太老了 服务不周到 不热情 交通还好 保安象混子 前台服务冷漠
0,请你们立即将我当当帐号里的10元 礼卷 取消掉！！！谁需要你们那破 礼卷 ！！不是明确告诉你们不要放这 礼卷 在我帐号中吗？本来那天接到你们的道歉电话我已经不再提这事了。不取消这破 礼卷 我将继续去“写评论”！！！你们怎么这么讨厌！！！KF051501056101361930
0,"携程提供的160元的普通标间没有任何竞争力,房间设施一般,床单破损,服务也一般.商务豪华标间部分房间不是没有电脑,便是电脑只是摆设,连启动都不能.我在升级更换房间时便三易房间才能够正常入住.期待改进."
0,（1）酒店册子介绍说房间内提供饮用水，水壶内没有水，给前台提意见。前台说饮用水就是卫生间的自来水（太恶心了），可以叫服务员来为我加水。冰箱内150毫升的国产饮用水要收费10元（外面买也就1-2元的饮用水）。（2）房间内收费的物品非常多，拖鞋（有免费拖鞋），袜子，等等，还有会动的套套，盒子上的文字这么写的。想的这么周全，为什么不提供饮用水呢？即使按平价收费，顾客也是情愿的。（3）给大堂经理提意见，也是狡辩加爱理不理的。（4）房间内的加湿器，对我这个南方人非常好。
0,没有想象中好。只是把问题都提出来了，却没有过多的对问题进行详解，有些虎头蛇尾。
0,看评论说有卖到4299还送瑞星杀毒，就是不知道是何时，如果消息属实，那确实会有点郁闷！
0,"这个店太差房间有霉味,最不能忍受的是前台工作效率极低极低!"
0,内存较为少了一点，电池的位置比较导致掌托左边容易发热，散热在后面，但是USB鼠标使用起来的话，必须经过散热位，会导致USB线容易发热啊！ 还有就是显示器的缝合比较大间隙，所以磨具需要改进一下。
0,"之前看到过铺天盖地的赞扬,自己就将信半疑的去买了，打开看,从引子就看市喜欢上它了，还有拉拉,小人物式的描写很贴近我们平常的工作和生活状态,书中的一些章节不仅具有参考意义更有学习意义!"
0,这本书令我太失望了，写得一点都不深入，感觉是为自己做广告一样，再也不买国内出的这类书了。
0,"说实话,环境很不好,在老火车站旁边,虽然新的火车站启用了,不会吵闹了,可是我不明白为什么装修还没到位,根本比不上大城市的3星级酒店,而且通过携程定的房间真的不怎么地,我再次通过携程定了厦门的酒店,如果真的像大多数网友说的,携程定房虽然便宜点,可房间是酒店有差级的话,绝对不相信携程了!!! 补充点评 2008年2月19日 ："
0,键盘上的键敲得稍微快点的时候，有些字母明明敲了，但是就是没上去。好像主要是在左边的键。
0,本来是想买回来送好朋友的，可是翻开一看，内容也太简单了，就是画了些小汽车，小动物什么的，就退货了。
0,比BC6的不足就是没有蓝牙。虽然BC6要贵些，不过看到京东卖到断货就知道群众的眼睛是雪亮的呵呵。
0,女人，尤其是女孩，心思细密，敏感浪漫，更容易好高务远，一想天开。这本书就是让女人懂得要脚踏实地，不要心高手低，也不要以为爱情会是幸福生活的全部。总的来说还不错，但我更喜欢《女人的幸福与什么有关》，感觉更贴合中国女人的实际。
0,晚上有很多按摩小姐打电话，很烦！ 告诉他们不要再打了还是照样打！ 前台无法用信用卡预授权，一定要现金交押金，而且还不然存放行李，搞得我拖着行李去银行取钱！（还好银行近，要不...）
0,收到后，发现光盘上尽然有道裂缝，已联系dangdang退货，建议dangdang换个快递吧。
0,"总体感觉比较差,房间家具老旧,商务套间的地毯居然到处是黑斑,让人看了心里非常不舒服。我们因为工作关系，每个月都有几天住在昆山，我的同事们也一致评价誉兴太脏。以后只要有其他的选择，坚决不住誉兴。"
0,说明书不详细，系统开机不能进入，不知道三星的屏好吗？有人说是友达LED的，究竟哪个好些？？
0,"订单184477629，为什么2007-7-11 14:43:34出库，到今天7月21日下午15：30都没有任何信息？当当网承诺的5-6天送达的口号是否属实？为何拨打维护热线没有办法解释？当当网是否对自己物流送达情况完全不知道？对客户是否有承诺？客户投诉有没有解决办法？ 这是我的第二次订单，第一次订单号162957864,超过20天才收到书籍，请问这次需要几天？前一次说春节人没上班，这次呢？什么理由？ 有没有人能回答我，我的书在哪了，为什么会这样的？"
0,国产代工，电池部分设计不合理，装上电池后，与键盘平行的那一面有一点点高起来，有可能与屏接触。
0,我一共买了6台电脑刚送到，送过来就付款了，也没拆箱，刚拆箱就吓了一跳，按键的键盘都敲起来了，我晕，你们卖的是行货吗，是不是返修机呀，我要求退货！到现在还没退！
0,"一个词----""大失所望""!!!去广州之前,在携程上研究了半天,后来应老公的要求选择了Elan,因为他从欧洲带过来的那本""CHINA----lonely planet""上极尽完美之辞的推荐了该酒店.网上看图片和介绍,觉得应该也不错(没有查点评),我当时认为应该和""有一家""的水平差不多. 可是一进房间,发现和图片实在相差太远.房间小得可怜,没有地方放行李,甚至连坐的地方都没有.一张小得可怜的写字台上有一台小得可怜的""液晶电视"".如果你想躺在床上看电视,恐怕需要一双""千里眼"";如果你想使用那张写字台,那你一定需要很苗条,才能坐在那个位置,并且需要带一台小于12寸的笔记本，否则是放不下的. 房间也不干净,首先进去的那间330元的大床房,马桶里居然还漂着头发.后来立马换了间560元的套房,其实也就稍微大一点点,多了个坐的地方,有沙发和桌子及大一点的普通电视.房间设施很陈旧,地板有些地方已经翘起来了,隔音不好,热水水压也不够..... 前台服务还不错,服务员能说英语;但是压根没见到行李生. 个人感觉,不值那个价钱;个人意见,不推荐入住!"
0,给我感觉跳的不大好，我不喜欢她写的这本书，内容少，有许多一样的思想在书不同的地方出现很多次，但表达的意思几乎相同。有点骗人的感觉。
0,1 酒店基本需要用品没有，比如要求转换插头、水壶，也一律欠缺！欠缺理由为“由于全家酒店客房已满，所以没有任何多一个后备用品作替换”（这是酒店服务员原话） 2 酒店水壶内有残余物，约一元硬币那么厚。酒店服务员竟然说“知道这个情况，但是没有办法”！ 3 酒店早餐很差，不像3星酒店应有水平， 4 冬天的暖气空调是按需提供，不问基本不给； 5 暖气跟呼噜一样，整个晚上吵到天明（因为本人天明就马上退房）； 6 热水器名不符实，应该叫“水器”，因为基本不热
0,这本书虽然内容不多，但是插图很大，很生动和形象，里面的故事都是小孩子碰到过的事情，并且很有启发性，我女儿看了以后很喜欢，而且碰到术中类似的事情，她会说“大卫，不可以”，呵呵，看来是受到潜移默化的影响了，总的来说，个人感觉这本书不错，难怪是获过大奖的书。
0,职场如战场在这部小说里被阐述的淋漓尽致，拉拉工作勤奋如老黄牛，但性格却更似倔牛；王伟虽正直但有些过分天真；何好德思维敏锐、眼光独到却高深莫测；李斯特崇尚中庸，不喜做决定，却不失为一个温和而颇具慧眼识材的上司；柯必得天生的管家，却过于苛刻；岱西虽过分偏执但且不择手段却不得不佩服她的勇气的执着；TONY林在生意经上不似五伟有经验，却八面玲珑，关键能牢牢掌控自己的下属；约翰常虽做为颇为阴险，处处与王伟做对，但也是聪慧之人；李文龙表面温和却城府深、心机重，但却不影响他在DB的人际关系，因为他知道何为重何为轻，关键时刻也愿帮该帮的人一把；黄宏技术过硬，却人际关系始终无法处理妥当，且居小心眼；玫瑰经验老道但却有失光明。还有帕米拉、周亮、杰森、海伦、王蔷、罗杰、齐浩天等等，这些人个个性格鲜明，都有自己的独到之处。观完本书引人深思，故事鲜活具实用价值，无论是职场新人或才老将都能受益匪浅。
0,没摄像头，不带系统（对初级用户而言是个麻烦事），要突出独显和CPU的强劲必须全速运行而造成电池不耐用（呵呵，不知这算不算不足，6芯电只顶2个小时。现在又没9芯的电卖。。。。。呵呵）。
0,住店后真实感受：根本没法睡觉，房间的隔音太差了，是我住过的隔音最差的酒店，隔壁2个人正常的对话我都能听得特别清楚，2个房间里的衣柜位置根本没有墙，就是衣柜的背板隔开的，早上服务员居然在我房间门口打手机，电话不听的响，听得特别清楚，总之，你跟本没法睡觉。
0,"这个酒店太差了,酒店里竟然还有公司,而且还很多,见过这样的酒店吗？我是第一次,下回不会再住了,上下班高峰时,下楼要25分钟,我计算过连亲着两天.门童像个爷爷一样对你爱搭不理的."
0,"入住时酒店的服务很好，大堂和房间一般，入住后发现房间的硬件较差，比如空调，马桶，尤其是电视遥控器非常差，几乎不能用。房间空调不管用，走廊也有味道。早餐很差，刚到九点服务员就疯狂地收东西，也不问一问客人是否还需要，很差，曾经看到的评价不太确切，第二天立刻搬到龙城，山西真的是没有什么好的宾馆,不知道为什么，很奇怪！"
0,竟然我的静音按钮的背光不亮了，才买了10多天，不知道能不能换（今天是第15天，要看京东怎么说啦，hoho）。。。 机子做工还是不够细致，和thinkpad差距，嘿嘿，很大。
0,看过于丹解读论语的视频，受益匪浅，想要买本书来收藏。明明都提交成功了，却没到货，无比郁闷……
0,酒店是挂星四星，但也就二星水平，早餐花样太少。如果是四星就按四星去做，如果说房价低就不要挂四星，以后考虑换其它酒店。另外宽带还得收20块。
0,预装的Vista系统非常垃圾，货到第二天就格了。 但更垃圾的是，要装新的XP很麻烦，找同学帮忙才装上的，再加上更新和装各种软件，花了我两天的时间！麻烦！
0,1、笔记本底部4个胶垫不平，打字总是左右晃动。 2、时间无法保存，只要断电后时间归零。 3、mcafee不能注册。
0,我的孩子很喜欢。绘画精美，精彩。合适1岁多的小宝宝理解。我的孩子看到小熊生日的时候就哼生日歌；看到小猩猩笑别人尿床的时候，会学着小猩猩捂着嘴笑；看到小兔子因为掉了雪糕，张大嘴巴哭的时候，会笑；看到小河马的大嘴巴，会很喜欢地摸摸。。。这样有趣的阅读时刻数不胜数。这套书不错。不过阅读的过程中，孩子并不是能马上理解的，需要爸爸妈妈耐心地一遍又一遍地讲。呵呵。。。
0,"发热大，无麦克风，6346c音质,只能说它能发出声音而已,仅此而已。6346c的声音又小,还有破音。"
0,询问了Emchines的客服，的确是GL40 Emchines的售后网建设的还不是很好，哈尔滨没有网点 空格键似乎要坏
0,因为看书评写的很诱人～觉得自己也是二十出头的年纪了 也应该学习下如何经营自己的未来了……但是，买回来 很失望。内容很空洞～写的太浮于表面。里面给女孩子的一些忠告，举的例子 没什么新颖之处，也不够深刻书的质量也不好，像廉价的言情小说身边还有人想买，就直接送给她看了
0,房间非常小 房间设施非常旧，因为装修至今已经10年了。 房间空气非常差，一打开门一股非常大的烟味和霉味迎面扑来 服务还不错，虽然帮我从6楼换到了9楼，但是房间空气依然非常差非常差非常差得不能接受！！！
0,从重庆过来，机场下来已经是下午5点多了，结果房间没有打扫好， 半小时OK， 6点，还没有好，15分钟。 晕！7点， 还没有好，和总台交涉， “我也没有办法”，7点半才进房间。电梯上去走道黑啊。真不知4星怎么挂上去的？从来没有遇到这么差的4星酒店。强烈不推荐！！！
0,散热尚需改进，还是很热，Intel不肯开发低能耗芯片组，就用945来忽悠。
0,160G的硬盘感觉小了点，扣除系统预装的程序，只有120G可以用，要是硬盘320就好了。原装的VISTA系统砍掉可惜，不砍掉用着不太顺手，有点影响速度。
0,也许期望过高，拿到此说后，读了一部分觉得不过而而，空泛大于具体，现在不知道把该书放哪儿了。。。
0,"我在网站上预定的是一间大床房,到CHECK IN的时候变成了双人房,虽然后来给我调换了. 酒店地理位置不错,门口时高速和轻轨. 但酒店的房间整理装修时非常的差,非常的陈旧,完全对不住这个房价!!!!! 以后也不会住这个酒店了!"
0,至少我没觉得好看，根本就不吸引我，没什么可笑得，有些词很深辟。书的印刷很不错，内容没介绍的好。
0,住的房间靠近马路，比较吵。房间有股味道。 不如锦江干净。不推荐入住， 早饭还可以。
0,"1.装系统麻烦 2.没蓝牙,不小心装蓝牙驱动后,自动反复开机关机,进不了系统. 3.屏幕闪得厉害.频率调不了. 4.买后第三天就降价100块.真郁闷.能不能返回..."
0,定单上显示已经给我发了这本书，但在送书的时候发现并没有送来，请问怎么回事？我真的很想要这本书，为什么不送了
0,送到了几天后才发现，书的后半部分印刷严重错误，居然有四十多页是倒置的，我在当当是VIP了，第一次发现这种情况，而且倒置的部分还缺页，这么严重的印刷错误，当当入库的时候如何验货的？出库的时候又是如何验货的？申请退货这么多天了，也没反应。要是这周再不退，继续投诉。气晕了。还有，这本书内容太空了，只是表面的交流。狂不喜欢。
0,内容单薄，没啥意思。对于没有什么文化水平的人看看是有帮助的，但是如果你是有一定的专业的人就没啥意思了。空洞，乏味，不用半天全书看完。
0,早餐非常简单和差，距离客房很远，需要到后面的附楼，或者通过弯弯曲曲的后勤走到，非常不方便。我住的豪华标间，装潢有点旧，较简单。办理行李寄存只有1个人，7到8个客户等着提和寄，等了约20分钟。退房也只有1个开票和结算的人，12点办理时，有10位左右的客户在等待，总台服务小姐说;领导只有安排一台电脑办理退房开票手续，结果我等了足足30分钟才办完。与四星级服务差远了。所有台阶没有斜坡，拉杆箱只有提着上，更没有行李员帮助提的。
0,自带系统太贱了，分区还是隐藏的。买了个笔记本专用sp3版装上了，有时候不能关机。大家说这个配置装vista行吗？我有套正版。还有这个键盘是不是该买个硅胶膜盖上？灰进去可不好擦。
0,酒店的装修比较陈旧，房间的隔音，主要是卫生间的隔音非常差，只能算是一般的
0,VISTA系统不能分区比较难过，如果有XP的就好了，还有就是没赶上加一元送内存的活动比较可惜
0,有点儿重，，屏幕有些偏色，没有光驱自装XP有点儿难度，主要是用USB外置光驱启动不行，发现是需要按一个F键才行，现在也不知道是哪个。指纹讨厌，建议出磨砂的。键盘需要适应，比我IBMT30的手感差远了。
0,"酒店外观相对气派,但房间确实很简陋,设施陈旧,卫生一般,最多就是个90年代未的水平。不过大庆宾馆较少，找了一遍发现也的确再没有什么宾馆了。"
0,"看携程上大家的点评不错，就订了间阳面220的房间，慕名前往。 结果大失所望，灯光昏暗，空间极其狭小，床垫质量恶劣，房间还伴着一股霉味。 原预计住上个把星期的，结果住了一晚就退房了。 其实原本想着也就将就了，也许皇城根上这个地段这个价格就只能是这种水平了。 但转机是在入住后第二天早上，我出宾馆在新街口大街上溜达， 没走两分钟就发现一家连锁宾馆——欣燕都总店。 看门脸不错就进去看了看房，顿时喜欢得不得了。 房间设计简约而时尚，宽敞明亮，床也很舒服，同样有宽带。正是我喜欢的类型。 赶紧回护国寺宾馆，上携程查了查，单人间的才200，套间竟然才240。超值！！ 同样的地段，更优越的条件，更低廉的价格。 二话不说，立马下新订单，退房，拖着行李就搬去了欣燕都。 而且欣燕都交通更便利，就在新街口大街上，门口就是公车站、出租车站。 斜对面是新街口超市，新街口百货，而周围同样是典型的北京胡同。 提醒一点，携程协议上""欣燕都""是没宽带的，但实际现在""欣燕都""是有的。 说了这么多，该如何选择，大家应该很清楚了吧。（感觉自己像枪手似的，呵呵） 另外，也希望护国寺宾馆能向竞争对手学习，好好改善改善。"
0,群众的眼睛是雪亮的，这个店的服务确实奇差，可能随着溪口旅游的迅速发展，这些宾馆有些暴发户的心态吧，不知道什么是服务。早餐时，一大群服务员在入口处，就是没有一个人理你，没有餐具，非要用很大的声音，才会有一点反应，过来就要餐券，一看也没有什么吃的，干脆把餐券撕了不吃。 对于我这样小时候生活在山里的人来说，溪口没什么值得来的特别价值，交通不便，从机场只能打的而且等了30分钟才有出租车，在溪口本地多半都是震耳欲聋的火三轮作为基本交通工具，稍晚一点从蒋介石母亲墓道回来就没有车（下午5点过）。 我不是来旅游的，我看那些来旅游的好像以官员居多（不晓得是共产党还是国民党的），来这里可能是想向介石学习怎样两面三刀摆平军阀的本事。 这个宾馆确实没什么优点，倒是出门左边的新豪门酒店吃饭不错，干净清爽，本地人也很多在这里吃饭。 千万不要到溪边的饭店去吃啊，同一个菜，在一个菜谱上有两个或三个价格，你点的时候如油焖笋（18元），结帐时就是红烧笋（25元）了，你点芋艿排骨（25元），结帐时就使芋艿排骨煲（35元）了。领教了，这些溪口邻居除了把老蒋的阴险狡诈传承了下来，好像没别的了。 补充点评 2007年4月8日 ： 我选的服务1分，怎么成了2分？
0,其实我也是曾经在官网上追文看的一员，心急如焚地等待过。当时很挺纪南方。考完试后在当当网急急地定了书来看。看到深夜里，最后只想说，我靠。。。故事看到最后只觉得厌烦，觉得简直是没事找事的一对人。男主有些时候很混也就算了，大家也已经习惯小言中的男人这幅德行了。可女主，唉，简直是不堪回首。足可登上匪我思存作品最讨厌的女主宝座。。文字没有以前精致不说，煽情也没有着力点。我唯一感动了一下的还是那个暗恋纪南方的小姑娘。她从侧面证明了纪南方不算很浑蛋的同时，让我回忆起了佳期如梦1。也不过就是一两年前的事，那时，我曾经真心实意地感动过。当然，文章中有一些细节还是不错的。但细节无法构架起一整个故事。只能说，颇为失望。现在只有我爱黑社会系列的短篇可以看看了。
0,没有介绍的那么好，也没觉得可以让人茅塞顿开的感觉，总之对记住单词效果不佳。
0,房间和走廊里味道很重，楼外下面马路上的声音很吵，早上隔壁的电视机的声音听的很清楚，可以当闹钟使用，但时间是隔壁定的，没有给“闹钟”定时，结帐的时候发票没有给我盖章，总的感觉是让人失望。今后不会再住了。
0,"这本书写的不怎么样,好像是杜拉拉在写日记一样，很多内容没有实质的励志性信息，就跟普通的一般公司职员的情况差不多，只是在强调杜拉拉是怎样一步步发展的，有点像是在炫耀自己的能力。"
0,我们在网上预定了万豪的4个房间，标明是中午点达到入住的，我们也准时到达，前台说房间还没有搞好卫生，要稍后才行，于是我们外出吃午饭，下午2点回来要房，前台说卫生还没有搞好，只能提供3个房间，我们发脾气了，2个小时都搞不好卫生？于是前台给我们换了另外的已经搞好的房间。要发脾气才能搞掂，我们是来旅游的，不是来发脾气的。 明明不是五星，却在标志上打了五颗星，然后案五星的收费，提供2星的服务和设施，一个字：差！ 补充点评 2007年10月8日 ： 标明是中午点12达到入住的，我们也准时到达
0,我很惧怕诸多“被奉为经典”的书籍，因为其中不乏有太多人为的因素：就象肯得基，麦当劳，买的最好的并非吃起来最好的。但是由于好奇其为何有如此多好评还是买来看了。如我所惧怕，这本书果然真“经典”，对我来说，他的归宿地只能是废纸篓或二手书市场。
0,我买了杜拉拉升职记这书寄给朋友，朋友说到现在还没收到，有点晕了，都快半个月了啊！！！
0,"客观来说,只是自身的一点经验加上收集的功夫堆积出来的.专业性和系统性不够,里面的所谓经验方法还需要进一步考证."
0,"浴巾是洁白新的,毛巾脏到灰黑色.被子不错,但几乎没褥子,喜欢硬板床的TZ有福了,绝对够硬.交通是秦皇岛和北戴河之间的大马路旁,评价是:路边店. 不知是否抱怨携成佣金多,给的也是位置最差的2间(一层餐厅门口),实际酒店当天入住率不高,何必呢.7.8号早7:30开始钻头声大作,直到10点多我们离开. 我选酒店靠评论还很少失手,这次是挂2个大眼袋浑身痛(咯的)回去的.如果各位和我一样把住宿和度假心情结合的话,最好别选.我不求硬件多好,只要干净温暖,多花点钱都愿意.以后仅记,一定要住旅游局正式挂牌的酒店!!各方面都不正规,别看照片,和实际差远了."
0,说句实话，我没有想到这次携程太叫我失望了，我一直都很相信你们，可能是你们企业现在做大了，对我们这些一直都默默支持你们的客户开始疏忽了，但是对一个以服务性质为龙头的企业来说。你们已经渐渐的丢弃的不仅仅是一群客户而是你们企业的文化和企业的精神，如果这样下去对一个像你们这样以服务才能取得市场经济优势的企业；在市场经济竞争这么激烈的情况，这样生存下去都将是一个致命伤啊，重视。 我最后一天住的是你们推荐的景德镇开门子大酒店，是我所住全国挂牌最差的四星级酒店，不仅仅是他的硬件设施和服务都无法恭维，我简直是无言，临走我给他们酒店留了言，这样的价格，这样的服务怎么还能挂牌4星，当地的旅游局是怎么去复查他们的级别的，你们携程太不负责任了，怎么可以把这样一个酒店随便就推荐给客人，房间的地毯有水，整个房间的周边地毯全部是白色的粉末，卫生间的设施还不如我们在婺源住的一个200的自己找的一个酒店的设施，不经意的都可以看到很多剥落的墙纸，去游泳还要换上他们的桑拿服，其实一楼就可以直接进去，问过才知道桑拿是承包出去了，晕！！！客房要他们送几个一次性拖鞋说要另外收费，天，我这是第一次在一个四星级酒店第一次听到这样的收费项目，交涉以后没有收，不说了，大家不信就去试一次吧！！！唯一觉得欣慰的是酒店大堂的服务够3星标准。携程啊携程，你们要重视啊！
0,酒店房间小，设施陈旧，酒店靠马路，窗户很不隔音，影响休息
0,这本书我是买来送给爸妈，听说很简单易学，所以给妈妈看，让他们了解一些基本的健身之道，这样我们在外面工作也会比较安心。妈妈正在学，听她说还不错。
0,对于女孩子来说，确实有点沉，而且风扇一阵阵的噪音有点让我崩溃`` 难道只是这台机器的问题？ Vista 还是不习惯，而且，2G的内存还是让我觉得拖沓...
0,如果你在外资公司工作过，尤其你在外资公司担任人力资源的话，就会觉得作者写的东西不是新野，拉拉口中讲的大道理，都是书中有的。作者对人物的描写也太肤浅，真的很失望。
0,内容一般，在网站等途径都可以获得相关的提醒。。。纸张还行吧，字大，太浪费了
0,就有一点不爽的是，发现了一个亮点，不过还好了，价格在那里摆着！
0,VISTA系统难操作，不习惯，钢琴烤漆高档但得外配贴膜，最重要的是缺了IBM三个字母，一直觉得，IBM不做太可惜了，国际商用机器公司呀！！！
0,风扇声音比较大；自己拆卸键盘添加内存、更换硬盘很不方便；装回键盘还需要一定的技巧才行。
0,收到货代开看看了，书页的印刷还是挺清楚地。封皮和网上的图片也一样。但第二次打开看的时候，封皮一翻开，边际出就折了，没有断，但是折痕的裂口很明显，封皮的纸张的质量太差了吧。因为要送人所以在里面的纸上写了几个字，没想到，阴了。-!在当当上买了很多书了，价格的确实惠，但这质量嘛，唉，是否便宜没好货呢？
0,整本书给我的感觉就是一农民暴富了后害怕别人也富，挤占了他的地位。但又不想把害怕的思想暴露底那么明显，就扯来“公平”二字来中和一下。“公平”不是这样来用的！不推荐购买。实在有好奇心者想买的话，我把手上这本二手卖了，联系我啊。
0,买回来了，本想自己先看看再给孩子讲的，可是刺鼻的气味已经熏得头疼了，所以就一直放着没敢给孩子看呢！
0,USB接口呈上下重叠设计，过于紧凑，USB设备不可太厚。光驱噪音大。 硬盘噪音大，在BIOS里将磁盘性能调为最高性能可开启SATAII，ATA133，此时噪音可较前减小一点（建议换用西部数据硬盘）。
0,新乡国家饭店入住纪实： 1.入住第一个房间，电视关不上，一直开着。服务员建议换房间。 2.换的房间空调不行，又换房。我们拿着行李跟着跑。 3.换的第三间房是有烟房，我们问：有没有无烟房？服务员告诉我们：我把烟缸拿 走就行了。哭笑不得！ 4.晚上去餐厅大厅就餐，点完餐后，服务员告知：最低消费35元\人。我们不能理解，服务员告知：酒店的新规定。电话投诉后，来人讲：服务员是新来的不知道。
0,如果闲着无聊，这本书可以一口气看完，因为读者很想知道到底作者想写些什么，结果是如何。但毕淑敏的文学修养还是差得太远，真正的文学爱好者看此生必定失望，书中所有人的对话如出一辙，毫无个性，绝不会是一本流芳百世的书。作者还不如直接写几个心理分析案例还好过写成文学作品这么牵强。
0,6月20日购买的，6月26日发现屏幕右下方黑色塑料外壳和屏幕连接点出现了非常严重的脱胶现象，找售后理论，他们将责任推给了厂商，实在不负责！
0,入住11楼大床房，一出电梯就有明显的地毯散发的霉味；房间的窗子不能打开，即便这样，也有蚊子存在。最恐怖的是有灵异事件。入住2晚，第一天平安无事；第二天，凌晨3点，被“滴”“滴”的声音吵醒，一看房间的台式机电脑自动启动了，之后读光盘，失败，就滴一声。过去按电源键，怎么也关不上电脑，只好拔电源。可是，我都是用自己的笔记本，这台式机从来没碰过。实在是不会再去住的酒店。
0,房间比较差，尤其是洗手间，房间隔音和餐饮服务都不好。
0,"看了网上介绍,我买了这本书,一看傻眼了,太小孩子看的,我们家孩子看不合适了,怎么办啊?客服忙忙忙......,怀疑是不是虚设的.以后网上买东西要注意了."
0,这本书适合三岁-5岁小孩子看，我儿子已经从会听，到会看，现在可以绘声绘色的讲给我听了，不错
0,强烈不推荐。 定的是豪标的房间，等到了前台，居然说我没有预定，折腾了半天，郁闷，出差住酒店没有好的服务态度，真的很不爽，然后上楼，5楼，电梯不知道怎么坏掉了，问服务台怎么办，能不能修修，她冷冷的就一句：爬楼梯！我可是带着一个大行李的啊！ 房间比较小，干净程度也是一般，和介绍中相差甚远，举个例子，浴巾，都是用得边角都碎了，一丝一丝的，非常恶心，电视遥控也不好用，而且我工作需要上网的，可是承诺带网线的房间，的确是有网线，但是三天里都上不了网，电话到前台，不是说没问题，就是说机器坏了，今天没法修，要等明天。要不是为了已经定下的积分，我早就换掉了，太不爽了。周边酒店不少，劝各位住客入住前三思，还是选择那些名气，星级好些的。 补充点评 2008年7月1日 ： 送的早饭真的是不能吃，还有房间隔音效果极差极差，上下前后加走廊，声音超烦，严重影响到休息！
0,USB接口只有2个，太少了点，不能接太多外接设备！表面容易留下污垢！
0,"散热口很烫,可以加热水杯,也许AMD的CPU就这个德性,重装XP系统很麻烦"
0,"第一次在当当网上买书，很方便，很实惠！孩子一收到书,就爱不释手地读起来，是一套好书，在开心快乐地儿童故事中让孩子学会做一个有个性、有爱心、乐于助人的孩子。"
0,十一期间携程订的鸿展楼，网上说是四星，到地方一看怎么也不像，问服务员这是四星酒店吗？她说，是的啊，指了指大门上用红胶纸剪的四颗红五星。这就是四星，我昏。大堂人员解释，迎宾馆是四星，鸿展楼是附楼，没有四星，原来如此。房间很大，设备很旧，床单也很旧。不过价钱不贵，一天是178。早餐不太好，牛奶没有牛奶味，餐具也不是太干净。不过也不能小看这家酒店，每间房里有一本画册，上面满是朱容基、李鹏、经叔平等国家政要在这里的提字和合影留念。 补充点评 2007年10月7日 ： 住酒店停车还要收费，我是第一次遇到。
0,有些热，装XP麻烦，驱动也不好找，买的最好买个外壳的彩绘的保护膜
0,自带VISTA系统太臭了，开机10分钟，关机20分钟，巨慢，郁闷，我现在已经重新装了XP，刚买不到10天。哎。。。。无语
0,指示灯是绿色的，感觉和灰色调不大搭，当然这是个人意见 光驱声音很大，咣当咣当的，摄像头非常的劣质，图像模糊的很 还有一个是担心外壳很容易旧或者脱漆 装系统挺麻烦 就体会到这么多了，还要慢慢体会
0,我是通过网络上的介绍才订购了这本书，但是读了几页后感觉有种上当的感觉，网络上的介绍大大的言过其词，书中的内容很是乏味，根本没有什么趣味性可谈，连我这样喜爱英语的人都没法读下去更，别说老人孩子都爱读了。不过书的质量倒是很不错，有点金玉其外，败絮其内。
0,这家酒店太烂了。特别是服务差的很，简直让人火大。我通过携程预定了早餐，结果被告知从七点钟才开始，那我说我退掉吧，结果告诉我携程订了就不能退。早晨在房间打电话告诉前台查房，结果我到前台后，前台还没打，等到再次说退房时，才磨磨蹭蹭的打电话，结果等了几分钟还是没人查。等签单时才发现自己名字的两个字竟然被搞反了，真搞不懂，我实在是不敢恭维，而且莫名其妙的在我的名字后面竟然出现了另一个人名。建议各位不要入住。至所以给服务打两分，是因为其餐厅给我送了碗姜汤，比较感动，要不然服务肯定的一分。
0,我是查看了点评之后才选择入住天鹅酒店的，但结果却大失所望。 我们的车到达酒店门口后，行李生盯着我们看，却不主动上来帮忙拿行李，我走过去问他，“酒店没有行李生吗？”行李生才恍然大悟说，有有有。 一推开客房门，就一股恶臭扑鼻而来，令人作呕。房间很陈旧，隔音非常差，不知什么电机还是什么设备运转的声音轰鸣一阵停一阵，又不时有重物敲击的声音，反正吵得一夜无法入睡。第二天一早6点多赶紧起床退房。原来我们是交了2晚的订金打算住多一天的。 因为工作关系经常出差，这家酒店是我十多年里住过的最差的酒店。简直难以想象，挂牌四星的酒店，硬件设施及服务都不如一般的招待所。
0,失望！以为是有具体的朗读内容的书呢！结果根本没有！略略翻了一下便扔到一边了！失败的购买！
0,对于这本书，我有些抵制的。画面全是一团糟糕，感觉 还是不给孩子看的好。。。。。。
0,运输过程中本子左侧有一道划痕，另外，本子应送一个原装鼠标才对。送垃圾瑞星太浪费价值。要不就将199元价格优惠好了。反正我是到期不会用瑞星这个垃圾软件的。光表皮漂亮，内在空空。
0,为什么英文输入法下有些键盘会错位？目前正在找原因。。。不会是键盘有问题吧。。。
0,见这么多人买，也买了一本感觉，内容十分空洞，实质性东西不多有点后悔，不应该盲目跟风由于第一次在当当买书本着试验的态度，感觉速度不错，下单3天内就到货了总体感觉比卓越慢一点点，但快递服务态度好一点点唯一好的就是免快递费
0,暂时还没发现缺点哦！没有摄像头，但是预留了，不过摄像头好像没有几个钱吧
0,基本上没有缺点，因为他的缺点是所有笔记本的缺点：为什么还不能升级其中的硬件以便做到永远不过时呢？（基本上是一种梦想）
0,我随便翻了下，封面花哨，书里面字体很大，差不多可以用“极大”形容。内容尔尔，估计以后只能当垫桌脚的了。 我一致以为，凡流行的，花哨的，众口一词称赞的事物，需要报以最大的怀疑和谨慎。这次买了太多东西，理性的光芒没有照耀到冲动的感性，我还是给我本来不大的房间添加了累赘或者叫鸡肋吧！这俩本书在当当里评论非常高，非常好。我怀疑有当当的托在这俩本书的页面上假装顾客炒作。当然，我只是怀疑。 这俩本书，如果需要阅读的话，建议去图书馆借阅，买来收藏和慢慢吸收阅读是毫无必要的。这是我个人观感。请诸位自鉴。反正我家垫桌脚的东西，是用20元钱买的。
0,前天买的书，今天就降了，是不是有点太不合理了，能不能给个说法，要不然我就推掉重买！
0,房间条件太差了，完全浪费了紧邻什刹海、北海的有力位置。或许定位就是给那些到此一游的游客服务吧，方方面面条件都相当差，充其量是一个招待所水平。
0,京东的客服专业知识有待提高的。笔记本的配置说不清楚，一会儿说有HDMI，一会说没有。送的原装包很垃圾，只能是一般的电脑包，请不要说是原装包，误导消费者，我们这里麦德龙都卖3699了。价格可以再便宜点。
0,光盘发现有裂痕，无法使用，已联系当当客服中心申请换货，应该是14号连同书一起寄回当当客户部的，但到现在还没消息，请当当确认尽快发货
0,VISTA系统 用2G内存运行 还是有些慢 送的东西里 瑞星杀毒有些鸡肋 要是能换成其他更有用的东西：如耳机啊一类的东西就比较合适了
0,送的内胆包比较差，由于电池的缘故，重量也稍微重了一点，不突出设计很好，但是还是没有浑然一体，最大的一个问题是升级，没有提供空余的内存扩展槽，如果升级，需要用2G的条子替换掉自带的1G条子，非常不好！！
0,太旧了，房间设施也很差，我还在洗手间看到了蟑螂。而且酒店内有KTV，晚上睡觉非常吵！
0,"虽然是买了,到最后也是送到了,但非常的生气,每一次我订的书都超长时间才送到,在广州这样的大城市,而且是市中心还要差不多半个月才送到,你说我生不生气."
0,"看了评论之么好才买的.看了一本之后怎么也感觉不到他的好,觉得不适合中国宝宝.而且我儿子才8个月大,等他大一点吧.暂时束之高阁"
0,房间里铺着像餐馆一样的廉价石砖地，两床之间有一块肮脏的地毯 床上只有及薄的褥子，床垫上的弹簧不分轻重的时刻硌着你。 喷头出的水永远只有两种温度，极热和极冷 出行不方便，地点比较偏颇，从解放碑打车，很多司机都不去。 总之糟糕透顶
0,1 钢琴漆，容易刮伤，伤痕明显 2 分区的确很BT 3 开关机时光驱会发出摩擦的响声
0,超喜欢张爱玲，购齐了全集，还有《千疮百孔的爱》，买这本书只是为了爱玲多一些了解。有些失望。莫名的悲哀，想像中爱玲应该是金枝玉叶，虽饱受风尘之苦，却也是冰清玉洁，不想竟也碰到胡兰成这样，恶俗的混世魔王。记得看过一本和坤的书，人家虽是大贪官，却也对妻子冯氏，有情有意，有始有终，另生一种敬佩。爱玲最后也是漂泊半生，郁郁而终。生不逢时啊！
0,随着孩子的长大，这本书居然成了孩子的最爱（1岁7个月），连着2个多月，睡前必要这本书。孩子最喜欢的就是最后一页，有时候讲着讲着，就一下子翻到最后，当我说大卫的妈妈说“我爱你的时候”，宝贝女儿也抬头等我说“我爱你”
0,本来是很高兴的，结果书读了一部分，发现里面竟然有6页是空白？！晕啊，真是气没处出，网上买书有风险啊
0,6芯变3芯！！！京东说送礼物包？？系统安装麻烦，还有做工有点差啊，那两个开关（电源，无线）好像玩具开关，OEM系统又不贵，完全应该考虑上XP版！底部好热！LED指示灯刺眼！
0,硬盘在频繁读取数据时有轻微的卡卡响，处理器换t6400更好，价格可再降
0,屏幕虽然出色，但是色系偏暖色调，可能有人会不习惯，USB的设计不太合理都在一面且是并列的，这个缺点sony从sr1以来一直没改，比较失望。光驱处空隙较大。
0,看了之后发现差距，但是如果重新选择的话，我还是不会变，路还是要自己走，踏实的走，此书没有想象的好~
0,定的豪华大床房，发现房间超小，而且隔音很不好，房间上个网，居然老是一掉一掉的，半夜1点多居然还有个人自称是长沙公安局的打进我同事的房间电话来，说出了我同事的姓名，身份证号码什么的，然后问我同事要他家里人的联系方式什么的，典型的骗子~~~不知道这些信息是怎么泄露出去的，太怀疑这家酒店了，所以第2天马上就换到合一国际大酒店去了，那边以前还是携程的协议酒店，现在不是了，不过才230左右，比这边好多了~~下次去，还是直接去合一住的好，交通也好，也繁华~~~
0,想改下我对这本书的评论！！因为吧！！我又仔仔细细的读了下这本书！！话说这本书是老师推介买的！！以前读，的确没意思！！BUT！！现在发现，虽然风格不适合我，文笔应该还可以的！！
0,键盘左边真的很热。。。。 音箱因为在键盘下边，声音很小。。 LED屏幕好像有拖尾现象，不过静态图片很清晰 哦， 我一直没找到在哪个软件里面能设置指纹。
0,我买了一套是一个很薄的破纸盒子，我同事买的就是个硬盒包装，当当能给个合理的解释吗？
0,"喜欢毕淑敏的书,不过女心理师除外,知道作者对心理学有较深的了解,所以慕名购书,谁知道看了上部挺让人失望的,书中的案例以及人物太离奇了,有点背离普通的大众生活,也许作者想更深入更专业的去描写心理师及心理咨询业,让更多的人去了解这一门新学科,但看了书却让人更是觉得心理咨询离我的太远了,感觉我们这些经历平淡思维平庸的人和心理咨询不搭界了,呵呵,随便说了两句,完全是个人感觉哈!"
0,特价房相当的吵。临近高价桥，晚上吵死拉。不过在背面的房间倒还不错，价格也很有吸引力。就是房间很旧！服务员态度一般，而且还很忙，入住和退房都等了很久，差不多10-30分钟才能搞定。
0,打字的时候，键盘左半边有明显下陷；屏幕两边有漏光；等货的时间有点长，第六天才能自提。
0,有极大的炒作和广告嫌疑！用一句话可以说清楚的，作者一点要用一章来阐述。全书就一个意思：做事要考虑公平。建议不买！
0,"E5400质量不错不会装系统的朋友,一定要注意,linux不好弄,尽量买一个带windows"
0,看完了这本书，唯一收获是-----作者告诉你要爱惜自己的身体，可这我早已知道了
0,书不错，可我收到的一套中，第六本有两本，少了第五本，让当当换货，来回扯了好些日子，后来说给我们15元礼品券作为补偿，现在又过去几天了，也没见到当当的答复，也没收到礼品券。还有，我1月15日给朋友的小孩定了一份作为新年礼物，今天都23号了，还没有发出。投诉了，也没有回复。当当真的很垃圾。你要觉得你有理，你就别删！！！
0,一个月内住了四次这酒店，我都认识前台这几个人了，可每次入住时，前台无论男女都低着头冷冰冰的，甚至连你好都没有说，不知他们在干什么。 这是我见过的唯一一家4星酒店，结帐后只说可以了，从不说欢迎下次光临。我曾经观察过10分钟，这这期间结帐的几位，最后一句话都是‘可以了’，而且大多不看着客人，只是整理手上的东西。 另外房间太昏暗，很压抑。
0,稍微重了一些； 钢琴漆顶盖太容易沾指纹； 电源适配器使用一段时间之后比较烫手...
0,可惜不能提供winXP的驱动盘，重装系统还得一个一个找一个一个下！有点麻烦！
0,这是一本捡别人漏沟水的书，非常后悔买了这么一本毫无看头的书，请大家别再上当了！！！！
0,"昨天刚兴奋地写了评论,今天便遇一闹心事,因把此套书推荐给很多朋友,朋友就拖我在网上购,结果前天购了三套,送货倒挺快,可只给了三本1,没有2,为什么一张订单上的货不全还发呢?已发了退货申请,但不知能否退,其实并不想退,只想买全,可打电话询问两次,一次说有货,让再下订单,一次答复说没货,别下订单,这可怎么办呢?我在当当上物多次,还没遇到过这种情况,答复的人说是因为网页更新慢,怎么会这么慢呢?"
0,操作系统安装太麻烦了，弄到现在还装不上去，有谁会的请指点下，QQ:183915145
0,"房间一般，真的很一般。没有早餐。还是个办公楼，人很杂。 宾馆反馈 2008年4月25日 ： 房间视个人喜好而定,可能您不喜欢我们的客房类型,关于办公楼,我们大厦办公房间所占比例很小,还不到10%,希望您给予谅解和支持!"
0,酒店房间很小，成三角形－－卫生间设施陈旧低档 服务态度差：服务员敲门象高利贷索帐，当我向酒店要一床厚被时，拿来的竟然是没有被罩，且粘满头发，令人作呕！后想起索要酒店袋子装东西－－竟然没有！！！后来拿了一个用过的塑料袋！房间邻街而且很冷！向其服务员说明后－－他竟然慢慢的说：＂这不是便宜嘛～＂说的那么自然！１１０一个房间还便宜！房价能打折但是服务一定不能打折！－－下次去郑州一定不会入住该酒店－－以上言论　仅代表个人观点　不针对第三方　我对携程网的服务还是比较满意的
0,之前看到很多评论，说很好兴冲冲买了，看了看感觉非常失望炒作的成分大，实用的少作者吹嘘自己的故事占了这书的小一半感觉就是炒出来的，不建议买网上看看他的博客就好了
0,语言空洞，情节太离谱，没有感觉到震撼，只觉得这个人太倒霉了，也没有什么可以发掘的内涵，觉得整本书写得精彩点的部分的可能就是序了
0,1、不带正版系统，所以改装xp时，hp售后不帮忙重装体统，花了100块钱找电脑城的商家装，而且商家说这是特工机，那个商家技术部花了3个小时才装上了所有驱动~~ 2、电量用的快，大概也就2-3小时没电
0,过了好久才想起来评价，记得离火车站超级近，不过方便的同时必然会觉得比较吵。韩日旅游团住这里的很多，前台服务冷淡。两个人住标准间，只给一张房卡，还很挑衅的看我。气的没心情。 宾馆反馈 2008年7月17日 ： 酒店针对客人提出的问题，现已认真整改，希望每一位入住渤海明珠酒店的您都能高兴入住，满意而归。
0,这次住的是豪华间，在19楼的，是最好的（？）。但是进入后发现：房间只有8-10o平方米，而且是将原来的一个客房分割为两个的。窗是两件共用的，只有一半大，而且这样就没有什么隔音可言了。房间十分的拥挤，简陋。水要放15分钟才会热起来。空调的温度不能自己控制的。非常无理的220元价格！讯问服务员是否都是这样的房间，回答说都是，而且传家商旅的酒店房间都是这样的！不喜欢有套间可以去住呀，那个大！ 结帐时我想换成借记卡来结算，回答说原来的授权没有办法取消，只能用扣款来完成。但是扣下的款不能还给我！说是他们没有办法做帐！传家咋象黑店一样啊！ 罢了，罢了！我原来是想将传家作为我的常住酒店的，谢谢啦！只是上了一晚的当，买了一个明白。还是值得的。 我很开心地将传家从我的常住酒店名单中删除了：）同时我也建议了携程也将这个店从酒店中删除。 补充点评 2007年1月24日 ： 补充一点：这个19楼的床很矮，感觉像睡在地上一样。床也非常旧了。睡上去象是掉进坑里的感觉。
0,有些失望，没有想象中的好。比较适合幼儿园的孩子阅读。但对于小学生不是太好。
0,酒店不承认此次预定， 与携程交涉7、8次才解决！！ 补充点评 2007年6月20日 ： 明明入住了酒店！ 300多无窗房，勉强3星级别的标准，还不如住如加快捷
0,已经付款2个多星期了，我还没收到书，怎么办？我是不小心点了收货确认的。留言投诉，也都没人理我。。。呜呜～
0,1、机器较沉 2、VISTA用起来不习惯，且占系统较多 3、音频插口、右前侧的二个USB口在用鼠标时感觉手靠得太近了
0,1、屏幕反光太历害了，想出镜面屏的人太缺德了。没办法，我找一圈，发现只有thinkpad t系统有款是普屏的，太贵了。
0,材质一般，模具一般，算不上精致，也不算粗糙，一般般啦。sis芯片，和1g内存都有点耿耿于怀。声卡和调制解调器如果是装XP一代要先打kb888111的补丁，否则怎么也驱动不起来。
0,这么一个平庸的作品，怎么炒得这么火爆？汗！职场小说出现了不久，已经被炒死了，在中国什么东西都是一个快字，出现的快，死亡的也快！为什么中国人的羊性这么足，一个是我们的阅读能力被我们的教育完全毁了，很高的学历的人也缺乏起码的阅读能力。另外，中国在2000多年的中央专制统治下，把有个性的人全部杀光了，我们都是缺乏主见的顺民的后代啊！！！！！
0,"买这本书是因为看了大家的评论,但是买回来看了几十页觉得太浅显了,虽然作者有她的道理,但是相信她自己也没有做到里面所有的内容吧...看了什么感觉都没有,也没有吸引我读下去的感觉...大概适合初中生看吧,对阅读质量要求不高的人可以随便翻翻..."
0,我们是6/23(一)入住的，我住5楼，房号忘了，我的评价极差 1.当天我们是晚上10点check in，前台服务人手不够，1个服务员，我前面排了两个要入住的客户，我足足等了15~20钟才办理入住手续。 2.房间里居然没有附赠水，不过后来服务员有帮我们拿过来。 3.最糟的是房间的清洁，床单、被单、抱枕，都有留下疑似「月经」或「精液」的东西，前者可以明显看到红色的区块，后者则是一块块不规则的区块，令我们觉得很恶心。 4.唯一ok的是，请服务员来换床单与被单，手脚很快，态度亲切，其实当天已跟服务员抱怨过这个状况，并请服务员与酒店反应，服务员看到一块块的东西后也是一脸尴尬并满口抱歉。 5.长城是4星酒店，我们希望能有4星以上的水准才对。 宾馆反馈 2008年8月11日 ： 尊敬的宾客您好！感谢您选择入住本酒店，在您入住期间所遇到的情况，我们深表歉意，对您所反映的前台人手不足及客房卫生不尽人意的问题，酒店管理层非常重视，已要求相关部门合理调配前台员工工作时间，在客房卫生方面，我们也责令相关部门对布草的洗涤质量严格把关，并加强员工的工作责任心。 最后，感谢您对酒店提出的宝贵意见，我们一定积极改善，以全新的面貌迎接您的再次光临。
0,"原著还可以,可译成中文后就只不过是一套一般的书了;不知道为什么那么多人说好,我也是上了这些评论的当才买的."
0,这本书到手后，由于书脊完全断裂，让我很生气，o(︶︿︶)o大大影响了读书心情不知道损坏成这种程度的书怎么会发货给顾客！！！！！
0,酒店比较偏了，虽然是在东方路上，周围也没什么餐馆可以吃饭的
0,于丹《论语》心得(易中天作序强力推荐)首先我觉得易中天并非真想给于丹的这部书作序，从那篇文章中丝毫感觉不出他对这部书有什么赞叹，仅仅是不好推脱才写的吧，毕竟是同一节目起家的。其次是本书的内容表面上是写论语心得，而内容仅仅是拿论语做引子，讲一些无关痛痒的话，还有不怎么符合主题的小故事穿插其中。有点挂羊头卖狗肉的嫌疑。在做节目的时候于丹发挥的不错，这是她的教授生涯必备的本领吧，能旁征博引，把论语发挥的足够吸引人，但是真正拿到这本书去推敲的话，实在经不起琢磨，大家可以细细品味一下，反正好多的故事我在网上看过，主题意旨大体知道吧，可是于丹同志的论语心得似乎与主题相差甚远。但是有一点是肯定的，她让论语平民化，让更多的人去关注它，这一点与百家讲坛的宗旨是一致的。既然是“心得”，无可厚非，我也不是说非要把论语一句一句的翻译，搞成晦涩的专业论文，这样跟百姓是没法沟通的，所以论语心得浅显易懂，还是贴近大众的，最大的成就可能就在这里吧。教授有时是会忽悠人的，大家批判的接受吧。
0,"缺点就是电池不够强大,内存少了点,还有就是无线网络的开关有点麻烦."
0,通过携程预订了2个单间，结果到了酒店，酒店前台告诉我订的是1个单间和1个标房，强烈交涉后，酒店还是给了我2个单间，但是里面设施极差，一进房门就有浓重的烟味和臭味，电视遥控板是坏的，房间的被子超级薄，不得不把空调开到最大。柜子里塞满了枕头却没有被子，洗手间的下水不畅，洗个澡还堵得地上都是水……唯一值得一提的是早点还不错。 总结如下： 1.房间预订有问题，携程已经跟我预订2个单间，但是到了酒店却变成1单间1标房； 2.该酒店条件太差，根本不符合三星级标准，不建议入住
0,六心电池装在后面突出一大块影响美观，速度慢机器有点卡，放歌一停顿一停顿，重量比一般的上网本重，触摸板鼠标反应不灵敏，滑的区域太小，
0,房间不干净，设施陈旧。以后不会再住，还是格林豪泰或如家比较好。
0,书太小了 拿到手里很是失望本以为会多么精致~~~真的是适合小孩看啊可很小的孩子的又看不懂还不是大人给小孩子讲所以应该精致一点才好价钱还是不太值啊
0,所有观点都是泛泛而谈，点到即止，没有实际效用．很失望．对任何一个受过教育的女性来说都米啥大作用
0,总体来说酒店真的不怎么样，首先空调是坏的其次窗户漏风，晚上非常冷，睡觉时只能把脑袋一起放进被卧里，这是我住过的最差劲的酒店，如果再有机会去丹东绝对不住这
0,很小的一个酒店，在小区里，去马路大约要走2-3分钟，酒店淋浴水比较小，特别不满意的是竟然不能延迟至2点退房，只能到12点半，否则要加收半天房费，在外吃饭或中午要小休一会的朋友要注意了。现在的酒店不延迟退房的还没遇到，这是我遇到的第一家。
0,本来以为是搞笑漫画呢，看网上人气那么旺还一连买了三本！没想到只是像作者的生活小日记似的，写了一些生活中的事情，语言也很一般（可能是翻译的缘故吧），总之个人觉得有点无聊的，呵呵～应该适合小女生看吧～呵呵～（PS：本人18，男性）
0,听介绍想拿此书弥补英文上的一点翻译陋习，显然粗看了此书后，对于读完高中英语的人们来说，此书内容太浅了，里面的例子的图片貌似都是网上截图的说。另外我买了一大堆书就这本质量有问题，书脊都被压坏了，申请换书居然麻烦到让人发指，可笑的是申请退书居然简单到让人抓狂。静静的等待退书中……
0,"预留了摄像头的位置，但没有, 键盘缝隙大, 送货地址不到,也没个电话,还得自己打电话更改地址,服务意识有待提高,但是更改地址后送货速度很快"
0,这家酒店对携程的客人有价格歧视，所以不建议大家入住。我们是8月8号入住的（当然入住前是通过携程预定的，价格是996元/天），入住当天前台说是498元/天，拉了2000块的信用卡预授权。10号下午7点我们结帐离店时前台接待说要按照996元/天的价格结帐（其间没有任何人通知过我们），理由是这个价格是携程给的，恰好在我们结帐前有客人入住前台给的价格就是498元/天，因为8：02的火车，无奈之下我们按照996元/天结帐走人。我们鄙视这种逻辑关系混乱的前台，你们的房价难道要靠携程来制定么？
0,"老酒店,设施都很旧很简单,只住一晚所以将就了;交通倒挺便利的,房间整体感觉有点脏,应该是因为旧的原因.下次再去换另外一家,不想去住了,没什么值得留恋的.网线也没有."
0,"重来没碰到过态度如此之恶劣的前台. 星期五晚上我们预定了4间房间,但因临时需增加1间,我们询问前台一位男服务员,他回答我们有1间,但是价格必须按散客价格460入住,我们说我们能按携程再定吗?就算个团队,但是前台告诉我们携程已经不能预定,我们问为什么,这个前台服务员居然不理睬我们,眼睛也不抬起来看我们一眼的说不行,是按规定的.而且自顾自操作我们前面预定的4间,不管我们问了几遍,照样眼睛也不抬起来看我们一眼.(而且从史自终脸一直板着,向欠他钱样的).最后惹火了我们其中几人后居然回答没有房间了,我们退而求其次问加床可以吗,居然说不可以(还没碰到宾馆不能加床的),最后只能大家挤挤住了.如此素质的人怎么能担任前台工作.后面的心情自然不言而喻.而且价格也不便宜,就是普通经济型的旅店,又没什么特色,价格比上海同等还高.要不是预定晚,别的宾馆没房间了,根本不会选择这家. 补充点评 2007年10月21日 ： 另外这个酒店的配套设施简直差到极点,棋牌室居然是3个桌子放在很小的一间房间里面.而且自动麻将桌只有1个,其它设施为零,什么也没有,至于服务态度,酒店解释前台是新来的,但就是传统意义上的招待所也比他强很多!"
0,酒店地理位置比较比较偏僻，不过穿过两条马路就是石老人沙滩。 酒店前台对客人比较怠慢，特别是女服务员，脸上几乎没有表情，对客人的询问或者是要求，都不太理睬，或者就是说，你等会。感觉很不好。男服务员倒是比较热情的，这个后面我会提到。 酒店房间设施感觉一般，我定的是豪华房，感觉基本符合四星要求。大床比较舒服，房间内很多物品都是需要付费才能享用，好多介绍书都是用韩文标注的，感觉我到了韩国，中文标注的字体很不明显。 酒店地址偏远，附近没有什么好的饭店，酒店内的饭店也在装修，只有咖啡厅和韩国餐厅营业，想吃点中餐很难，询问前台服务员，整个就一热脸贴冷屁股，爱搭不理的样子，我们没吃就被气饱了。 晚上朋友带我们去吃海鲜，结果半夜两点两人都上吐下泻，请服务员送了点止泻的药和热水过来，还不错，很快送来了。早上五点还是挺难受，因为下午要赶回程的飞机，所以打算去医院看看病尽快止泻，想请前台派个人陪我们一起去，结果前台经理（男的）态度还不错，让我们等会，结果等到6点一刻，他告知我们6：30交接班，晚班的人要回去休息，早班的人送我们去，说实话，我们那时候都特别累，拉了一晚上，当时感觉肚子也没那么疼了，也别麻烦别人了，我们就自己上楼去休息。 10点钟，拉了一晚上，饿的前胸贴后背，餐厅只有自助餐，我们一点油腻的东西都没胃口碰，于是我们拖着虚弱的身子询问哪有喝粥的，结果我们是二楼跑一楼，一楼跑二楼，在询问了无数遍，上下三四次后终于得知咖啡厅有粥，我们要两份白粥，告知10元一小碗，没有配菜，切片面包，2元/片，外加15％的服务费，就这样，两碗白粥六片面包总共37元，我和妈妈开始热切怀念之前两天住的太平角如家酒店10元的自主早餐了。 点完餐，因为有送餐服务，我们就先回房间去休息了，结果左等右等都没有服务员过来送，我可怜的老妈又拉又吐，脸色蜡黄，饿的要命，因为吃止泻药之前得吃点早饭垫垫。后来老妈忍不住了，催我给餐厅打电话，我翻遍房间内得说明，恁是没找到餐厅电话，老妈只好自己亲自下楼去催，结果被告知粥还在熬呢。。。。。。在好漫长得等待后，终于端来了热腾腾得白粥和面包，我们那个激动啊，终于有吃得了。后来我们把情况和服务生说了下，他说我们身体情况应该去医院，他要和酒店领导说一下，我们很是感动，说实话，到了酒店以后就这个服务生最热情了，可后来直到我们退房，也没一个电话。。。。。 618元的房费，但是服务却达不到这个价格，之前我们入住的如家209元的房费我们却感觉享受了星级的服务，我想酒店的设施固然能吸引不少客人，但发自内心的微笑，真诚的服务，才是我们些客人最在乎的。
0,这是第一次订这家酒店，酒店位置还可以，但肯定开业已经有一段年月，装修有点旧，办了入住手续，进入房间，感觉房间的状况不好，所以决定亏半天房租，还是另外找其它酒店
0,遇停水一次，说是突发事件。态度相当恶劣。第二天送上两只香蕉，两只苹果的“果篮”作为道歉。建议不要选择电梯附近的房间，门口有服务电话，房间隔音很差，很吵。早餐的两个地方只能打60分。出租车是现叫。14楼走廊里的服务电话机很脏。
0,"强烈不推荐靠马路的房间特别是单人间,因为整个房间除了凌晨1点到5点是稍安静的以外其他时间都是在刺耳的噪音中.虽然挂5星却有2星的房间和最差的服务.以后再不会入住."
0,这本书装订得很差，拿到书没看一天，就裂成好几份了。仔细一看，这书是立面贴了一长条胶状，所有的书页都靠这层胶粘着，很容易就分裂了。
0,"房间的环境非常差,而且房间还不隔音，住的不舒服。"
0,电源适配器太热了。出风口可以烤鸭。驱动太难找了。CPU的温度没有低于65，一般都维持在75左右，还没有玩游戏呢
0,初五住的，这么冷的天没有暖气，没有热水。携程预定前台说没有收到。总之感觉很业余。
0,真不知这本书怎么在韩国热销的，无聊得要命，内容空荡荡，我看了几页就看不下了，明明他的字很大纸又很厚的说
0,很普通的励志书，满大街都是的那种。被美丽的包装骗了。一小时左右就看完了，没什么内容。现在正后悔呢。
0,个人觉得此书一般，从中没有得到什么有益的启迪！是翻译的问题，还是我理解的问题呢？有时候觉得不知道作者到底要给父母什么样的建议。
0,散热不太好！ 显卡驱动太难找了，跟型号怎么也对不上，下了个上面说的英文网站的显卡驱动，玩红警都有点卡，不知道为什么！魔兽还行！谁能告诉我为什么啊？
0,装xp系统不方便，不提供驱动。 网卡驱动装的不是很顺利，用电源时发现不了网卡，用电池才发现硬件，装的网卡驱动。 感觉很诡异。。。。
0,明明缺货却不显示，没货了也不通知一声，收货时才知道没有这个！当当就喜欢骗人！
0,买之前看到评价中有人讲刚拿到的本本键盘出现问题，总想是个别现象，于是就买了。很不幸，拿到的也是键盘有问题的本本，联系dell售后换了键盘。京东根本不理，购物不愉快！08年10月生产的。
0,"总体感觉很不好. 酒店实际就是一个公寓短租房形式的.藏在一个公寓里的一层.不是很好找. 房间的味道很重,感觉脏西西的。估计是卫生人员不勤于打扫. 看的出来，酒店想模仿些情人酒店的感觉和商务酒店的简单.不过两个都学的不像.细节做的太差了"
0,"可能是被我遇到了极个别案例， 新机器，开机白屏，无任何显示，更加没有出现华硕logo,提货当天已送回，要求退货，事件正在处理中。"
0,第一次住这里，之前有同事住过，所以觉得应该还可以，没想到： 1、门童非常不主动，门口站着几个门童和保安聊天，不理客人，要我自己站到大马路上去拦车，可恶的是，我拦到车之后，门童居然从门口跑过来说是帮前面客户拦的车，眼睁睁看着他把车引到一个老外面前，我快气疯了； 2、游泳池一般，但是旁边的按摩池看着就很脏，不能用的，更衣室那个脏。。。 3、送餐可供选择非常少，第二天清洁客房的时候，用过的餐具居然不收走； 4、上网很慢，而且我房间的网线坏了，叫了n久才有人来换； 5、我住的房间靠街的背面，本来应该是安静的地方，偏巧后面是个大工地，半夜不休，晚上两点多还有打桩机在勤奋工作，酒店几乎没有隔音，那叫一个吵啊，两个晚上都是捂着耳朵睡的； 6、半夜十一点半的时候，突然有服务员按门铃，赶紧套上衣服去开门，结果说按错了。。。。。。。。。疯了； 7、说到最可恶的地方了，我check out的时候忘了一个发箍和一个包装好的熏香炉，因为赶飞机，所以打电话说好过几天回去取，第二周我同事帮我去拿，说发箍和橙子放在一起，被弄坏了？？？（听着就很恶心）那熏香炉呢？酒店跟我同事说会主动跟我联系，至今几个礼拜过去了，没有人找过我！这是什么酒店啊！ 每次住酒店总有些满意不满意的地方，但是深航这次实在是恶心到我了，不吐不快。仔细回想起来，基本是无一是处的酒店，大家千万不要住，这个价格也不算便宜，我在深圳住过比这性价比高的酒店多的是，而且携程的价格也不便宜，后来听人说很多单位都有协议价格，想想很不划算。 宾馆反馈 2008年4月29日 ： 尊敬的客户： 您好！非常感谢您在入住期间对酒店服务不周道的地方及时提出了诚恳的批评和指正，对部分员工的工作处事不当给您带来的入住不便和身心不悦，酒店深表歉意。酒店领导在第一时间获悉您的意见后，对当事人进行了批评和教育。酒店诚意邀请您能在下次来深期间再次光临本酒店，给我们以当面致歉的机会，同时酒店也希望通过自身的不断努力，能够得到您的再次认可。
0,"房间只能算很一般.设施已经相当陈旧.前台的服务水准有很大的问题.没有预授权,2天的房租需要先结算,还要支付押金.住遍中国及国外那么多酒店,没有遇到这样的事情.地理位置还可以!只是这个价位,在深圳别的选择多的是.以后不会再安排客户住去那里."
0,个人觉得这本书并不怎么样...画面是蛮漂亮的，但是内容没有什么东西，而且价钱也掉得有点快
0,受不了，基本隔壁所有的声音都听的一清二楚。因为隔壁没睡，所以我也跟着无法入睡，见过隔音不好的，可没见过如此不好的。听一个出租车司机说这个如家是厂房改造而成的。真是很有疑问：经济型酒店，到底经济了谁？
0,本人语文水平有限，不知道“勾通”和“沟通”是否通用，看到有几处用的前者，有时又用后者。故事写得很一般，至少在我看完“浮沉”以后，这个故事就显得没那么精彩，吸引人了。无非就是一个女孩子利用一个个机会往上提升的故事。人物写得不够饱满，给人印象不深刻，故事也没什么起伏的情节，比较平淡，很多人生活中都是这样过来的。也许跟我本身工作有关吧，书里的情节、故事、场景都太熟悉了，没新意，对这本书就是喜欢不起来。对职场新人有一定作用。
0,散热技术，防滚架，金属铰链，关盖卡扣，合金机身，就连thinkpad的小红帽都抄袭，变成了小蓝帽，
0,"一般我是懒的去评价住过的酒店的,这次选择""金泰海博"",是因为新公司就在对面,图个方便,但是,住过3天后,让我太失望了,我觉的不吐不快: 1 酒店正门在马路背面,第一次坐车去会习惯的开到马路旁边的前面,结果发现是一个杂草丛生的停车场! 2 我网上定的是一个大床无烟房,到前台一入住,告诉我没有了,给我一个没有地毯的标间,不得以,加了100多换成了豪华标间! 3 豪华标间在8楼,走廊超窄,最头紧靠的就是一个大会议室,早上还没起来,外面吵吵囔囔,3天都有不同的会议在进行!出门再一看,是个公厕! 4 比较晚起,下午4点叫服务员打扫房间,然后出去,晚上8点回来,整整4个多小时,居然房间没有打扫,想找人骂~~ 5 因为靠近马路,晚上你就算把窗子关死,你也能听到外面车子嗖嗖的声音,比较吵! 6 我比较怕热,北京这些天也非常干燥热,可是到了晚上1点后,居然没有空调了,到了7点左右才开,TMD,他们晚上把空调都全关了~~开窗吵,不开窗热,你能怎么办, 7 服务员长的那叫一个眼泪啊!这点就无所谓了!"
0,1。外壳钢琴烤漆，确切说是指纹收集器，记住是指纹收集器不是指纹识别器。 2.买了两台都有亮点，没啥说的，说我人品差，我认了。 3，液晶屏侧面漏光，这明显是做工问题，比同事的神州都严重
0,不知道是不是所有本本都一样，光驱不大好用，有时候读得出来，有时候则不然~~
0,没有配包 不是很方便 客服电话永远打不进 处于占线第1位排队等候状态 希望能改进
0,比较笨重，移动性能差！不包电池都有3.2kg，加上送的包和外包装有6.25kg，提货的时候不是一般的累。。。
0,《不一样的卡梅拉》的确不一样！家里那么多图书，儿子偏偏对它情有独钟。没事就把它从书架上拿下来一个人静静地翻阅。要不就问我：“我是卡梅拉，妈妈你是谁？”让我和他一起扮演书中的故事，一遍又一遍的，不厌其烦。可见，这本书已深深地印刻在他幼小的心灵中了。这就是一本不一样的好书！
0,首先，电池的续航时间短点儿，四芯还是少；第二，个头大点，真的建议去掉屏幕和键盘周围的边框；第三，1G内存少点，开关机后需要很长时间；第四，用了不长时间，触摸板右侧就热了，底座也烫，但都可以忍受。
0,刚在当当网订购这套书时，就跟儿子说我给他订了一套书，里面有小汽车，还有很多好听的有事，儿子非常高兴，这本书到了后，儿子非常喜欢，特别是对轱辘轱辘转这本书格外喜欢，在里面找金虫子乐此不疲，晚上到不肯睡觉。
0,发热一般吧。 居然硬盘只分了一个区？？？？？！！ 那这个原版的VISTA怎么办，我重新分区要格式化硬盘啊！！！
0,太现实了，感觉应该要有点心机，把金钱看得很重这点很不好。人应该活的单纯些，并非有钱有势就算成功了，在生活中，最重要的是学会怎样乐观的生活
0,"应该直接装xp,没有驱动盘,开机时光驱声音很响,京东又不解决,叫我自己直接联系thinkpad,不方便,还没解决"
0,外壳容易留下指纹。USB接口位置有点难受。居然不带鼠标和包，东芝网站上可写的有，便宜就克扣赠品了？
0,"就值5元的浴盐瓶要赔40元,这不是主要的,最主要的是质量差的东西能伤人,我打开没用力就破,我可不是什么大力士"
0,什么赠品都没有，连驱动光盘也没有，重新系统安装驱动很麻烦 那个恢复系统分区只能刻录CD，要刻录好多张CD，直接删除 除了两个恢复分区，就只分了个200多G的分区装了个VISTA，不太人性化
0,有点失望！ 一点也不好笑， 所谓的笑话，都是些低级的拼写错误而导致的。 虽然室折扣书，还是觉得有些不值。
0,"晕,怎么还推荐这本书给2-10岁儿童. 看了第一本,只有两个概念:1.不按时睡觉!2.结婚生小孩!"
0,上面大大的字写着：随书赠送精美签名海报的啊？？？怎么只收到书没有了海报啊》》？？？？？还我海报啦！！！
0,大家都说平湖君悦酒店床铺太小，很不幸我中招了，我是预订完了之后才看到大家评价的。这家酒店的内部设施偏老，早餐不好吃，房间有点小，设施还算全，卫生间也很旧！ 补充点评 2008年6月3日 ： 我建议大家在平湖多走走，比君悦酒店性价比高的宾馆多得是！
0,我想在此提供本人的入住经历给大家，仅供参考 1.提前预订酒店时就曾打电话申明过需要接机，结果当日下机后和老公托着行李前前后后找了一圈也没找到来接我们的师傅。无奈之下只得自己叫上出租车前往，好在距离不算太远，旅游公司的车只花了二十元 2.从进饭店的那一刻起我就开始后悔，这个酒店是有些年头了，外表和内在的设施都已陈旧，进酒店之后也没有服务生过来帮忙提行李，从旁边经过却熟视无睹。 3.房间太小，比想像中还要让人失望，所谓的高级客房充其只能算个普通单间。 4.送的水果是两个小苹果，一根小香蕉。鲜花我也没见到过，也许就是因为免费赠送的原因吧。不能太过计较，怎么说也算是送了。 5.早餐，也许是因为太早要赶去丽江的原因，所以服务生打包送到房间里来了，馒头之类的东东，单调的只能是充饥而已。 虽说酒店离机场比较近，但是昆明的交通啊，和咱们武汉一样的，不敢恭维！昆明机场也是，一大清早让人感觉是春运的火车站，所以提醒朋友们，一定要早到以免误机！ 以上便是入住此饭店的个人感受，我只停留了近十个小时，性价比真的是很差，实在是有待加强！
0,酒店位于市中心，比较方便，房间设施较一般，最苦恼的是，说是市政府规定，室外温度不过27度就不能开空调，所以白天几乎不开空调，热得我们没处躲，要知道这可是宾馆不是招待所，房间都是不对流的，不开空调能闷死人呢，真难受啊，还好到晚上空调开了，不然我就立马退房走人了。本市的地图是要买的，不像别的酒店都有赠送。
0,儿子自己拿着这几册书，看着看着就会大笑。这可以说是第一本令他那么开心的书藉。
0,价格比同配置其他牌子电脑贵些。 装XP比较困难，因为SATA盘芯片驱动比较怪。
0,胡兰成看似有情，实则无情。胡兰成处处留情，用情不深。书中不光写了胡与张的爱情，同样写了胡从小的生活感受。此书宣传过于大量渲染胡与张的爱情，书中更多是一些别的东西。文笔细腻柔和，挺适合中学生阅读提高作文水平的。个人认为，偏重喜好情节取胜作品的读者，还是别浪费时间了。
0,"看到网上的热评终于忍不住买来一看,什么东西吗,完全一副显摆样老实说历史确实应该可以写的好看但似乎不该是这个样子吧,反正我除了看见一些新鲜词汇完全没觉得好看好玩明明惊险曲折的战争场面被他描述的寡淡无味人物性格不是通过冲突体现出来的而是硬生生,死板板下定义得出来的总之,不好看,没水平,没意义"
0,有点小，字体看着不舒服，习惯了就好！毕竟够轻薄。 京东的送货要批评一下，星期六下的单，星期三才到。 价格贵了点！
0,不敢说这本书写得不好，但这实在是一本看了让人不舒服的书，不知道真实的心理咨询师的生活是否天天在经历着这些令人难受的事情，并且女主人公的身世也设计得很古怪且缺乏真实性。很早就读毕医生的散文，小说也读过几本，但这本书是我不太喜欢的一本，身边一些爱书的朋友们读过之后也有同感。
0,这不是一本完全无用的书，多少还是能得到些启发。章节较小，公车上打发时间不错~
0,此款机子不为windows xp设计。装机(xp)比较麻烦，折腾了一天总算搞定。不过还是留有不足，就是声音有时有“扑扑”声响。主要还是不兼容的原因，现在就这么用着吧，以后再升级。
0,今天刚买的thinkpad，开机使用没多久，交流电流适配器便不间断发出刺耳的杂噪音，继而发现电池也发出同类声音。我很多朋友都用thinkepad，都没有这种情况，所以可以确定是产品质量问题。
0,内存小，才1G，不是独立显卡，无摄像头，硬盘不是320G。接口布局不是很方便，不过要像普普那么布置的话，估计散热不好。要追求独立显卡、摄像头的，又不是这个价格了。VISTA系统用着很不爽。
0,总体上来说对这个宾馆不很满意。 1. 前台服务很差劲。据说是电脑系统问题，造成半个多小时都没有办成入住，而且总是爱搭不理； 2. 入住后，发现房间没有及时整理，催促了好几次； 3. 床单、枕套之类的白色都变成了黄色，据清洁人员说漂白过的才是白色； 4. 退房时候又等了好久 5. 入住时候预定的房型没有了，升级居然还要付钱。。。经据理力争才免费升级。这种情况在武定路的那家就没有发生。
0,明明缺货却不显示，没货了也不通知一声，收货时才知道没有这个！当当就喜欢骗人！
0,"非常不满这酒店，配不上5星。第一,客房服务员没有水平,房卡出问题，叫了20分钟仍没有人出来开门。第二,电掣跳闸..也等了15分钟才有人上来。第三,服务员没有礼貌,说话太不象话,前台也有些接待人员完全不懂操作。第四,也就是最不满意的,就是身为5星级的酒店，门口那些出租车司机胡乱开价,我们就像水鱼被人宰...我们说开价太贵,他们竟然说从5星级出来,讨价还价,会影响我们身份..这是什么道理? 害得我们找不到车...这是我住的第一次遇到这样的5星级酒店,出现这样没有水平的配套。垃圾........... 补充点评 2007年12月10日 ： 还有床太不象话了，睡的时候床垫竟然可以感觉到弹簧的铁丝…睡得很不舒服"
0,海天的房间比较小，因为是在中间，所以采光也不是很好，里面的设施不太好，地毯很脏，我住的那间热水管坏了，但因为当时同屋的已经睡了，所以也没有去换，但是心情就不好了。最不喜欢的是他们的服务态度，因为我们整理东西，所以晚下来了15分钟，这期间也没有电话提醒说必须马上下来，但到了前台后就被它们不停的质问：怎么这么晚才下来，！语气很不好，而且被问了三遍，前台小姐问了两遍，脸很臭，后来有一个男的不知是不是前台，嘴里还叼着烟，又问了我们一遍。当时就觉得特别火，住了这么多酒店，还从没见过质问住客的呢，以后不会再去这家了。
0,第一次开机使用就蓝屏，然后使用一键恢复，继而出现提示重启信息，然后往复重启，让人心寒！！！ 提交了返修，审核通不过
0,服务态度很不好，除了免费的水，1瓶衣云收60，太黑了，那天去开什么外资企业洽谈会，全是些中国老表在哪里混，有鬼的外资企业。真烦！
0,1.相对于14.1?的笔记本，体积大了一点，完全可以制作得更加小 2.vista basic而不是premium
0,给外甥买了好几套动画片，他最喜欢这一套，而且百看不厌。一张碟子能看几个小时。不断重复的放，他看了还是一直笑。
0,"临街.非常的吵.酒店的负责清洁的都是顺手牵羊或者无德之辈.共住了三次好像.前二次一次是洗发水和一次洗澡巾忘拿了.打电话过去都是没看到.估计拿走了或者扔了. 因为对合肥不熟悉,并且的确没什么好酒店.住了第三次.真汗!发现酒店的浴巾什么估计外包洗了.我知道全国洗酒店桑拿浴巾这行业非常薄利.甚至不能用自来水.不幸的是估计这家酒"
0,1、大床房其实是一个很小的房； 2、新装修的房其实一点都不新，看起来挺旧的。 补充点评 2008年5月23日 ： 我入住的是新装修的豪华房
0,宾馆直接对外的价格是168，携程的价格是160，只便宜8元，有点喜剧
0,本人才疏学浅，实在是没有耐心看完全书！张爱玲是才女，可惜我不是，决定以后不买她的书了，因为对我来说太深奥！
0,预装的系统不好，回来还得费劲重装，内存小了点，如果能配套有2G的选择就好了
0,电脑的包装纸盒上有个非常明显的鞋印，想象京东的包装和运输不是用手来操作的。送的礼包里的电脑屏幕保护贴是弯折的，没法用了。
0,住了特价的房间，实在是差的没法说了，房间小得完全出乎意料，像个剩余的角落留出来的空间弄了这么一个房间。还有停车场，实在不方便，而且地下三层，而且非常的陈旧，去停车场的电梯怕怕。第一次遇到这么差的停车场。 下次不再去，永远也不去。 宾馆反馈 2008年8月4日 ： 尊敬的客人您好，首先感谢您对酒店的评价，对于您在酒店的遭遇我们深表歉意，酒店除了特价大床房之外还有其他多种房型可供您选择，对于停车如您遇到困难可向前台与酒店安保部门联系，我们会第一时间为您解决。我们还是希望您能再次光临，在下次入住之时会给您一个不一样的感觉！
0,散热不太好，触摸板的地方开机一会儿就会烫手，当即买了的大风扇本本散热器；键盘按着没什么感觉，至于不能识别的情况还没有出现
0,不支持Xp和未能提供相关该产品硬件的升级网站，且网站公布的可供下载的驱动不全，需要找HP工程师才能发链接。
0,这本书只值的娱乐与消遣，不具有任何学术性，因为基本的科学性很不够，即起码的准确性都无法达到。
0,我很愤怒，这本书我4月23号收到邮件说上海寄出，今天了5月7号了，我还没见到书的影子，居然让我写评论……希望像在当当上买书的朋友慎重了
0,有点太厚了，键盘比较没手感！屏幕下方有一个亮点，实在让人遗憾！！！
0,"临街.非常的吵.酒店的负责清洁的都是顺手牵羊或者无德之辈.共住了三次好像.前二次一次是洗发水和一次洗澡巾忘拿了.打电话过去都是没看到.估计拿走了或者扔了. 因为对合肥不熟悉,并且的确没什么好酒店.住了第三次.真汗!发现酒店的浴巾什么估计外包洗了.我知道全国洗酒店桑拿浴巾这行业非常薄利.甚至不能用自来水.不幸的是估计这家酒"
0,买这套书最大的原因就是看了很多评论对这套书的评价很高，买回来后发现很失望。首先是印刷质量，好多评论上都觉得非常精美，个人觉得在幼儿书籍中应该属于比较粗糙了。其次是看书的内容，大部分都过时，和现在的社会差别还是比较大。最后，还是说故事情节，毕竟是老外写的，很多情节与国情相去甚远，读给小孩听不知道会不会给她以后带来影响。
0,应该不是我第一次评价这个酒店了，没办法再次补充如下： 1、早餐真是超级垃圾，做得真的感觉和猪食差不多，不知道请的什么厨师？ 2、仍然是早餐的问题，在大堂旁的一个好象是叫‘玛格丽特的’西餐厅； 1>光线特别不好，谁都希望早上起来有个明亮的环境用餐，但这里肯定不是； 2>给食品加温的不是电热式，采用的是燃烧腊来加热/保温，弄得餐厅里面很浓的一股腊燃烧后的气味，让人感觉非常不好； 3、真不知道这样的酒店怎么样就能够评上4星？哎。。。
0,"我1月16日下的定单,EMS花了人20大元,直到2月2日才到货.到货一看不是他妈国语,是他妈粤语的.当当就他妈骗子."
0,这位姐姐对这本书几近痴迷。我不好这一口，没有耐心看它。纯粹表扬一下这次送书的效率和质量。起码书的品相不错，好过我前两次购书。希望以后能保持。
0,这本书不象宣传里说得那么好，买到家以后，翻了翻就没有兴趣了。本来是想买回来，让小孩学习英语的，拿到书以后，竟然是中文夹着英语单词，这种脱离文章来学习英文单词的方法，我是不认同的。
0,我三十岁，父母年纪大了，本想买一本能帮助家人保持健康的书，但很失望。觉得更适合职业为足疗或按摩师的人去买。还有，网友提问都是个案，但刊登篇幅那么大，有被骗冤枉钱的感觉。
0,书中写的你觉得对的就相信，有些认为不对的，最好是不要相信，如果都信书上说的估计每个人都癌症早期了！还有就是穴道对我们一般上班族来说，不太容易找到！
0,于丹视而不见《论语》里的许多糟粕，把它吹捧成了指导人生的宝典但不能不承认好的一面说的也有些道理
0,1、电池比较差，没有9.5小时，工艺不行，充电到100%还是显示充电，而不是自动停止充电。2、N280的速度不行，不管是启动，还是运行，比较慢。存建3、内议标配2G。4、本本散热不行。5、适配器很热
0,发热量还是挺大，看在配置，同级别的inter配置下来最少5500+，忍了……
0,系统没有，随机软件也没有，没有包和鼠标，不过这个价格就差不多这样了。我用的时候，靠近电脑开关附近总有吧嗒吧嗒的声音，不知道为什么，希望不影响使用。还有点了菜单命令后反应滞顿，也不知道为啥．
0,对于我来说，12月10日是我最难熬的一天。一个四星级的酒店在温度只有13度的夜晚竟然不开空调，而且还是酒店的规定（内部文件规定），真是闻所未闻。我不知道是因为没有客人所以不开空调，还是因为不开空调就没有了客人，希望酒店多多反省。 我只想建议携程尽快将该酒店的协议废除，以免其他客人受苦，影响携程的信誉。 冻了一夜的白金贵宾
0,"缺点不要太多 最讨厌的就是DOS机不能直接装Vista,为了搞这台机器忙了我两天的时间"
0,也就是普及了些自以为大家都不知道的事也就是职位往上那么一小挪给捧得天花乱坠适合熏陶下俩眼一抹黑的职场新人。。。
0,早餐有时8点结束，刷卡不方便，还要压现金，房间打扫不及时
0,酒店设施、环境很差，很不舒适，非常不满意！
0,位置太难找了，房间设施少，功能单一，作为商务间，没有配备电脑，有点遗憾～！
0,"xp驱动不全,难找. 只能用驱动人生2009,驱动精灵2009都不怎么行! 少特殊功能键和指纹识别驱动"
0,"为什么送货这么慢我17号下的单子,怎么还没到?我急着用这些书,希望能在这个周末前送到.谢谢."
0,总结一下，女人要现实。要么嫁好老公，要么抓住机遇有事业……这还用她说啊。
0,我一个月前订了这本书，可说是缺货，至今都没有收到，也没有留言告诉我什么时候才能发货，还是要退货，对你们的服务不是很满意！！！找半天没有找到提问的地方，就写在这里了，往尽快处理！！！
0,不明白为什么机器是六月产的，有部分驱动却不是最新的，无线上网时断时续，上官网更新驱动后正常。续航时间也没有介绍所说的8小时。
0,"真正的色戒文章非常短,只有十多页,其余二百多页全是张以前的名篇,所以购买慎重"
0,上当受骗了！一拿到手才知道不是胡兰成的原著！还那么贵！可恶！为了不破坏我的感觉！我决定不看了！准备哪天找个家伙卖了它！害的我又重新买了两本胡的书 怎么说不要破坏感觉 果然 文采斐然 不忍放手不过为什么总是木有山河岁月这本书 缺货缺货 无可奈何！
0,这个旅馆没有餐厅，服务员让我们到他们的4公里外的天天福饭店吃饭，结果我们被宰了耶。再去入住者千万别受骗上当啊。 补充点评 2007年11月24日 ： 这个小旅馆非常差呀，你们千万不要再去入住这个酒店啊，虽然很远就能看见了在房子上的招牌，但到了房前转了3圈也找不到进入的小门，还被警察以违反交通处罚了。好容易到了房子前，一看是一片乱地，到处是建筑垃圾，车无法进入，无处停放轿车。这个旅馆没有餐厅，出去走了1000米也不能找到吃饭的地方，到处是大商场和购物商店。房间内的设施陈旧的很耶，白色的毛巾已经变了黄色也不更换，毛巾的四周都是线了，甚至还破了几个洞仍在给我们擦脸耶，一想就恶心死了。携程怎么还能将这种民工都不去住的小旅馆给我们推荐，太不负责任了吧。赶快从定房目录中删除掉。
0,作为个人经验在网上谈谈可以，但拿来出书就有点过了，书中还有些明显的谬误。不过文笔还不错，建议写写散文好了。
0,比Y450贵很多，个人认为还是450性价比最高，奇怪的是应该是尺寸越小越贵啊
0,Vista系统还是感觉不好用，换XP非常麻烦，对电脑不是很了解的推荐不要自己安装，本人研究了半天才终于换成XP，非常有成就感。
0,觉得是住过酒店最差的一家，一楼房间接近地下层，空气不好，而且酒店还在涮漆整修中，油漆气味很难闻....早上七点钟不到，施工人员和服务人员就在走廊上吵到不行....而且，酒店位置很难找，在胡同里！...总之印象超差
0,显卡小了一点，要是有512M就好了；CPU在超级兔子硬件测试里显示是1.6G，但CPU-Z测试是2.4G，不知道是怎么回事。再就是电脑刚刚收到就降价400元，还送杀毒软件，可惜了。另外发热量较大。
0,唯一跟在中关村买笔记本不同的是还要自己装系统，开始买来不知道，还以为有质量问题，不能开机，后来找到客服才知道是因为没有装系统呢，专门跑到中关村花钱装了，省得自己麻烦！
0,"我居然连货都没收到,后来也不知道找什么人解决.就这样白白的给了钱,却什么都没收到,怎么办"
0,1.老标间一股怪味，换了个同价位的单间，新装修的单间感觉较差，卫生间漏水，屋顶漏水； 2.去房间的走廊过长； 3.结账太慢，要等待。
0,1：只要使用风扇就一直转不停，2：硬盘有杂音，答刺答刺的很刺耳。3：色差有冷暖之分，我们南方适应的是暖色，我这个是冷色的，如是正常的冷色就无所谓，但我的颜色不是一般的冷。影响到画面的颜色了，能换货吗？
0,服务态度极差。预定的房间告诉我没有，说要加钱升级才有。我说我已经用信用卡担保，服务员很坚决地说没有收到，没钱可以走。
0,这家酒店简直就是招待所，房间一股霉味，洗澡热水要先开10分钟，浴缸小的可怜，房间的设施简陋，洗澡水从浴缸直接流出，经过地面到下水道，卫生间满地都是水，马桶的盖板比马桶小一圈。不知道为什么携程网会和这种垃圾酒店签协议。打死我都不会去住第二次了，总结：差!差!差!
0,刚住过这里，感觉不好，房间味道太大，一股子霉味，房间各种设施都很陈旧，我所预订的大床间，却没有宽带，只能一个住在双人标间。因为去的时候较晚，所以有点饿，结果在房间找了半天，只找了一个空荡荡的摆设冰箱。这么老的酒店还不装修一下，估计不会有回头客。好的一点是环境不错，但在海南，像这种花园式的宾馆还是不少的，并不构成特色。如果有人到洋浦来，建议住在海景花园宾馆，四星级设计，在房间门口的走廊上就面向大海，整个是个花园式布局。如果要洗浴，可以打个三轮车去干充（音译），只有几公里的路程。价格也很公道，238元大床间。
0,1. 令我最大的遗憾是 ，热水竟然不热。还好是夏天没感冒。 2. 电视上面一个机顶盒子是坏的 我也懒得修了 3. 四星级酒店竟然没有西式早餐。完全都是猪油的菜，我只能吃伴黄瓜和油条。而且中餐实在是太难吃了。 4. 服务还是可以的。 5. 酒店内部设施实在是不配4星级称号，太旧太烂了。 6. 网速并不象其他人说的那么快， 可能截流了，也就一般的速度
0,这本书没放到床上看。拿回来急不可待的去翻看了一下。呵。。。。随手放到了卫生间，只是在我方便时偶看一下吧。真的很不实用。倒是美女拍的很漂亮，连我老公也翻着看。
0,此书与电视的热播形成巨大的反差，买它作为公司读书活动的读本，结果是没一人去读完，书写成这样子，真是令人失望．
0,价格在长春属于高价，但房间环境和服务完全不够。房间里柜门油漆剥落。下午6点半找不到西餐厅，服务人员告诉我可能下班了，下班？六点半？前台小姐把等着check-in的客人晾着，自己接电话，还一脸的冷漠看着客人。找有的服务人员问路，被很牛的告知：“这不该我管”。完全不具备一个所谓对外宾馆的起码形象。给我的感觉就是“你们烦死了，没有你们这些要来住店的人，我们该有多清闲呀！” 宾馆反馈 2007年10月19日 ： 尊敬的宾客您好： 首先对您在入住期间遇到的不快表示最诚挚的歉意，同时也非常感谢您能够提出我们服务接待中的不足，也是对我们接待工作的最大支持，我们将全力改进，并加强员工的培训来提高服务质量，以最优质的服务来迎接到馆的每一位宾客。为通过此事进一步教育员工，提高服务意识和服务质量，有针对性的开展部门岗位培训，我们真诚地希望，如您方便，请您告知我们您当时入住时的详细情况，如入住时间、谁接待等（如不知道具体接待人员姓名，可描述一下在什么位置，如总台入住登记处还是收银处、穿什么颜色制服等），我们将不胜感激。并希望您能一如既往的支持和关注我们，我们全体员工欢迎您的再次光临！
0,上网的宽带不太稳定，同事入住的时候都会带一个CDMA上网卡。。
0,"阅读此书,本意是想增加点知识,了解自我的,可是结果目的没有达到,文字冗长,内容也不喜欢,感觉不爽~"
0,虽然作者花了很多篇幅，但看了以后有点失望，感觉钱白花了。书里面实际上大部分都是个人抒情，小女人的自怜自爱。可爱倒是可爱，但是实用性上，我觉得不如《求医不如求己》。实际上《31岁》这本书，为数不多的精华思想，都来自于这本《求医》。《求医》内容之丰富，逻辑之严谨，行文之流畅有趣，学识之渊博，阐述之客观，是这本书所不能及的。如果有《求医》，这本书，可以不用买了。
0,是拿原来一栋老楼改建的，装修很新，但房间内地面没有地毯，感觉冷冰冰。隔墙隔音很差，晚上被隔壁做爱的声音吵得没法睡。电视频道太少，只有5个。网络带宽太小，只能收发电邮，下载东西简直是做梦。价格还算便宜。
0,ＬＥＤ屏有亮点，而且是在屏幕中间偏右下方，开机就会看到它，很不舒服。
0,1、如果附送正版操作系统就好了； 2、如果内置摄像头及耳麦就更完美了，哪怕多花一百大洋也值啊。
0,我只想说，这本书是一个无耻之人的无耻自白。胡兰成这种人那时候有，现在也有。 贪婪混浊，自私无耻，还倍拿自个儿当根葱。
0,过于厚重，当然也可能是我预期的太轻了。发热量较大。另外莫名奇妙的是发票上的质保是“无”，介绍是1年。3包卡上是2年，严重不统一。
0,钢琴的底漆似乎惹手印和指纹，磨砂的表面应该会更好吧？呵呵，我只能贴全膜了，全副武装。
0,我很愤怒，这本书我4月23号收到邮件说上海寄出，今天了5月7号了，我还没见到书的影子，居然让我写评论……希望像在当当上买书的朋友慎重了
0,驱动不好找。自带的驱动盘很多用不上的东西。要是有联想那样一键安装驱动就太好了。
0,货没到就降价100，不过不送散热器了。。。 用了2000-100的券。。 就是屏不知道是什么牌子的，没听过的牌子， 08年第一季度生产的
0,整本书都是关于穴位的，至少对我而言没太大实用性，对喜欢穴位的朋友或许有用吧。
0,该酒店虽然名义上是五星，但我却没看过这么小气的酒店，我通过携程网预定了三千五百多的特级房，明明看到网上写得清清楚楚有赠送的饮料券每房不超过两张，可在登记入住时前台只给一张，真是郁闷！这不是纯粹虚假广告吗！！！我们是两人入住只给一张还不如不要给，前台解释说可以让另一个人买一张！！！简直是讹诈！！！
0,到货后，屏幕内有异物！！是异物！不是黑点！与dell报修说是要3周才可以更换或者找经销商，上门去京东总部售后，经过售后和dell确认情况后却要我自己和dell联系，京东不能更换。
0,我在3月24日订购了图书室内设计，可是你们给我寄来的却是景观设计。我与3月26日之后打了N个电话，要求退款，买次你们总是说可以，2个工作日给我办理，我等阿等啊，过了好几个2个工作日，盼星星，盼月亮，终于在4月1日，盼来了，可是是换，不是退。我于是又接着打电话，你们又说2个工作日，我又等了好几个2个工作日，依然没有消息，我只好投诉。很快接到一个电话，告诉我1个工作日给我确切时间退，说的真好啊。，没有一丝犹豫。可是这一个工作日又过去了，人呢，电话呢？你们逗我玩呢。就86.2元，至于让你们这样吗，不烦啊？
0,屏幕可视角度小 不知道是不是我的个体差异 只要没坐正 看的颜色就记得不对 特别是暗色
0,初读还好，感觉作者的例子写的不错，可是细细品味，简直就是垃圾，例子举的简直就是生拉硬套，庄子看到我想会从坟墓中跳出来自杀，简直就是小学生的写作水平。
0,书的印刷质量很差，有盗版书的感觉，很多页字迹模糊，看起来很费眼。书到了感觉很失望，找不到阅读的感觉。
0,"订购的时候看到网上就有评论说发错货,还担心了半天呢,结果收货时真的是错误的.退掉后从新订购,不知是不是还会发送错误呢,担心......"
0,发热是有点大，特别在玩游戏的时候，显卡有70多°C，不知道正常不正常！不玩游戏的时候50°C左右，还算可以！
0,"是我住过的所有旅馆里最差的一个.预订时说希望要无烟房,结果开了房门以后被烟味及各种体臭味搞得一夜未眠.旅馆可能根本没有无烟房,但携程竟然也没事先说一下算是失职.设施破旧,毛巾都是发黄的.床单及被套都旧旧的,搞不清有没有换洗.服务人员全是"
0,"订房时号称是海景房,结果入住是3楼,别说海景,就是旁边的绿博院也看不到.好在白天都不在酒店,也就不在意.但房间装饰除了大以外,跟一晚7/800的水平极不相称,号称5星,也就跟南京城市名人一个档次,相比南京的索福特银河,差距不小.另外,离开时拉了个手机充电器在房间,居然也不及时通知我,看来这个酒店在客人退房时是不查房的.最离谱的是一周后我想起来打电话去问,是还在,今天才拿回来,好在我本人就在深圳.晕!都不知道想办法打个电话告诉客人一声."
0,"我1月7日下的定单,昨天收到的货,却发现没有这本?31岁小美女的养顏经?.也没有说是缺货,不知怎么回事?"
0,"我认为这本书没有想象中的好,不能有效提高记忆效果.而且,很多词汇使用频率不高."
0,其他没什么，就是房价便宜。很老的星级宾馆了，愧对4星的标准了。 补充点评 2008年5月31日 ： 不过在安庆也就这家好一点，其他的要么很远，要么更差。
0,不像三星的酒店，根本就是一个2星的酒店啊
0,屏幕边缘咋那么宽 可以节省点 还可以减少重量。 用不多长时间 左侧键盘就很热 散热风也很热 都这样么？ 还是我这个有问题呢
0,VISTA系统可以凑合用着，office2007没激活的，换了2003的，键盘比较生硬！最大的诟病就是内置的摄像头了~简直就是垃圾！而且整机较别的品牌的要大一圈，便携性稍差！
0,经络是不存在的，无论你用显微镜看，还是X光照，都看不见。经络、穴位是中国古人在不能全面认识人体的情况下臆想出来的东西，而这本伪科学的书还在大卖，奉劝大家要三思。
0,非常糟糕的一个酒店，我是看了网上评论才会考虑入住这个酒店的。结果所有的都言过其实。 我住的是788的豪华单人间，入住之后，发现酒店房间非常不好，房间很小，而且毛巾，床单都显得很脏。有种不干净的感觉，晚上觉得有点冷，想跟酒店多要张被子。结果被告知如果多加被子要加钱。心理很不爽。于是决定第二天要check out. 早上check out的时候，告知说我把床单弄脏了（晚上睡觉有蚊子，抓痒的时候可能弄破了有点血迹在床单上，我还没跟你酒店索赔呢）。于是跟前台理论，然后把床单给我弄下来前台对质了。可能前台也觉得那些血迹不算什么，管我要钱说不过去，这事也就过去了。要是坚持要我给钱的话，我回跟前台吵得，实在不行，我会考虑报警。 然后把帐单给我，发现多收了5块，问怎么回事，说是城市建设费。 我不管有没有这个费用，但是一直在携城上订酒店就是多少钱就多少钱。有什么城市建设费，你要是收，可以。麻烦在和携城签约的时候把这个费用打到房费里面去。什么玩意。5块钱不算什么，但是让我感觉很不舒服。于是让他酒店拿出相关的规定给我看。结果所谓的大堂经理进去以后就再也没有出来了。还好有个上海朋友用上海话跟他们理论。不知道说什么，总之后来也没敢管我要这个钱了，后来朋友告诉我，前台说日本人很喜欢住这个酒店。 对不起，我不是日本人，日本人喜欢，那是别人的事，跟我没有关系，你要是喜欢日本人，麻烦你说明白，不接待中国人好了。 后来结账离开，有种逃出黑店的感觉。 不知道携城会不会管这个事情。但是，如果以后再有发生这种事情的话，会影响我对携城的印象。 总而言之，很烂的酒店。现在是淡季也敢要这个价格，真是穷疯了。可能这个酒店主要针对包月客户，其他散客逮住一个黑一个，建议大家不要去这个烂酒店。
0,我家宝宝3岁了，对于我订的这套书只看了几眼，不感兴趣呢。大概是书中的画显得太杂乱她不喜欢吧。
0,此书让人感觉很是恶心，我完全是头脑发热了才买回来的。她现在又弄起庄子来了，真的叫做“孔子很着急！庄子很生气”我感到很恶心！简直胡讲一通！让人无语评论！
0,太令人失望了。通过携程预定的，应含双早，可是，总台没给餐券，餐厅要收每人10元，才上餐。浴室的龙头坏的，头天入住报修后，到第二天退房也没人修。浴帘脏得看不出本来的颜色。太差劲了。
0,印刷倒是彩色版，可惜啊，形式远远大于内容，内容实在简单，在这里说明，我的英文水平一般般，趣味情差，没什么实用性，不建议大家购买。
0,这本书拿到后，感觉远没有广告上说的那样好，画面一般，远谈不上精美，内容也有些凌散，给小的孩子看引不起兴趣，给大的孩子看又觉得画太多了，总之有些失望．
0,我很遗憾。我是收到当当网的推荐书EMAIL而购买此书的。没想到里面充斥着广告和作者的自我标榜。我很遗憾没能看到我原本期待的作者一步步走来的真实经历，也遗憾于我欣赏的当当网会将这样的书作为推荐书带给读者。
0,屏幕清晰度低，为什么很不清楚？？？显卡驱动的问题，还是机子本身的问题？？？
0,1、自配2G内存，自己安，汗，拧不开螺丝啊 2、VISTA系统开机启动项太多，也不敢乱删，OFFEC只有60天，电脑上能用的瑞星，在笔记本里没法用 3、360软件每次开机都弹出来要允许才能使用，汗
0,从小说文字的角度来说，非常一般。它的成功也就是托了快餐文化和所谓成功学的福吧。
0,刚住过这里，感觉不好，房间味道太大，一股子霉味，房间各种设施都很陈旧，我所预订的大床间，却没有宽带，只能一个住在双人标间。因为去的时候较晚，所以有点饿，结果在房间找了半天，只找了一个空荡荡的摆设冰箱。这么老的酒店还不装修一下，估计不会有回头客。好的一点是环境不错，但在海南，像这种花园式的宾馆还是不少的，并不构成特色。如果有人到洋浦来，建议住在海景花园宾馆，四星级设计，在房间门口的走廊上就面向大海，整个是个花园式布局。如果要洗浴，可以打个三轮车去干充（音译），只有几公里的路程。价格也很公道，238元大床间。
0,不喜欢这个系统的人怎么办呢？而且能在送一些小赠品就更平衡了：）
0,就是这次的送货员态度有点不好，可能是因为忙吧，希望以后不管怎么，能好好说话
0,商品本身没什么问题，不过京东商城的配送服务要提高质量了，原本用EMS的，商城疏忽给我改成快递了。好在交易结束后退还了邮费。
0,定了这么久的书，没遇到这样的，舒适送给老人的，说是赠送全彩经脉图根本就没有。
0,这本书我是买来送给爸妈，听说很简单易学，所以给妈妈看，让他们了解一些基本的健身之道，这样我们在外面工作也会比较安心。妈妈正在学，听她说还不错。
0,高级大床房没看到一点高级的地方。床垫弹簧很明显的能感觉到，房间没有大顶灯只靠2个昏暗的床头灯照明，饮水壶和茶杯都放在卫生间里很是让人不舒服，茶杯里的茶垢也不知道是哪天留下的，浴巾很旧颜色看上去都不忍目睹，第二天退房时告诉我房间3个枕套及床单上有污物，和服务员一起重回房间他们拉开了房间的窗帘，这才看到枕套和床单上那些黑色的斑斑点点将我恶心到死。竟然说是我们弄的，晚上入住的时候没有顶灯根本看不清楚房间状况，白天这一看全是起鸡皮疙瘩，还说是我们弄脏的要赔偿，我反问他们你们收拾房间也看到了，我在房间里留下的垃圾中是否有能够造成这种污染的物品，他们也没法回答了。最后虽然是没有让我赔偿，但是还是说是我们弄脏的让人气愤不已。以后不会选择汉庭入住了。 宾馆反馈 2008年5月30日 ： 首先非常感谢客人的入住，对于在我店不愉快的经历，我深表歉意！说明一下：一根弹簧的床垫一直是我们汉庭酒店的特色，已得到很多客人的肯定，但是每位客人的需求不一样，希望客人能理解。房间的灯光我们也是特别设计的，为的是能给客人提供一个温馨的睡眠环境，这个不用再做说明了。至于客人反映的三个枕套和床单是有污渍，经我酒店查实污渍是很明显的头发挑染的红色掉色。在这里我也不想多做解释是谁的责任。考虑到客人的心理，在礼貌提出赔偿未果的情况下，我店做了报废处理。我们的宗旨：服务第一！希望客人做出客观评价，也希望更多地客人对我店监督指导。谢谢！
0,"我们住的是13楼,不过因为是延马路,所以到了晚上还是有很吵的声音,隔音不太好,房间内的设施很旧,有可能是年代久远的缘故,都不及如家,莫泰168....性价比很差 另外还有"
0,外观较保守；重量不轻；摄像头效果极差，形同虚设；发热量较大，夏季必须配合散热器用。
0,尽管近来酒店的价格上涨了许多，但因离电视台较近，已经住过许多次。而最近这次酒店的做法非常令人气愤。7月25日我因是下午3点的飞机去上海，中午在房间休息没有注意到时间下楼结账时是1点钟，前台服务员非常不客气地讲因为系统是自动计算的我这天的房间是按照1.5天结算。无论怎样说明都无济于事。更加令人气愤的是结帐后饭店帮我叫出租车去机场，司机根本不打表硬要120元才去。明明去机场最多不过80元。这样的酒店服务连2星都不如！！！！！
0,1、只有一个指示灯，有时没办法分辨机器的工作状态。2、Dell比较小气，连个内胆包都不送，还得配个内胆包。
0,光盘发现有裂痕，无法使用，已联系当当客服中心申请换货，应该是14号连同书一起寄回当当客户部的，但到现在还没消息，请当当确认尽快发货
0,酒店确实是旧了，房间家具有些都不能用了，连床头灯都坏了，毛巾也感觉脏脏的，房间的隔音效果也特别差，隔壁房间的说话声听得清清楚楚。服务一般，态度不是很好，早餐品种少得可怜。要不是因为离机场非常近，实在是没有优点啊。
0,"较难安装操作系统xp,有些驱动还没找到，不知是不是驱动的原因声音较差。最好也安装系统，给足各种驱动。"
0,键盘感觉不太爽，可能用用就习惯成自然了吧。看图以为触摸板是多点触控的，其实不是的，请各位注意了。散热我觉得做的一般，可能是出风口太小吧。
0,"你们的服务电话，什么时候才能打通啊，服务也太差了。我从9点一直到到现在10：34一直都是占线。我在你们那买的DVD，一共10张，有5张都没声音。我要求换货。请客服及时联系我。174208675是我的订单编号。由于工作忙，一直没来得及看DVD,现在才发现，大部分是坏的。"
0,电池不耐用，在纯DOS下、不执行任何程序、合上屏幕（屏幕不显示），满电待机都不超过1小时。
0,第一台到手硬盘和屏幕就是坏的，质量不稳定，不知是华硕的问题还是物流的问题？！
0,"综述:见过差的四星酒店,没见过这么差的准四星酒店. 详细描述:1,基础设施问题:酒店承诺可以宽带上网,但房间经过更换,才可以使用.房间设施比较简陋.和四形标准有一定差距.具体表现在:家具陈旧,没有必要的办公用具.床具不是一般的硬,而且有明显的污渍. 2,服务态度问题.到达酒店时,门童没有服务意识,不仅不帮助客人拿行李,而且开门的意识都没有.总机接线员不仅不使用双语,而且连基本的礼貌用语都没有. 3,安全保卫方面问题:酒店防火安全意识不够高.首先,酒店房间内的插座和电源按键安装不稳定,部分地方有明显松动的状况.其次,在酒店3--4层的安全出口的过道内铺设了地毯,根据消防法的内容,酒店安全出口的过道内是不能铺设地毯的.保安并不尽职. 4,餐饮问题.酒店早餐没有水果,这是我以前住酒店从没遇到的.没有就没有吧,但是,酒店独出心裁,把塑料水果放在餐台上,不知酒店是考察客人的智商还是工作人员失误. 以上就是入住此酒店的感受,但此酒店不是一无适处,酒店门口有轻轨,交通还算便利,距机场较近,前台的一位接待人员和电脑工程师值得表扬. 如果你不追求享受,如果你可以忍受没有网络的日子,如果你可以对酒店服务质量不做更高要求,如果你可以保证你入住其间,酒店不会发生火灾.我推荐您入住此酒店."
0,"地点偏僻,比较难找到.出租车司机都不知道这个酒店的.早上的自主餐没有什么东西的,用餐环境就在一个走廊上,环境比较差.一张地图要10元钱."
0,价格比同配置其他牌子电脑贵些。 装XP比较困难，因为SATA盘芯片驱动比较怪。
0,"刚买来时,一建恢复不能用,分区后启动不正常.还好,现在都搞定,给新用户应该提供一个指导性文件就好.多配一个鼠标多分两个区就好"
0,"以后再也不去住这个酒店了，从来没住过这么差的酒店，还是挂五星的！！！！！ 维景以前是希尔顿酒店，后来才改名的，最早刚开幕时去住过几次，感觉还可以，但后来去南京就一直住金鹰了（房价和维景也差不多，毕竟都是五星级的），因为金鹰在新街口，逛街吃东西都方便，但由于现在南京的中山东路在修地铁外地车不能进，去金鹰的话要绕道珠江路一圈才能到，这次就懒得开车进市区，订了维景，一下沪宁高速就可以把车停着了，经过这次的经验，以后还是宁可多开点车去金鹰了。 1. 预定的时候要求“务必安排大床房“，携程也回复短信确认了，但到了前台一问是双床房，也问了前台说预定的时候不是说明“务必”要安排大床房的吗？！前台回复：”我们确认的时候没有这样确认的，而且现在大床房也没有了“，算了，办正事要紧，就入住吧，也懒得去和她理论和打电话去携程问是怎么一回事了。 2. 晚上我朋友打电话去找我，总机说房间客人姓名不对不能转，我朋友以为我说错房号了，打电话来问我，我说房号没错，他又打了一次还是说客人姓名不对不能转，连打了四五次，总机才把电话转过来！！！！！！ 3. 入住期间喝了一瓶可乐和一瓶雪碧，结转时34.50，这是黑店啊，不过这没办法，人家是明码标价写在纸上的，只能怪自己不长眼了！！！ 4.什么都搞定了，去开车回家了，到了停车场（是露天的，就在酒店门口三四十米处吧），20块钱！！！问收费员说停车卷上面的免费停车处不是请前台盖章了吗还要收钱吗？！原来是过夜的话还要交20块钱的（停车卷背面那一整面密密麻麻的写了，是收费员跟我说的，我也懒得去看了），真TMD的奇怪，住酒店不过夜还住个屁啊？！五星级的酒店宽带要收费是稀松平常，但住宿停车要给钱的倒还是第一次碰见的！！！！ 总之以后是不会再去住维景了，金鹰，金陵，喜来登，甚至四星的中心大酒店不管是硬件或服务我觉得都比维景好。 补充点评 2008年1月24日 ： 唯一让我满意的就是门口的门童，我出门吃饭的时候，他很亲切的帮我叫车，还跟我解释说由于现在是下班时间又是出租车交接班，麻烦我稍等一下！！！ 宾馆反馈 2008年4月14日 ： 非常感谢客户对我酒店的反馈.针对酒店停车收费事宜,我们将给予携程客户特别优惠,凡通过携预订并入住酒店的客户,凭酒店停车卡,在前台盖取免费停车章,可直接享受免费停车服务.谢谢!"
0,装系统比较麻烦 还好有许多网友的经验才顺利完成 希望京东能提供驱动碟不用我们自己去下载
0,"大厅雄伟, 但前台和房间太小、(走廊太长)房间分布太散，找同伴很累。如果能将宾馆分为2个馆,前台也分开,应该会有所改善。 另外,与宾馆无关,长春出租车司机太坏了,表面热情背后狠斩,每次出差去都会遇到不愉快,投诉后也没有下文。这次从火车站去省宾馆只有6元的路程,结果被兜拉了45分钟。太损害长春形象了! 今后如果没有重要的商务活动, 我个人是绝不会再去长春的。希望长春市政府机关能尽快地严厉地进行整顿!!!"
0,"从未住过的这么差的5星级酒店,一家人开车去玩,8月8日通过携程要了三间景观房,其中一间打开房门居然里面已住了客人,5星级酒店出现钥匙牌搞错这种情况真是闻所未闻.换房后晚上在酒店的""亭下""厅吃饭居然在汤圆里吃到了一大块塑料纸,找服务员后同意退了.回房后1221房的钥匙牌居然又打不开房门了(刚进去时可以打开),叫来服务员打开后,房间电话又是坏的,再叫来服务员维修,住进去短短的二个小时时间,碰到了4个倒霉的情况,本来在这特殊的日子里好好看奥运开幕式的心情已全无了,实在让人扫兴.第二天一早好好看了一下房间,发现床头灯罩上满是灰尘,很呕心,这种5星级酒店真是连3星都不如,真是太差太差了."
0,6芯电池太重了了。。虽然续航时间长，但是未必所有的用户都会需要这么长时间，可以考虑提供3芯和6芯的一个选择
0,杜拉拉升职记，太不现实了。那种职场环境简直就是乌托邦，有，但是太少了。对于大多数人来讲，参考意义太小了。
0,因为有批露，他们都是些冒牌的医学家，让我感到很失望，本来想好好学点什么可以自己用，没有想到买完了却发现是假的，也不想退了，但想想还是希望那么无良的作者或是出版社少干点这些缺德事
0,很喜欢这本书，但感觉舒适盗版的让我很伤心，那个印刷一看就是假的，不知道当当也会卖假书
0,开封时很担心会有亮点 服务员告诉我产品有问题拒签字也没什么用，郁闷了一把（先交费，后验货）还好机子没问题，很完美。不过我不清楚如果屏上当时出现亮点会怎么处理？你们一定要问清楚了，我幸运不代表你们都幸运
0,太吵闹。服务不好。房间隔音不好。总之很不好。以后不会住了。。55555555
0,总之一句话，感觉比半年前住的时候糟糕很多，住的豪华商务单间，首先是酒店没收到携程的定单，在前台扯了半天，然后房间的墙壁有裂缝的，门锁是坏的（打到房务中心还没人管），床凳是脏的，去餐厅吃饭介绍的特色菜（如千张包）都是没有的，买单签个房帐要等20分钟的，唉怎么说的，真不知道怎么差别那么大！
0,"看到网上的热评终于忍不住买来一看,什么东西吗,完全一副显摆样老实说历史确实应该可以写的好看但似乎不该是这个样子吧,反正我除了看见一些新鲜词汇完全没觉得好看好玩明明惊险曲折的战争场面被他描述的寡淡无味人物性格不是通过冲突体现出来的而是硬生生,死板板下定义得出来的总之,不好看,没水平,没意义"
0,我是五年学中医的，患者初衷也许是好的，但内容上很多方剂都用错，比如补中益气汤，怎么还有这么多人看
0,风扇声音很大（尤其是开机和重装时难以想象的大，）；Linux系统换window 很麻烦； 花费很多功夫。
0,开始看前人的评价挺好就买了，但是看过之后觉得没有想象的好。里面内容我看了后就像那种和别人说话夹杂着英语单词的感觉。中文之中，杂着零星的英语单词让我感觉不是很好。觉得对我没有太大的帮助。只是个人见解。
0,贵公司14号发出，为什么到今天还没收到呢？今天已经是26号了.12天了，还没收到书。
0,如果要求较高，就不要住这里。--经济房很小，床较硬，夜晚有锅炉声音的干扰。标准间较大，但墙面陈旧，地毯斑驳，卫生间简陋，洗完淋浴后水流四处，下一个人可以直接洗盆池了。前台不负责任，没有保留预订的房间，携程与之交涉后，才勉强换房。总体态度冷淡。房间外部环境不错，但问题是，若是来旅游，你有多少时间来享受它的乌语花香呢？ 补充点评 2008年8月1日 ： 从酒店出去打车有好一段路要走，交通不算太方便。
0,"为什么玩魔兽争霸有的时候会卡?完流行蝴蝶剑直接显示不出来,甚至黑屏.512的显卡还这么垃圾?"
0,vista配合2G的内存，速度还是有点跟不上，但是还在可接受范围，其他暂时还没发现有问题。。。
0,装XP系统超超超级麻烦，两个人弄了一个下午和晚上。要是没有LINUX系统就超容易，死LINUX系统搞的我半死。。
0,这几天旅行中也在看《杜拉拉升职记》，的确是值得推荐的职场读物。虽然是虚拟的，但很多skill是可以在实际生活中运用，既是不完全运用，也可以做参考和借鉴。看完之后，觉得比较受用。
0,1、驱动不好装。 2、快递公司超烂。 3、货没到手就降价了，客服说货物出仓就不能保价了，货到付款的拿到货时可以申请保价（一点都不合理，JD不支持所有地方货到付款，吃亏）
0,字有点小，键盘白色部位做工没有黑色屏幕那里好，触摸键太灵一不小心就碰到，散热一般，玩了四个小时极品比较烫-。-！
0,本来心理是我很感兴趣的范畴，最初看毕淑敏的几本书都还不错，就买了上下两本。结果好不容易看完了，觉得特别特别没意思。想悬念一下没成功，想扫盲一下没成功，想讲个故事也索然无趣。什么收获都没有，太失望了！！！
0,XP安装比较麻烦，关键是一定要找一张带ICH9的XP安装盘。按照网上说的方法安装后，未发现声卡问题。
0,很一般啊，没有想象中的好，内容有些肤浅，没什么特别的，特别是关于中医养生的部分，有点失望，不过版面印刷质量还是可以的，文字大小看起来也很舒服，仅此而已！
0,外观有点难看，估计是模具的关系吧，还有塑料的外壳感觉很低档，应该是设计的不美观
0,本本的发热量大，而且重，如果轻些就好了 再就是东西拿到时，为了装XP系统把人磨死了
0,客房环境级差，房间里时常可以看见“小强”，新铺的床单上由占整个面积3分之2的不知道是什么液体留下的印记，还夹杂着3、4个黑鞋印，恶心之极。卫生间所有的下水都很慢，在浴缸里冲澡每5、6分钟得听一小会儿，要不就水淹七军了，毛巾都是灰色的，实在是差劲。建议想入住德请慎重考虑。
0,"没有驱动及系统安装光盘,对今后的使用带来一定不便,最让人感到气愤的是,居然整个硬盘就1个分区,厂家的这种做法也未免太懒惰太不负责任了!"
0,评论这么热，以为这是好书，结果可以说就是本闲书，没什么内容，空空的，泛泛的……百花了我的银子！想了解中医不能看这种书！啥也没写！
0,酒店看起来设施都比较陈旧，房间里居然没有中控，非常不方便。热水到还不错。前台态度一般.
0,我怎么找不到穴位，总觉得书中有点吹牛，尤其是前言摆出师祖师父的吓唬人，像武林高人似的
0,"标准大床间,面积较小.宽带每天20元(其他连锁店一般免费).床垫上只有很薄的床单有很硌的感觉.服务生年龄一般都很大,老油条服务,较差.步行到世纪公园站约5分钟. 如果参观上海新展览中心而入住该店,性价比刚刚及格."
0,雷声大雨点小，想给小孩买些好书，发现这本评价好，结果发现垃圾，根本不是那么回事，6角钱一页，绝对的不值！
0,浪费我时间。第一，所选题材不实用。第二，词汇该专业的不专业，该通俗的却假装深沉。感觉现在的中国外语教育就是随便几个老外包装几下就都成了专家，比起大学时候用的商务英语教材差多了。
0,书还是新的，读不下去。主角是女性，工作环境是跨国公司，没点共鸣~实在看不下去~也许是好书~也许是大家太捧~不喜欢~
0,1. 电池待机时间只有两小时。 2. 系统LINUX太烂。 3. 重装XP后， 需要相关的装机软件在HP网站上面不太好找， 按照网上说明安装也不是很对， 东搞西搞花了近四小时。
0,这位姐姐对这本书几近痴迷。我不好这一口，没有耐心看它。纯粹表扬一下这次送书的效率和质量。起码书的品相不错，好过我前两次购书。希望以后能保持。
0,书内都是大实话，平时生活中可能大家都知道，但切实实行的很少罢了。书不过做了些归纳、总结，看不出新意。整本书我只翻了1分钟。
0,"地方真是偏,连出租车司机都找了N久啊 房间到是很大啊 里面的设施台陈旧了啊 一住进去就有骚扰电话跟踪而来,真是强啊! 免费注册 网站导航 宾馆索引 服务说明 关于携程 诚聘英才 代理合作 广告业务 联系我们 Copyright1999-2008, ctrip.com. al"
0,处理器配置不高，能再高点更完美；硬盘分区不合理，居然就一个区，还得自己下软件分区，麻烦；屏幕有点大，电脑有点重，女生携带吃力
0,装系统时，要长按F2进入主版，这个提示机器上不显示，到网上查到的，默认硬盘分区有好几个，还有一个显示为bos，后来才反应过来要把所有的分区都删掉，重新格式化，装上的xp才能读到，不然老是显示都不到。
0,是我买了后悔的几本书之一，太贵，内容也不像其他人评论的那么好。就看孩子喜不喜欢看了
0,热了一些，一定要装power4 gear，一般待机情况下cpu达到56度以上，一个快捷按钮塌了半边，进BIOS设置时手靠近左边麦克风孔会发出很大的啸叫声，很奇怪的故障
0,电池续航时间好像没有达到宣传的9.5小时，跟联想s10比，外形稍稍大一些重一些。
0,触摸板附近较热，明显没有联想K41A散热好，K41A只是有点温温的而已
0,电池差了点，只能用一个半小时，做工比较粗糙，不过想想就这点钱，也不能要求太高。还有就是京东发货太慢~~~~~~打好包都放在那4天才给我发货，结果从下单到收货用了9天！
0,号称平遥最高级的四星酒店，实际只是二星半的硬件，二十年前国营招待所的服务，差极了。可能因为住客少，房间长期空关，酒店西翼的房间一股霉味，厕所还泛出阵阵臭气。建议坚持要求酒店东翼房间。 - 酒店不收信用卡，只收现金。住客在餐厅消费不能签单，必须付现金。 - 酒店提供的洗发波/浴液质量低劣。卫生纸污迹霉斑。强烈推荐自带洗发水、卫生纸，以免飞来横祸。 - 酒店床上用品“一客一换”，住客不离店不换床单。 - 早餐极差，基本吃素。 - 行李生推荐包车服务疯狂宰客。去王家大院包车半天（夏利）来回竟要价400元。我出门上街拦车，才200元（高速通行费来回30元另计），还是桑塔纳2000。 不过据说平遥其他的酒店更可怕。打算住在平遥，丽泽苑是无可奈何的选择。
0,5。1。---5。3。入住一直没敢在房间洗澡。太冷。房间太陈旧。设施太差。房间里提供桶装水还单收费
0,第一，sis主板不支持双通道 只支持667的内存，800的降频使用，偶买了条2g 金士顿ddr2 800内存 经常出现蓝屏现象，明天去换条现代的试试
0,书买了很长时间，但是一直都没有读过，偶尔读一段发现根本没有读下去的毅力，可能是我对明史还是有一定的理解，我无法认同作者运用网络化、通俗化的语言来对明史的解读。尤其是今天早晨看到CCTV对当年明月的专访。我想主持人对此也存保留意见。
0,偶尔会死机，，不知是系统问题，，还是机器问题，，还在密切观察中.....
0,怎么书的质量这么差啊！！！封皮很薄 而且里面的切割还有碎末 一点也不整齐 是不是盗版的啊！！！！！
0,用了2周下来，觉得带来带去还是太重，3斤也是实打实的分量啊，屏幕是lcd的，看多了很累的
0,"设施陈旧不堪,又小!灯光昏暗!早餐还可以! 补充点评 2008年6月5日 ： 另外健身房早就没有了,希望携程信息应及时更新"
0,性能一般 电源线太粗，和机身相比有点不配。 价格有点贵、不过三星的东东一向比别家贵
0,重装XP，但有些功能就无法实现了，要是直接上XP系统就好了；机器看着小，但重量有点沉；散热还是略烫；独显还是弱了点，但130M的机器就要贵很多
0,我住的是6号房，无窗，像住地下室；而且因此酒店地处繁华地段经营业务也很多，电梯里遇见的人很杂！总的来说住宿环境很不舒服！房价在携程预定也没有得到任何优惠，不预定直接入住也一样是那个价格，其他房间的环境不知道，不好乱说。但建议，大家一定要问清楚。自己的要求。省得后悔！
0,内存偏小，只能改装XP系统，花了我好几天的时间，还好现在搞定了，所有的硬件和功能键都正常使用中，不足的是在XP系统下，集成显卡和独立显卡不能转换，只能在BIOS里面设定，重新开机才转换过来。
0,语言空洞，情节太离谱，没有感觉到震撼，只觉得这个人太倒霉了，也没有什么可以发掘的内涵，觉得整本书写得精彩点的部分的可能就是序了
0,1、这本书的印刷有问题，有几页的印花了，根本不能给小孩看，会伤小孩眼睛的2、内容也不怎么样，非常不好给小孩讲，思路很乱3、还有一本会读的单词书，非常不实用总之，这本书很不行，建议大家不要看推荐，多看评论，这才是真的
0,"电池只能用5个小时!摄像头在晚上基本上不能用,太暗了!除非有大灯照着自己 ,散??差"
0,头一天订的是标间（大床）房，结果大床不大，两个人太拥挤，房间也太小。最不能容忍的是马桶居然和淋浴在一起，高的湿乎乎的，很不方便。第二天换了一间双床标间，房间倒是宽敞了许多，没想到的是楼下歌厅唱歌没完，搞到12点睡不着觉，这样的宾馆谁还敢住？
0,后悔买了一套，叙述得象流水帐，没有亮点，如果想看的话在网上看就行了，收藏简直没有必要。
0,在胡同里，不过还算好找。房价便宜，酒店设施简单，但还比较干净，离北京火车站很近，步行都可以。出胡同口就有小吃店，如果要离火车站近，可以选这。 补充点评 2008年4月21日 ： 之前给的点评错误，因为看错宾馆名字。北京东方和平宾馆这家酒店给我感觉不好，虽然地段好，就靠王府井大街，但退房速度慢，房间隔音不好，有味道，看上去不干净。下次不会去了。
0,完全配不上“引起第三国潮流”这几个字 就没见过作者这样写作的 感觉作者创作时思维混乱 经常蹦出一些莫名其妙的字词 让人感觉不知所云 对于角色感情的描写不到位 过度太快 性格混乱
0,没啥不好的！就是送来的时候，包装箱有点小破损，而且封条也破了一点，但仔细检查之后发现没有被打开过，让人虚惊一场！建议以后送货时，送货员要多加小心！
0,"大虾们帮帮忙了. 刚买,今天进行分区,想增加E盘,操作错误,结果连原来144G的D盘都不见了,现在只有1个C盘,怎么恢复呀?"
0,"跌价好快啊 触摸板附近较热 系统安装费了很大的事,预装V或者XP多好啊"
0,"这个是我住国全国最差的所谓四星标准建的宾馆.房间小的可怜,可以说让人无法转身.看上去最多也只有三星级.服务员结帐速度超慢,我等侯了半小时,最后还问了一句话,超过了4分钟(等到我的时候时12:04)是不是要加收半天的房费.希望携程不要把这种酒店再列为推荐酒店.说句时候,房间的情况和总总台那里的汇报一下"
0,没有送VISTA光盘，以后怎么装系统？还有屏幕没有锁扣，感觉不安全！
