label,content
1,选择珠江花园的原因就是方便，有电动扶梯直接到达海边，周围餐馆、食廊、商场、超市、摊位一应俱全。酒店装修一般，但还算整洁。 泳池在大堂的屋顶，因此很小，不过女儿倒是喜欢。 包的早餐是西式的，还算丰富。 服务吗，一般
1,15.4寸笔记本的键盘确实爽，基本跟台式机差不多了，蛮喜欢数字小键盘，输数字特方便，样子也很美观，做工也相当不错
1,"今天才知道这书还有第6卷,真有点郁闷:为什么同一套书有两种版本呢?当当网是不是该跟出版社商量商量,单独出个第6卷,让我们的孩子不会有所遗憾。"
1,"地理位置佳，在市中心。酒店服务好、早餐品种丰富。我住的商务数码房电脑宽带速度满意,房间还算干净，离湖南路小吃街近。"
1,5.1期间在这住的，位置还可以，在市委市政府附近，要去商业区和步行街得打车，屋里有蚊子，虽然空间挺大，晚上熄灯后把窗帘拉上简直是伸手不见五指，很适合睡觉，但是会被该死的蚊子吵醒！打死了两只，第二天早上还是发现又没打死的，卫生间挺大，但是设备很老旧。
1,还不错，设施稍微有点旧但是可以接收，但是606的价格还不含早餐有点高了。楼下的商场和超市很方便。下次来还会选择这家。
1,轻便，方便携带，性能也不错，能满足平时的工作需要，对出差人员来说非常不错
1,"入住的是度假区的豪华海景房,前台给了5楼(最高6楼),然后差不多100%的海景,虽然是挂牌5星的,但是本人觉得是4星的标准,和我后来入住的5星喜来登差了蛮多的,不过整体来说还是符合他家的价钱的."
1,"这是我第1次给全五星哦^_^超级快!这是最快收到书的一次了.我是中午的时候订的,结果第2天上午就收到了,算了一下,1天的时间都还没到呢!在此,感激下当当的服务...我的确是很急需这本书呢.关于书的本身,也很不错.内容还是很丰富的,值得推荐,对于训练和培养逻辑思维套式有一定的帮助,推荐一下~还有祝朋友们都面试成功,哈哈哈~"
1,漂亮（老婆认为的），性价比高。电池很棒，能用4～6个小时，兼容性还行，拿到手直接重装了WIN7，基本不需要任何驱动，除了快捷键。
1,非常不错，服务很好，位于市中心区，交通方便，不过价格也高！
1,"两岁的儿子特别喜欢车,尤其是火车，于是在朋友推荐下我买了一套。没想到孩子特别喜欢，尤其是第一本《轱辘轱辘转》，天天睡觉前都要把书抱到床上看。他会不停的问我“这是什么车？”，“这是什么车？”。现在已经把第一本书都翻烂了。走在路上，看到车时，他会非常兴奋的告诉我“妈妈，水泥搅拌车！”。书中各种各样的车，给了孩子很多想像的空间，而且这是我第一次在当当上买书就非常的成功，不错，下次还来。"
1,是一个朋友送给我的，如今我又在把它推荐给其他朋友。是它为我打开了一扇门，通向图画书的宫殿的门。就连我这个所谓的教育工作者也要感叹自己的无知。感谢作者告诉了我们世界上有这么多的好的图画书。我给晓晓买的图画书都是这样按图索骥买来的，本本都让她爱不释手！当然了，现在还发现了它另外一个妙用：省钱。哈哈，试想，把那里面的书都买下来要多少钱啊？嘿嘿，我不做傻瓜。就这样讲故事，也不错。
1,拿回家的那天，我女儿第一时间要我给她讲完6本故事！累死我了。因为有第一套“神奇校车”，小家伙都很喜欢。但是，我个人认为，这一套没有第一套好看，人物画得和第一套有点差别，有时候故事衔接不上，感觉不是正版或不是一个时间翻译出来的版本一样。总之没有第一套好看，对于5岁的孩子来说，内容有点深了，不够第一套吸引人。但是总体来说还是很好的，也许放到大一点再读是不是不一样呢？
1,acer的品质、服务都很不错，而且本品很超值。样子也算漂亮，基本性能只要不玩大游戏全能应付。
1,桐华的书貌似我都看过了，都好喜欢，而且都那么紧张，让人沉沦，每次看了都不想放下，这次也是，3本书几个晚上就看完了，都熬到12点多实在不行，早上要早起上班，只能睡觉。情节很吸引，云歌我不知道这样算不算一个好结局，但是在我看来这个结局还是挺完美的。虽然不是大团圆，至少很符合人的心理！对于刘弗陵和云歌的爱情，中间还让我哭几次，可怜的人（但无可恨）……喜欢~值得一看
1,我住的是特色标间，所谓特色，是有些类似家的感觉。寝具不是单调的白色，是条纹和大格子的，感觉很温馨。圈儿椅的靠垫是卡通的加菲猫头，明黄的颜色有点扎眼，和周围配在一起感觉有点不协调。 客房硬件评价3.5分。加湿器、烫衣板、电熨斗、吹风机、小冰箱等俱全。缺点：液晶电视固定在墙上，位置不好。一是遮挡了一个电源插座；二是与桌子搭配不当。桌子（与冰箱柜一体）在电视下方，如果坐在桌子旁上网或工作学习，正好挡住了电视屏幕。错开坐，正好是冰箱柜，腿脚伸不开。
1,"我是法语初学者,学了78个课时的初级班.因为我是老年人,法语又难,我只有再从头自学巩固一遍,然后准备报中级班.我们学的教材是孙辉老师的.买本练习答案对自学和检查做习题的正确性是非常必要的.而且孙辉老师的教材在网上还有视频,对我们学习法语有很大的帮助.孙辉老师的教材编写得很好,我向学法语的朋友推荐.我想学好了上下册,再结合(走遍法国)的阅读和学习,会达到我们预期的愿望.这仅只是个人看法,"
1,"房间较小,但挺干凈,另外空调噪声较大,晚上睡觉还是有点吵. 早餐是自助餐,挺丰富! 总体感觉不错!"
1,这家YMCA非常好，还主动帮我们升级房间，住起又棒又舒适，地点也很方便，服务又好，号称香港物美价优第一流的YMCA，值得大家推荐。
1,LED屏就是爽，基本硬件配置都很均衡，镜面考漆不错，小黑，我喜欢。
1,希望大家也能像我一样，每家酒店都能尝试的住一下，因为每个酒店都各有特色
1,还不错，可以住一下，并且建议你住高一点层次的房间
1,时时都在阅读着这篇令人太伤感的小说，我是那样的爱狗狗，也一直希望自己能养一只狗狗，也是天天观察着自己身边一些些可爱的狗，然而爸爸妈妈却因为家里的条件一直没有聊了我的心愿，当我看到了作者简介、文章简介，实在忍不住了，强烈要求父母给我买下它。狗狗这种伙伴，是给人开心、快乐和幸福的。而当我翻完此书的最后一页时，不禁有了非一般的伤感。同时，我敬佩作者与狗狗，并买下了金毛寻回犬……
1,我不是个偏激的人，所以我喜欢都各种各样的书。韩寒 和郭敬明的书我都回会去看，郭敬明写的东西比较的煽情，有时后觉得他写的东西让人很不能接受.......不过他的确是才华出众...可是韩寒写的东西却很有深度、内涵，他的书我会用心的去读很多边都不会觉得枯燥......《他的国》我正在看，觉得在文字上，他依然保持着他的风格....不过还是很喜欢。加油！我一定会一直喜欢你的作品的，所以韩寒你要加油写书咯！
1,酒店环境很好，商务中心很热情．免费接送机服务很好．房间设施尚可，但浴室条件稍差，没有吹风机，热水也要早７：３０时以后才有．而且总说线路繁忙不能刷卡，房费要付现金，不太理解．
1,"感觉非常奇怪,这套书我明明都写了两次评论了,可我的当当始终提醒我对这套书写评论!晕啊!这是套很好的书,也不用我写几次评论吧!"
1,买这个书实属意外，拿到书以后第一时间看完，意外地精彩。关于生活的琐碎，书里描写得是十分细微的。但并没有琐碎而使故事变得流俗，且作者笔调里的积极的那些东西十分地打动人。最喜欢邓佑真，一如她名字里的“真”字，她真是个十分讨喜的主角。画面感很好，大概是因为要电视剧化的缘故？总之，实在是太欢乐了，喝水吃东西时就不要看了……比较可惜的是，乔锐还是觉得着墨不够？小声说……
1,"我订的是高级淑女房(双床),房间还算干净整洁，服务也还可以。早餐的种类有点少，但味道还行。办理退房的速度很快。总的来说，我和同事住得比较满意。"
1,"今年去YZ的时候就选择在新世纪大酒店~ 4星,基本印象很不错~ 靠近瘦洗湖,个园,何园,只有十分钟左右的车程,附近有银行,报纸店,饭店,蛋糕店,茶餐厅,还有超市,应该说生活很便利~是旅游住宿的不错的选择 酒店装潢的还不错,我们去的时候免费升级到了23楼的房间.房间比较大,没有烟味和油烟味,感觉很好~ 每天都有房间清理,帮我们换上新的洗梳用品. 感觉很好~ 酒店备有插座转换器,自己过去就不用带了~ 有宽带,免费的哦:)~!~"
1,当时买这个本儿就是冲着它漂亮+电池，性能啥的小本儿也没什么追求 不过升级了2G内存+重装了vista之后感觉还是不错的 而且比较皮实，去电脑城看了其他品牌的上网本后，尽管这个当时贵一些，还是入手了
1,大床房还不错，其他的没有看过。位置很好。希望菜做得更好吃
1,1699元能拥有本本和包非常满意，装XP也比想象中顺利。外观漂亮有大厂风范，键盘舒服。
1,速度挺快，前一天晚上订货，第二天中午就到了；送货人员态度特别好，石景山区的； 现在在用，顶多是一般，如果买的话推荐联想那款； 缺点：外壳太光滑，很很容易有划痕！键盘太难用，我上个是华硕的，没得比！
1,"看到评价及书的介绍，我自已很喜欢。我买了三本，因为书很厚，文字很多。我担心女儿不喜欢，因为她喜欢图画书。我先拿了一本回家，打算睡前给孩子讲，结果上一年级的女儿,自已看到书后，便一发不可收拾。根本不用我讲。一口气看完一本书后.才松了一口气.还问我还有没有买其他几本.为书中最后一头战象而叹息.为被象群踩断脊骨布哈依难过.现在每天睡前都让我再给她讲一遍。直到她睡着为止。"
1,系统换XP后会更好用点。微软为什么一定要让生产商强制安装vista这种自以为很cool的大块头呢？如果能有包就更好了！
1,入住的是260元的迷你标准间。感觉比想象的要好很多，房间如果住一个人很合适的，洗手间很大，很干净。房间里床上用品质量很不错，整洁如新。房间窗户为玻璃幕墙，无法打开换气。 这是距离大连火车站最近的酒店。前台服务态度很好，很热情，业务熟练。就是退房的时候，查房比较慢，人多的时候，要多等几分钟。 总体感觉还是可以的，交通极为便利。
1,性价比不错，本本的外观手感以及性能都还不错，到底是大品牌的东西。 送货速度快，头天中午下单的，第二天下午就送到了。
1,第一感觉就是门童服务很到位，前台服务也面带微笑。 房间比较宽敞明亮，上网速度也很快。 很满意的一家酒店！
1,通过携程预定的行政双床房(且提前付清房费)~最后居然给我们父女两人一间大床房~还一再申明没有双床房了~在我的一再要求下~最后虽然还是提供了双床房~但是印象大打折扣~ 补充点评 2008年3月24日 ： 温泉~住店客人是98/位~小鱼池是46~另外收费的~
1,最近一直在看这本书，我觉得很好。当初只是想看看南怀瑾，但又没耐心去一本本地买，毕竟南怀瑾先生的书都是讲课的内容，比较罗嗦。于是就挑了这本集南怀瑾先生佛、道、儒各种见解的书，开始的时候确实冲着南怀瑾去的，但现在不是了。作者的见解很简洁很明了，让我很容易接受，并且我们看法一致。也许这不是一本让人可以看了又看的书，却是一本让人一见如故的书，这就够了。
1,在衢州能住到这样的酒店算是很不错了，房间液晶电视，窗口看出去是条小河，还送了水果，算是很不错的啦，就是周围环境一般，没什么可以逛的...
1,虽然是老酒店，设备倒是很齐备，价格也合理。 地点十分方便：旁边是大马路解放路，往南一直走就到车站，往北直走可到铁塔。酒店四周有难以计数的手机店，要缴通话费或买储值卡都很方便。 设备齐全：连220V转110V的转接插座都有。 自助早餐：是当地风味的中式餐点，内容丰富。 服务态度：前台、客房服务、餐厅等人员都很和善，主动尽力为旅客提出帮助。人员服务态度真可比五星级。 真要找出待改进的地方，就是浴室狭窄了点。
1,"读过一次卡莉,心中总会有记忆,佩服她作为女性,能有这么艰难的优秀的经历,困难磨炼人的意志,激励人的斗志,卡莉经历了好多困难,但每次她都可以迎刃而解,勇敢的面对,让我心中升起自信的旗帜,高高飘扬,在以后的日子里如果有困难,我要学习卡莉,动脑筋想好每一件事,做到最好,我最佩服是卡莉的口才,她可以说服每一个人,这是努力的结果,我们也可以做到,只是做的未必好,未必恰当,这本书激励我努力做的更好,更好....."
1,酒店的服务很热情，对于我们的客房要求总能及时回应。 地理位置不错，离中山北街很近，吃饭方便。
1,原以为Windows Vista 家庭普通版的软件很难用的，兼容性差，谁知一上手还是很好用，原来想装得东西都装上了，出乎意料之外。
1,不错，帮朋友选的，朋友比较满意，就是USB接口少了，而且全是在左边，图片有误
1,我一直使用ThinkPad，从最初的380D到T系列，再到最近公司配的X200，得心应手。本台机子是为老婆买的，老婆很喜欢。
1,酒店很大，服务太差，Ａ楼房间也老，下次再也不住了。环境很好，打高尔夫的或许可以忍忍吧。
1,"配置很好,按键敲得爽,完美屏,超满意啊!比电脑城便宜多了,很爽啊!!!"
1,原装正货，提货时，封贴什么都还没开的。因为第一次在京东购物，上门提货，看到货后，总算不担心品质问题。绝对是正品行货。 这次交易，特搞笑，25号晚上下单，26号上午再上来看下，既然发现有新促销返现100元，还好我是上门提货的，马上取消25号的单，重新又下了个单，省了100元。嘿嘿。
1,小巧玲珑，适合某些场合使用。至于网友说容易留指纹，确实是，但是擦一下就可以了。2990的价格确实低啊，性价比不错。至于重量，还ok吧，关键是电池重而已。
1,虽然案件发生的时代，离我们有点远，但是并不妨碍我们对真相的好奇完全没有时间错位的感觉，也没有阅读的凝滞感觉。只是细致入微的描写，有时候会让人觉得略显繁复，但是毕竟要交代细节这也是在所难免的吧，所以也就无所谓了。总体来说，还是很喜欢这部作品，构思精巧，无与伦比。无愧于黄金三大推理小说家的名头，还特地推荐其他朋友也来读读看，说不定和我一样会爱上推理的！
1,性能 外观 品牌完全满足刚入学的大学生上网 学习 玩游戏等等的一切需求 价格也不比台式机贵 京东又给开发票 替人代买东西还是有发票能说清楚也更放心
1,钢琴烤漆表面，很漂亮，外观大气。键盘与其他系列有所不同，配置很好，性能不错。还送杀毒软件，价格也不错。
1,纵然是再娇艳的花朵，作为和亲公主的皖雅，也逃脱不了所谓“贡物”的命运，绚烂一时的爱情，到头来终究抵不上江山一角。爱情，如此完美却又失落，皖雅的结局，苦涩却又实际地描绘了宫廷女子悲婉的一生。看尽世间无限遗憾，只因爱情如此脆弱。三个男人用不同的方式爱着这位花神，她本可换种选择使自己轻松，可她还是执着于她的爱，终究她的爱害了她，爱情总是这么威力无限！
1,"海景花园是我所有住过的５星酒店中服务最好的一家，另外他们的粤式餐厅非常地道，并且价格合理，如果去青岛还会再选它。 Fantastic 5 star hotel, good location and environment, with best service and very nice staff, strongly recommend. The Cantonese restaurant is one of the best, worth to try!!! 补充点评 2008年7月29日 ： &#32431;&#20013;&#26041;&#31649;&#29702;&#65292;&#38750;&#24120;&#26834;&#65281;"
1,这是个童话故事，虽然不现实但让人向往，人与人之间的感情就是说不清理还乱，所以太热心的对待你不是真心喜欢的人，就很容易造成不堪的局面；谁都不想做祝福别人成全别人，自己独自寂寞的那个人，可不想和无奈是相对的，所以主主们都是来来回回的伤害着自己，真是造孽啊。有时候我在想为什么人人都想被宠着，但又不能对每个人负责，这是叫做自私吗？这种被宠着的感觉就像毒药，会上瘾会伤身。所以幸福是什么？
1,不能说没有一点点问题，但酒店所有员工都在用一种非常的热情给每一个客人以尽可能的服务，所以，我愿意把最高的评价给这个酒店。
1,"我住过南京所有的五星酒店,选来选去还是这家(曾经的香格里拉).无论是硬件设施还是服务,都很无可挑剔...如果说缺点,就是房价很贵了,呵呵,但愿携程能谈下更优惠的房价啊."
1,无点完美LED屏、接口丰富（1394、HDMI、eSATA、红外、蓝牙……）、性能强劲（3DMark 06跑了7000多分，快赶上我的台式机了）、发热量小（跑完3DMark 06机子表面大部分地方都几乎不感觉到热）
1,优点：1 房间大，也很干净。 2 地点不错，去那里都很方便。 3 服务态度好。 缺点：还没有发现。
1,"CBD中心,周围没什么店铺,说5星有点勉强.不知道为什么卫生间没有电吹风"
1,"新装修的酒店, 房间很新很好的, 作为万豪的金卡会员, 充分享受金卡的待遇, 很好.早餐的品种不够丰富."
1,个人觉得配置属于中高端，CPU级别高，内存大，音响效果不错。 笔记本外观比较时尚，键盘制作较精良。 独立显卡，摄像头清晰，应该满足了 。
1,小时候很孤单的日子养过2次狗，2次的结果都是狗被大人们打死做成菜吃了，从此，我不能回想与狗相处的日子，我会收藏很多毛茸茸的小玩具狗。狗是人类的好朋友，狗懂人心，狗有人性，可惜，“人”不懂人心，“人”也没有人性了，买下《再见了，可鲁：》这本书，收藏起儿时的记忆。愿人的心都归回上帝为亚当造的《伊甸园》，恢复“人之初，性本善”，每个人都和动物成为好朋友，世界就没有战争。
1,外观看上去还不错，不过有人不太喜欢镜面的，我个人比较喜欢，总之还算满意。
1,许多下围棋的人都会有一个困惑，那就是害怕对手的力量强，趴在战斗中吃亏，以及如何增强自己的战斗力。我也是，一直希望自己的力量增大，希望战斗中下出手筋获得优势，乃至胜利。还是看看战斗至尊坂田先生的棋吧！从他鹰隼般的捕捉战机的嗅觉和快如剃刀般的手法中一定能找到你想要的。我很喜欢这套书，她也是坂田先生毕生著作的精华，值得你拥有！
1,酒店设施较一般，但被单毛巾洁白干净，服务热情。 可能酒店系早年建设，地下车库没有直达大堂通道，不甚方便。 饭菜很对嗜辣者，如能兼顾南来北往客，增加一些非辣的菜肴更好。另希望通过服务技能。
1,刚拿给女儿看这套书时，女儿以为又是让她学习的书，所以有些抵触，不想看。过了两天，我找一个女儿心情好的晚上和她一起躺在床上看。做过两本书上的练习之后，女儿全做对了，她一下子来了兴趣，说，这书好玩，我喜欢。就这样，我给女儿隔几天就做一下这套书上的练习，除了《简单的算术》那本她不喜欢也不会做（毕竟她才四岁），其余几本书她都喜欢看。有种成就感吧。
1,"看评论有的说书太小，不值;有的嫌大带起来不方便,个人量了下尺寸:书横宽14厘米，竖长16厘米，厚1.4厘米书的封面和内里排版都很喜欢,纸张效果感觉和美丽英文系列的一样,没办法，个人喜欢视觉效果， 呵呵看了两篇，冰心先生的翻译真的很棒像有位读者评论的，里面有错别字，这到是真的，如60篇,应该是?空?贝壳,但文章里是?宝?贝壳,不过不影响阅读,自己都能明白，估计是校对的不仔细"
1,对于次级债的解说，可以参考如下网站：http://abeautifulmind.blog.hexun.com/27697932_d.html
1,"性价比较高,HP的服务态度也可以,摄像头相素较高,一般为30万相素,这款有130相素,送的包是原装包,比较喜欢."
1,离火车站、长途汽车站很近，打车起价就到（五分钟内），楼下有24小时营业的麦当劳（点餐可免费送至房间），出大门往左便是平原商场，其对面是影剧院。
1,我们于17日下午从迪斯尼好莱坞酒店来到市区入住这家饭店，饭店在一个胡同里面，没来过的还真不见得能很方便的找到。办理的速度很快，态度也很好，大约5分钟就搞定。来到房间后让我们有点不适应，因为真的很小，尤其是刚住过迪斯尼好莱坞酒店，房间面积大约只有10平米左右，卫生间大约3平米，显得有点旧，但吹风机、浴衣都有。饭店的服务人员态度很好，向他们打听些事情他们都会仔细解答，并提供建议。 这家饭店的位置很好，距离地铁站和SOGO大约步行7分钟，距离时代广场大约步行15分钟，地处繁华地带，又闹中取静。出大门向左230米就是公车站，去各处非常方便，每人才2-4块钱。我们在市区呆了2天，充分享受了地理位置的优越。在香港我们没有乘坐过地铁，因为在熟悉周围环境后，我们觉得做地面交通更方便。我们去太平山看香港夜景时乘坐的就是有轨电车，不仅方便便宜，还能欣赏香港的街景。 19号走时订购了机场送机服务，每人70块，非常值。因为打车到机场要300快，坐地铁也要大约200块，而且不用自己拉着行李到处跑。大型豪华旅游车，宽大的皮座椅，车上一共才7个人，真是太爽了，推荐大家采用。
1,还不错，就是比较难找，因为长宁路太长了。 打车的话，司机一般也找不到，浪费了很多时间。
1,去年无意中帮朋友预定过一次这个酒店，后来朋友每次来都要我预定这个酒店，我自己住过一次，也觉得感觉还不错，出行也很方便。
1,外观设计的好，做工精美，京东快递速度也很迅速，特别是2699-100的价格简直无可挑剔！
1,马丁路德金的这个演讲一直是我最喜欢的，很振奋，他也是我最崇拜的人，他的声音时常给我带来力量和勇气。这本书有同样的魅力，看似神秘，但通过许多成功的人告诉我们，你该拥有一个梦想，这个梦想能够实现，这本书也会给你带来你需要的力量和勇气，你应该自信的面对自己的人生，乐观地追逐自己的梦想，快乐的生活着。千万不要错过这么一本堪称伟大的作品。只要你读懂他，你的幸福就不远了。
1,总体感觉还不错。房间很干净、简洁。 网上所披露的位于海河最美的一段，特意要了6层的房间，可是却没看到海河的影子……
1,拿到书的那天就开始练上了，纯粹是为了自己喜欢才买一本试试的，本来也没觉得有什么好，只是在每天坚持一页页练了一个周后，身边的人都说：丫头，写得有点样子了。心里一乐一琢磨，原来循序渐进是一种态度，坚持了，认真了，就有效果了。建议大家跟着书本的节奏走，不要贪后面的字漂亮就先划着先了，跑之前还是得学会走，是吧！当然，这是我一个初学者的建议。
1,"服务:整体勉强有4星级水平 问题:硬件水平偏低,房间隔音效果差,门薄墙薄,结账时间偏长,早餐质量偏低,不过在该地段,也没有比这家更好地宾馆供选择."
1,"朋友推荐的好书,夫妻就是相爱容易相处很难的,生活中的磕碰需要用相爱的心去平衡一下,夫妻相处之道讲的就是艺术,特别是妻子生活的智慧,结婚20多年了正需要调整一下,已没有新鲜已不会撒娇说话凶巴巴的,生活的磨砺使我成了强悍的主妇,叫别人如何宠你爱你?我看了还是收获不少的.真的要好好撒撒娇,真的要好好享受生活,要不我们辛辛苦苦创建的家庭只有拱手让给二奶了,为了家庭更是为了自己的幸福,学习中."
1,"京东最便宜的14寸本,塑料外壳,性价比高,T4200的CPU,G40的主板,DVD刻录,160G的硬盘,配置上真的很有性价比,现在主流的配置,好!"
1,最喜歡這部，雖然很是賺走了我的眼淚，發現自己越來越愛看這些悲情的，讓人揪心疼痛的文字，匪大的確是後媽來的，東子對佳期的愛是絕對獨一無二的，可是真愛的未必能在一起，記得那句“那時候年輕，什麼都沒有，可是有勇氣！”現在的自己已經是連勇氣都沒有了，只能看著這樣的小說慰籍自己，愛就是那麼不圓滿，要看得開放得下！難啊，難！
1,键盘设计得很不错，比14寸的还好用 几个快捷键是感应的，实用 小巧
1,房子还好，地理位置也还不错，但是不值得这样的价位。同样的水平，徐汇区的华亭宾馆才600多元，这里却要1000元。
1,以前在京东买过一个as5530的机器3999元。也是780g的主板，用起来还可以。这次给表妹挑机器，本来用不了什么独立显卡的，后来想象还是不错的，最起码看接等离子看高清不会卡了。这款机器就算价格便宜量又足了。 另外，这个机器没有摄像头（麦克风不知道有没有，机器拿到后忘了试了），可能许多朋友感到不舒服，对我来说正好。给读书的小妹妹用，本来就要限制她用QQ聊天，没了摄像头更是省的什么视频对话了。
1,房间比较干净舒适！松江商务型酒店比较少！这家酒店还可以！
1,今年第二次入住该酒店，这次和好友一起去HK购物，还是首选这间酒店，虽然，酒店离市区较远，但是，在尖沙嘴的半岛酒店那里有免费的班车（整点一趟）回酒店。酒店的房间很大，大约有二十几平方，我住了二次都是有无敌海景的房间，住入时选择靠游艇俱乐部这边的房间，都可以看到海，另外，六楼以下的房间还有一个露台，感觉非常好。酒店的早餐也非常丰富（值得一试），可以坐在露天的花园边上吃，吃完早餐去花园走走，感觉真的很好。出酒店不远的地方就是沙滩，酒店不远处也有7-11（24小时便利店），小超市（里面有新鲜的水果卖），还有一个吃东南亚菜的餐馆，名字不记得了。酒店唯一另人不太满意的地方就是房间内设施比较陈旧，不过洗手间是很不错的，有一个单独的沐浴间。如是你是一家去HK渡假，选这间酒店，一定错不了。
1,故事里的主角就和自己一样是个平凡的人，有自己的梦想但是也有自己的很多缺点，在不断的努力中一直在反思自己和自己所走的道路。不过我想在这个故事里主角无论什么时候都是很幸福的，不管是打工不顺利还是一个人走在街上感到寂寞孤独，但是至少每当拿起电话的时候都有来父母的问候，就感觉一直不孤单了。很有趣的书，不过是平静和小小的幽默的那样的。作者一如既往的那种风格。推荐。
1,基本的配置还可以，非常轻，现在每天来回去办公室，背在身上一点感觉都没有。如果不满意配置，可以自己买配件升级，花不了多少钱，自己动手也很简单，IBM的接口打开很方便。高配的机型卖价高，但是差价多买一套配件还有多的。换下来的配件也可以卖，或者留下来自用。我同时买了一个320G的硬盘和2G的内存，把原配硬盘换下来做移动硬盘，花的钱比高配的机型价格还要低几百块，手里还多了一个移动硬盘。
1,在可以返现的时候买到，总体来说速度也还可以，在这个价格上来说，很不错了。
1,这本书真的是挺实用的，里面的内容都很口语化，很地道。附带的光碟有录音，很纯正，存到MP3里，没事的时候经常拿出来听听，效果很不错，都是些日常生活中的简单却很实用的句子，话题也很广泛。总之，物有所值。而且，这本书是我在图书大厦看好了回来才在网上买的，事先在几家网站比较了一下，当当是最优惠的哦！呵呵，以后会继续光顾的。同时也希望当当再接再厉，努力做好服务，回馈顾客。
1,6月8日遗忘在3226房间的iPod和挂绳耳机已经收到，谢谢白云山庄！ 此次白云山庄的中餐厅美食、酒店的管理服务给我们留下了很好的印象，赞一个！
1,酒店住宿环境不错，前台服务很热情，房间可以看到长江和葛洲坝，就是卫生间的淋浴设施不太好用，总体而言还是不错的地方！
1,价钱还没搞明白，货到了就掉了100，这点确实有点汗， 不过东东还没得说，买来就换了XP用着没得说！ 上网本的选择！
1,代朋友买的，他非常喜欢，原来买的不小心掉在了公共汽车上，又买了一本
1,"价格偏高,服务一般.窗外风景ok.早餐还不错"
1,世界著名比较法学者大木雅夫之著作，该学者为德国比较法学者茨威格特之高足，曾留学德国，精通数种外文，对比较法学更是有自己深刻而独到之见解。作为东洋人，其思维成长之文化氛围与中国有些相似，因此研习此书对学习比较法的中国人来说，当有极大之裨益。可将此书与茨威格特氏之比较法总论对读，必可获益匪浅。
1,酒店离兰桂坊和soho美食区比较近。酒店门口有直达巴士到铜锣湾。在半山高尚地段算是性价比不错的酒店了。　
1,我们住的三人间，房间很宽敞，卫生间不大，但都很干净。宾馆餐厅很实惠，我们只要能回宾馆，就在餐厅用餐。周边交通非常方便，基本上一部车就到各个景点，走到什刹海等处也很近。最近宾馆在外部装修，不过不影响内部卫生和晚间休息。总体来说，我们住的都挺满意。
1,write it again:)这本书我儿子很喜欢故事情节不算复杂，但书很可爱，书中的小动物都很好玩，有自己的性格，乐趣，和职业，甚至有自己的想法，之间的关系也很真实，尤其是立体的图片，宝宝特别喜欢，特别喜欢，特别喜欢，特别喜欢，特别喜欢，特别喜欢，作为父母，我想也没什么特别的要求了，这就是好书了吧
1,另外说一句，书中的故事也适合给低段儿童朗读
1,t4200cpu不错，带摄像头，带dvd刻录，升级了内存。速度一流。带电池延包卡可以包1年。
1,很不错的酒店，我住的是商务间，上网速度非常快，下载达到2M/s，非常爽！还在酒店碰到老朋友...世界真是小！
1,名头特别响亮，不过设施可不怎么样，尤其是单人大床房，居然没有安静的房间。 入住后只好更换为双人间。
1,在你我都在被利益与物欲所迷惑的今天在拜金主义与千年儒学相互冲突的今天《狼图腾》的出现无疑是会引人深思的刚刚高中毕业的我或许还没有资格能去评论这个社会什么但当我的老师在给我推荐《狼图腾》时我在看过介绍后毫不犹豫的下了订书单刚看完一章似乎就有种激昂在血液里的某种莫名的想要去探寻作者意识的冲动此等好书无需太多的言语去形容它的美那也应该就是超越了常人般你我的文字
1,住的是680元一晚的标准间，我与老婆都住的很开心。我们这趟从兰州去嘉峪关再来到敦煌，只有这家的服务达到4、5星级酒店水平，很亲切，也很主动。从房间能看见鸣沙山，景观一流。餐厅食物一般。自助早餐是中式为主，比较一般。零点早餐（也已含）是在酒店的天台餐厅用餐，是西式为主，我们没时间享用，可能会好些，不过我们曾经在这餐厅的露天范围喝酒，晚上看着头顶亮的想去了大漠的星星，感觉非常不错。 酒店算是在郊区，但其实就离市区3公里，离夜市4-5公里而已，可是一般很少出租车经过。倒是有辆3路公交车在酒店门口有站，每5分钟一趟，10分钟就到市区，所以也不是很不方便。 补充点评 2008年8月8日 ： 上网速度就比较差，不过免费的，就没太多要求。
1,屏幕没有坏点和暗点，这个比较不错。配置性价比较高，目前使用已有半个月，基本正常。
1,货终于收到了 速度倒是很快 感觉质量还可以 就是图片有的颜色是白色背景的 我觉得还是彩色的好一些 要是再多给几个挂钩就好了 还有就是建议妈妈们不要将图片挂在卫生间附近 我就犯了个错 结果图片可能因为受潮 都变形了 原来以为是质量问题 后来看了没有挂的图片 还是挺好的
1,看到很多评价都很高，结果期待也高了些，没有想象的好看，外观一般，缺乏质感，毕竟这个价位嘛。
1,从携程网上看到大家对海景花园的服务评价很高.我们于7月下旬到青岛避暑，特意入住该店。入住5天感同身受，果然名不虚传。可以说在我们住过的宾馆里服务是一流的。有几处尤其让我很感动。比如，西餐厅主管王杰和服务员金玉盛听说我有胃病，除了在进餐时照顾我，还给我拿来一些生花生米，说每天吃几个可以保护胃黏膜。我爱吃青菜，每次都单独给我炒一小盘。我们到青岛的那天下着雨，客户关系主任直接送我们进房间，在房间里办了入住手续。他在登记时看到我脚面上贴着膏药，很快让楼层服务员给我送来几张云南白药膏。后来蓝吧服务员也注意到我走路一瘸一拐，又给了一盒膏药。我贴后基本痊愈。我有慢性咽炎，进了空调房就咳嗽。大堂服务员马上给我取来金嗓子喉宝，蓝吧服务员又拿来咳嗽糖浆。我服用后很快见效。楼层服务员总是在我们外出后收拾房间，每次回来房间总是整整齐齐的，晚上还送来牛奶。这可是我们在外旅行从没有接受过的待遇。我们走进酒店，见到的员工都微笑打招呼，让人感到很亲切。我还注意到，酒店提供的早餐食品，给房间送的水果和小礼品，质量都比较好。所有这一切都说明酒店总经理管理有方，把这么多的员工培养得如此之好，让他们树立顾客至上理念，提供人性化服务，殷勤，热情，细致，周到，这是很不容易的。其实，作为五星级酒店，该店硬件并不很理想。但是。他们超一流的服务的确吸引了顾客。我们明年避暑还是首选青岛，到青岛住店当然还是首选海景花园.
1,不错，在同等档次酒店中应该是值得推荐的！
1,记忆最深的是作者说的一句话：父母之爱都是深如大海，但有质量差别！这是一本为人师为人父母都值得好好一看的书，对中国传统型教育思想和方式是一个不小的碰撞和冲击。单位里同样有不少同事的孩子在做着留守儿童，也都存在着或多或少的问题，经常听到他们会发出许多无奈的感叹，可又束手无措。很遗憾的一件事！如果我有了自已的孩子，一定会自已带，无论多苦多累。
1,"酒店周围的环境不错,去景点都很方便. 前台态度不错,入住和退房的速度很快."
1,在同档次的笔记本电脑中性价比高，配置也够用，品牌效应好，外观不错，已在使用中待发现更多优点
1,看了池莉写的自己从孩子出生开始就给孩子创造的环境，让她的孩子长得成功 骄傲，真是了不起。我也是刚刚做母亲的人，对如何教育孩子深感迷茫，自己就是应试教育的产物，天天埋身于书山题海，到头来还是在一个普通学校做老师，那个时候就很痛恨学校恨老师，现在也不想让我的孩子重蹈覆辙，但是如何去做？是否成功，这本书带给我新的启示。非常好看的书
1,总体感觉不错，美中不足的是房与房之间隔音效果不太好，还有房价感觉稍高。
1,入住丽晶，感觉很好。因为是新酒店，的确有淡淡的油漆味， 房间内较新。房间大小合适，卫生间设备齐全，服务态度也很好。网速可能是提升了吧，感觉还好。有免费的插线板、水果刀。。。等一系列的日常用品免费提供，很细心。晚上的自助餐是每人68元，菜品一般、就算说的过去吧。酒店外有西贝筱面等几家饭馆。西贝的菜实在是量大的惊人，人多在酒店吃就不如去西贝吃了。酒店21：30-24点有广式晚茶，吃过几次，味道正宗，就是点心品种略少。哈。 酒店地处青山区，包头分昆区、青山区。相对来说：昆区是最繁华的，青山区次之。像包百等大商场全在昆区，从酒店打车到包百商圈车费12元多。青山区也有一个王府井百货，相对来说比包百商圈的略小，从酒店打车8元多。银河广场离酒店有一段距离，打车9、10元吧，银河广场边上有“科丽珑”24小时营业的超市。酒店一楼有小卖部，周围基本没有超市。 这次住正赶上有几家公司在这里开会，有时楼道里略吵，晚上还有几次有人敲错门，理论上与酒店管理没关系吧。希望以后还是尽量让会议团体住在一层，也许这样可以好些吧。总体感觉丽晶很好，以后来包头还会住这里。
1,早餐品种太少，交通还算便利，服务态度不怎么样，问酒店买的地图竟然就是旧的别的客房拿的
1,等了好几天终于拿到了，配置和品牌来说，都令人满意。商务个人来说都是好选择。
1,给大老婆买的，哈哈。键盘，电池不错，电池能用6个多小时键盘，电池不错，电池能用6个多小时键盘，电池不错，电池能用6个多小时
1,外形小巧，白色很精致。 功能齐全，无线，蓝牙，160G硬盘，电池续航时间长。
1,红娘子的书一向都没让我失望过，从最初的红缎，到后来的绿门，橙子，青丝，都有自己的出彩之处，都不会是同一个模子印出来的，所以让我们读者都有新的期待...关于感动，爱情，亲情，友情，红娘子都已经用自己的笔触讲述给了我们这次的《迷藏 血色面具》也让我见识到了另一面的红娘子！有她最熟悉也最热爱的故乡，湘西....这里面融入的感情元素就更多了...~所以，值得期待，值得阅读！
1,"散热非常好,外观也很大气.如果不是家中有两台电脑了的话,真的还想再买一台用."
1,A面很亮，早上当镜子用了一下。风扇声音很小。散热也很好。装系统的时候必须先把C盘格式化，克隆版的XP要注意了。现在在下驱动。
1,"挺不错的一本书.当我读到“大篷车马戏团”的动物演员们向小狮子奥里奥诉说它们在马戏团所受到的待遇时,女儿说：“我听得都要哭了。”我趁机告诉她，动物同人类一样，都是地球大家庭的一员，动物是我们的朋友，人类与动物要和平相处，保护动物可以保持地球上的生物多样性,保持地球上的生物多样性可以维持地球的生态平衡,这样人类才能生存得好.。"
1,这是在京东买的第二台宏基的电脑，相比第一台4930的在功能上有差别，送给朋友的，整体还可以，14.0的屏比自己的稍小，女孩用很好看的
1,《四季时钟》真不错，插画非常精美，语言清新流畅，口吻活泼有趣。翻译质量很棒，用词精确生动。作为科普书籍，用词的简练和准确非常重要。小孩一拿到就非常专注地看起来了。我也跟着看了半天不舍得放～～～我最近发现那些童书好像买回来自己都一样爱看。所以，我现在真是不太关注所谓的年龄分段了。只要绘图是我喜欢的风格，故事是够让人愉悦的诉说方式，不管语言深浅，照单全收
1,送货相当快，早晨7点多订单，中午12点送到。 朋友看了配置都说这机子想当棒，超值。
1,"还行,房间小是不可以抱怨的，因为这是在香港,如果是来购物的话是个不错的选择!"
1,"是绝佳的购物首选酒店,楼下就是连卡佛和海港城，但乘搭地铁就需步行10分钟。 房间设施和装潢都显陈旧，入住的是吸烟楼层，异味很重，如果没有烟瘾的话，务必交代预定非吸烟楼层。 自助餐的水准的确挺差，和200元的收费不符。"
1,1.小巧精致，延续了THINKPAD的风格 2.东西质量没的说，送过来的时候是全新未拆的 3.京东的服务不错，有发票，送货及时
1,"今年11岁了,去年在弟弟家看了第一辑,非常喜欢,这次一起定了两辑来收藏.不一样的卡梅拉给我们不一样的幻想.里面的那些故事让我好象置身于卡梅啦中间,回味无穷,还有那些配的图片,更是勾起了童年回忆,让我爱不释手.之前买了很多这一类的童书,有很多没有多大意义,?不一样的卡梅拉?在每个故事里都包含着属于自己的意义,包含着自己的不一样梦想. 值得推荐!"
1,我们一家三口于2008年7月19日至22日，入住泛海名人酒店，之前也看过网上的评论。抱着试试看的心态和本身从事航空服务的、较专业的眼光，真切地体会到物有所值、名不虚传。无论是明亮的大堂、楼层的过厅、还是洁净的客房，都布置地特别典雅舒适，充满着家的温馨。我们住的是位于四楼的海景房，真是面对大海春暖花开，窗台上装饰着漂亮的花花草草，放眼望去是一望无际的大海。栈桥近在咫尺，推开窗户，迎面吹来和煦的海风；关上窗户，没有一丝都市的喧闹。让我们真正感到来到了青岛，真正的享受到海景房的惬意舒适。特别是泛海名人的大堂经理，一个个子高高、眼睛大大的女孩，有点象青春版的倪萍，但比年青时的倪萍更漂亮。态度特别和蔼，为客人服务特别周到，能真正的想客人所想、急客人所急。特别主动地关注客人的需求，及时了解和为客人解决困难。她总是面带微笑，举手投足和言语间特别礼貌周到、规范专业。即使外面只是有些蒙蒙细雨，她也能特别周到的、主动为客人送上雨伞。我觉得她可以做青岛的形象大使，她的美丽端庄，特别有中国传统女性的风采和气韵。再去青岛，还住泛海名人，也希望更多的朋友认识这位优秀的、漂亮大方、有东方女性特质的大堂经理。感谢泛海名人带给我们一个美好假期，也谢谢这位大堂经理及楼层服务员的优质服务。 来自北京的客人 2008/08/01
1,看了介绍才买的这本书，其实看的外国书并不多，尤其这种非名著的书。以前看名著的时候都是逼着自己看完的，经过历史的验证，才能成为名著的，我却看的不耐烦，可能是依然不习惯他们的表达方式吧。《三杯茶》看了3天，应该算是我看外国书比较快的记录了，很少记得外国人的名字，只是被他的行为打动。如果让我去帮助别人，很简单。但是让我冒着生命危险去帮助别人，恐怕我做不到，也许仅仅这一点，他就足够伟大。
1,便宜的价格，在这个价位来说，配置应该说是最好的了！刚开始用，没发现什么缺点
1,性价比不错，外观也还不错，送的东西挺多的，还用了一张3000-150的券，挺划算的
1,这个出版社是我经常光顾的 我觉得他们的题目都是从基础开始的这本书分为3点：主干知识、点击思维、零失误训练。主干知识我都是在预习前做的 都是基础题然后点击思维是在第一课时结束时我复习用的 也是基础题 只是有些是复习概念用的最后零失误训练我都是堆积到周末做。。是对这一整课的总结总体说我还是比较满意的不知楼上那位是什么教材 人教版的教材不就是有勾股定理吗？？
1,这本小说向我展开一幅景象，那是一条安静的小街道，两旁是不高的民宅，午后的阳光明晃晃的照在上面，空气中有肥皂洗过的床单在阳光下的味道，那是一种让人伤感的宁静和真实，好像时间就呈现在你的面前。而你就是一个旁观者，从岁月中匆匆的走过，能感受到那份真切的温暖，却真实的让人虚妄。这种感觉，我猜测，如此之于汉娜对米夏，米夏对汉娜也应如是。
1,虽然价格比同类其它品牌产品偏贵，但更轻，可见集成度更好 散热也非常好，用下来没有明显发烫 毕竟继承自小黑，值得一赞！ 1. 随机赠送的“原装真皮包”不像原装，更不是真皮――上面标签是Targus，不知道其他朋友怎么看？我是冲着这个原装真皮包才在京东购买的，非常遗憾！ 2. 同系列HT2带指纹识别，希望京东引进 3. 1G 内存运行 Vista 明显吃力，换成4G内存了（便宜50元/条）
1,总的来说还算可以，我在15楼住着，洗澡的水压有些小。其他还可以。就是离龙门石窟有些远，17公里左右。宽带的速度不错。
1,装修简洁实用，但电源插口少，要配个接线器为好。另外浴缸的hot龙头请配图示，第一次来的一定弄很久。酒店lobby太大，早餐要历经磨难
1,"准四星已经正式挂牌为四星了,房间很大很干净,服务也不错,酒店就在火车站旁边,交通很便利,而且大商等大商场立着也不远,购物也挺方便,不过也正因为在火车站旁边,酒店门口显得比较乱"
1,地理位置不错，，但是有点旧，，不是节假日基本上不用预定，价格到前台订都一样。
1,我是12月20几号在珠江花园酒店住了几天，感觉还不错，出门就可以到海边，不过下午饿了，酒店没有什么吃的，出去外面也都还没有营业，感觉挺不舒服的，但是此酒店在来看来还是蛮ok的，相对这个时间，价格还不错，也像前面说的房间不够大，尤其是阳台太小。 不过下次我应该还会考虑入住这间酒店。 补充点评 2008年1月1日 ： 不知道为什么我给的4分，跳成5分了，补充一点，这间酒店我只评4分。
1,外观不错，性能优良，散热还可以，掌托温度不高，使用的感觉比较舒适
1,2699，价格无敌，比电脑卖我问的所谓最低价场足足便宜了300，性能也很不错，待机时间正在测试中，不可能和官方9.5小时一样，那太理想化了，不过估计7，8个小时问题不大
1,别人说的优点全有: 机型合适 散热良好 几乎无噪音 配置强劲 键盘手感好 显卡比较好 配送及时
1,通过携程预定该酒店保留到晚上6点的。但是下午3点多接到携程电话，居然说我给酒店打电话取消我的房间，问我有没有这回事。简直很气人！ 后来到酒店办理入住时，问了前台有没有这回事。他们居然回答的很干脆，有这个事情。酒店也太不负责了，为了自己的入住率就随意取消客人的预定。一点都不配万丽的作风和职业道德。 另外，该酒店不能用民生银行信用卡做预授权，只能用中国银行和交通银行。这点很不方便的，请大家以后入住的时候请注意了。
1,最后调整到新翼楼，是他们新装修的楼层。 还算不错的，浴室面积很大，早餐比较丰富，但是挺贵的：）
1,地理位置比较优越，到哪里都还算方便。房间比较小，但是景观和卫生都不错。很安静，周围都是老居民区，相当有特色。服务态度不错。下次去应该还会选择这里！
1,散热好..样子帅..性能也不错.造型有商务风格。小红点不错 一直用它呵呵.还有原装鼠手感很好..
1,thinkpad品牌号召力是非常好的，联想收购了ibm pc部门后把商务机的研发全放在thinkpad品牌上了。专业的就是好！
1,有一些写书人，写书尽量把简单的事情复杂化，唯恐别人读懂，唯恐别人不知其水平之高深莫测；有一些写书人，写书尽量把复杂的事情简单化，唯恐别人不能知其意，尽量深入浅出，简单说理。作为读者，我最憎恨第一种写书人，而最欢迎第二种写书人。这本书的作者，就是我所喜欢的第二种写书人。整本书看起来很流畅，很舒服，而且也很受益。可能也有赖于译者流畅的翻译，能够让原作者的意思能够流畅表达。
1,一次无意中看到这本书，成为那段时间每晚睡前必读书。书中有文字介绍更有插图事例分析与提示，是我看过的所有书籍中最为体现“以孩子为中心”的书籍。因为觉得非常好所以就为班级全体家长推荐订购了一本，不仅我认为好，大家也都觉得好。建议有孩子的家长，幼儿园和小学老师们一定要看一看哦！或许它能帮助大家重新审视自己的教育观念与行为，并为您孩子的成长一定会有相当大的帮助的。
1,我是在海洋公园玩了一天，带着疲劳的身体在金钟打的到酒店的，原来以为打的会很贵，其实也不是很贵，因为来之前就打电话问过前台的小姐，从金钟怎么到酒店。前台告诉我坐5B就能到，结果是我在金钟下了车之后，不知道在哪里找到可以坐5B的车站，所以一狠心，就打的了，也就是27元港币就可以到酒店了。到达酒店，前台的小姐语气温和，速度也还挺快的，当一切手续办好之后，轻声地告诉我：已帮你升级到行政房。那一刻心里面是狂喜。上到房间，里面还不错，虽然不是很大，但也没有想像中的小（因为之前已经去过香港几次，再小的我们也住过）窗外就是民居，也能看到海。洗手间也还挺干净。放好行李，马上下楼去找吃的，附近还有几家没关门的小店，十元一碗的云吞面在香港来说是低消费。味道也还可以。白天再下去看的时候，原来那条街是个菜市场，作为一个主妇，顺道也对比了一下价钱。才发现，原来我们的物价真的是太高了。有些东西居然和我们的是一样价钱。但，人家的收入是我们的N倍。不说了。总体来说，这家酒店，从各方面来说还行。不次如果有机会去香港的话，我也还会选择这一家酒店。不过就是觉得酒店的价格偏高了一点点（HK715）。或许是暑假的原因吧，如果平时去可能会低一点吧。而且每天的价格不一样，有点像海鲜价。
1,看了评论才买这套书的，因为不知道我的宝宝喜不喜欢，我的宝宝才1岁3个月。书一到，就拿了咕噜咕噜转给他看，谁知道他爱不释手，不仅天天让我讲，而且还拿他的玩具车和书上的车比，看着我发出啊啊声，他的意思大概是我的车怎么书上没有？他还不怎么会说话。现在走在马路上最喜欢看车了，无论是出租车、公共汽车、摩托车、小汽车、吊车、货车他都用手指，让我看。真是一套好书。
1,"地理位置不错、停车场很大。 客服专业、房间也很标准。 宽带流畅。 免费注册 网站导航 宾馆索引 服务说明 关于携程 诚聘英才 代理合作 广告业务 联系我们 Copyright1999-2008, ctrip.com. all rights reserved."
1,一下子买了2台，同事一台自己一台。。。总体感觉还不错。。电池耐用，屏幕好，键盘好用。
1,经典就是经典，相当不错，每天女儿都会拿出来看，也学会了许多生字，第一遍是我读给她听的，我当时很有感情的读给她，她现在又很有感情的念给我听！真希望所有孩子的科普类的书都能像这套书一样把知识讲得这么有趣，适合孩子的心理！超赞！！！
1,外观设计的好，做工精美，京东快递速度也很迅速，特别是2699-100的价格简直无可挑剔！
1,"位置离我们单位很近,从价格来说,性价比很高.我要的大床房,168元,前台服务员态度很好,房间硬件一般,但是想想价格也就这样了.还算干净,就是床垫子太硬. BTW:没有骚扰电话,这个很好 补充点评 2008年3月4日 ： 对了,这里能够免费上网,刚好上网加班一晚,很不错"
1,老兵应该是什么样子？脾气暴躁的石光荣，性格倔直的谷子地，粗鲁大胆的李云龙，荧幕上的他们确实精彩，但是老兵故事中的王三官、葛二蛋都会让你难忘，特别是葛二蛋简直绝了，不知别人看他故事时的反应如何？反正我是笑得肚子抽筋，一个农民中的“智”者，一个典型的“二流子”英雄，在那个特殊的时代，他的表现另类，但是出色，如果活在今天，他会是什么样子？我不敢想，不过也许也是一个英雄！
1,5月底入住的。房间装修感觉还不错，就是房间小了点，大床居然还是两张床拼起来的，有点奇怪。 地理位置不错，正对着会展中心，离湾仔地铁站也只需要过四条马路，离骆克道上的酒吧也比较近，特别是去九龙的话下楼就是天星轮的码头，很方便。 酒店每天会送一个小玩具，虽然很简单，但是几天的攒在一起可以摆出很多造型，一直玩到现在，不知道下次去的时候还会不会送。 酒店的餐厅比较一般，价格也贵，还不如去地铁站骆克道或者柯布达道上的几家茶餐厅来的实惠。 游泳池很好，可惜开的时间短了点，要是晚上也开夜光场的话就更好了 大堂的结账比较怪异，结账的时候取消信用卡授信额度居然不撕小票，有点不习惯，不知道是不是这个酒店的一贯做法……还是香港的惯例？
1,低价位，中性能，因为不需要很高配置，看中该款是商务机型，相信做工，所以选择该款
1,去年一整年的时间都在阅读职场小说，也许无法戒掉。不知芳菲的这一次回归会做出什么样的选择，呵呵。。。也许我最关心的还是她的情感归属。再坚强的女人也是一样，都需要一个家。个人还是很偏向剑客的，因为我感觉95%剑客就是凌远，他这几年的深情不能被辜负，都是有爱的人，何不在一起。我想，无论是天堂的人，还是人间的人，都希望看到这种结果吧！愿有情人终成眷属！
1,散热效果不错，功耗很低，配置较高，运行时声音很小，屏幕挺舒服的，
1,"屏幕亮丽,上网.视频播放流畅稳定,用PowerDVD8.0播放外置DVD光驱中的蓝光碟也非常清晰流畅,这得益于9300GS。6芯电池保证3小时以上的使用时间,声音轻,发热量低。 到手后换了320G硬盘装XP很顺利,速度比Vista快多了,京东上购LCD保护膜自贴蛮难,手忙脚乱的,又购了一块键盘保护膜。HDMI输出音视没问题"
1,新的风格还是蛮精致的，掩盖了房间狭小的天生不足，但是有些细节尚不周到，比如那个烧水的电壶，塑料味道很重，恐怕是不合格产品.
1,"服务非常好,希望不是正好赶上奥运才这样.去哪里都有人带路.宾至如归啊! 早餐还算丰富, 门口也有不少餐厅.出门就是海边.风景美.值得一住!"
1,性价比很高！同类本本比这款要高出500到1000元呢，所以想买本本的朋友赶快出手！
1,国际五星级酒店情侣档专业酒店评价（TT）： 先提一句，本来并没有订峨眉山大酒店，是从峨眉山天颐温泉度假大饭店逃过来的。 酒店地理位置：5分，在峨眉山山脚旁，离客运中心80米，很赞的地理位置~！可以从峨眉山上冰天雪地下来马上可以冲一个热水澡，值得推荐。 酒店环境：4分，满标准的4星级酒店，可以从酒店里远眺峨眉山，酒店环境也不错。 酒店客房：4分，酒店设施稍有陈旧，毕竟开业很久了，但总体来说还算不错。 酒店服务：4分，进门一直有人拉门的，前台态度也不错，就是办check out的时候信用卡预授权撤销做成消费取消了，导致一直不成功，如此基本功要多多培训。 免费早餐：3分，在宴会厅内用早餐，总体比天颐要好很多。 总的来说，表现中规中矩的四星级酒店，酒店稍嫌陈旧一些，这一点在酒店基本只有标准间很少大床房上也能体现出来，但和390的价格相比性价比不错。
1,平时只用来工作，上上网，挺不错的，没有冗余的功能，样子也比较正式！
1,还可以吧，价格实惠 宾馆反馈 2008年4月17日 ： 谢谢！欢迎再次入住其士大酒店。
1,"我喜歡這家酒店,很多年前住過,後來又住過其他的酒店,感覺還是這家好.覺得它性價比都不錯.尤其勝在周邊環境上,風景美,外出用餐也僅僅步行幾分鐘.還有個小的商業區,有百佳,吉之島等,很方便的.雖然離大的購物區比如海港城,有幾十元的車程,但如果你愿意等,有酒店提供的免費巴士,30分鐘一班到尖沙嘴,也是很方便的.還有,入住那天恰逢我生日,到大堂登記時服務生就對我說了生日快樂,晚上又送來了美味的蛋糕,一支很漂亮的紅玫瑰,還有洋酒.很開心.還有,那天因為我們去得早,11點就讓我們入住了,總之,這次入住,沒有什麽不滿意的地方."
1,4599特价时买下了。隔了10天现在便宜了100元。当时还考虑了HP541CPU更高1点，虽然总线才1M，人家是2M，显卡人家是128BIT，这个是64BIT，但是相信这个品牌，而且主要是普通办公游戏
1,"我住的158的房,觉得还可以,房间正对酒店大门口的马路,隔音还可以,不吵.卫生间也不是太少,就是设计不太合理,洗澡的龙头力道太大,水打在身上都疼.综合来说还可以."
1,我只用四天时间就读完了这本书，这在我读书生活中是很少见的。虽然这本书从出版至今相去九年，但还是觉得新鲜，从中我也学到了很多的东西。比如国家为什么要对农产品实行保护价收购等等。当然有些观点个人认为不一定很正确，经济学家也不是全能全知的上帝。该书文字生动活泼，读起来完全不觉得深奥，是一本真正意义上的大众经济学。书的印刷质量很好，还配了几幅蛮有意思的插图，是一本好书。
1,距拱北关口近，标准间太小，豪华大床不错，服务好。
1,会场滴轻薄，只有一般笔记本一般的重量；键盘手感很不错，键程和弹性都不错；led的显示屏效果不错，各方向都不会反光。
1,一直都很喜欢江南，喜欢他那澎博的文字下的细腻，我也一直在收集江南的书，这本也不另外。刚开始看，不是很喜欢的说，找不到以前的江南风格，涿鹿更像是此间的少年和缥缈录的结合，但我却觉得有点四不象，可是我还是坚持看到后面，也逐渐的找到了记忆中的江南。喜欢他笔下的蚩尤，为云锦而成狂魔，即使没心也一直因为云锦留恋着尘世～～
1,"最近我和几个朋友自驾游去扬州,经朋友介绍住在新世纪,第一感觉停车场特别大,可以同时停放约300--400辆车. 房间舒适度很好,隔音效果也不错,该酒店最近重新装修，整体感觉挺好,酒店的服务很到位,物有所值.晚上用餐正好赶上他们的美食节,听说每年都有几次,真的很不错!"
1,性比价相当高的一个本本，万恶的v系统啊。。。。。。。。。。。。。。。。。。。。。。。。。。。。
1,"这次去泉州有三个国外客人一起同行,还是入住了泉酒. 大堂有水仙花装饰,有一股清香.环境很好.以390元的价格入住,超值. 客人称赞酒店很不错,我想这是每个入住客人的同感."
1,便宜实惠；配置较好；做工还行；在这么便宜的情况下还内置了无线网卡
1,外观漂亮、性能不错、运行XP很好的。屏幕超亮屏。第一次买Gateway，是别人推荐的，没想到真的不错。
1,"技术区里唯一的四星级酒店,外观不起眼,但服务感觉很不错,尤其"
1,胡雪岩的情商之高，胸怀之宽广，处事之磊落，让我无比佩服。这是天份，做事的天份，说话的天份，最关键是那份急智，学不来的。最后的结局，也只能说是政治斗争的牺牲品。不仅仅是官商，在中国的商人，只要做大做强了，不可能和政治划清界限。与其被利用，莫不如互相利用，或者说是共赢。胡雪岩是恰逢乱世，如果在现在这样的和平时期，结局一定改写。
1,这是我买的第二部星野樱的小说。第一部是《清空万里》。虽然这部不是穿越，但是还是挺不错的一本书，情节很搞笑，作者想的东西是很多人想不到的。虽然如此，但是感觉比《清空万里》差一点点，《清空万里》的细节个人感觉写得很好，很多地方都可以细细的流泻出来，在这一点上感觉《大龙门》欠了一点点。不过无所谓，不影响小说的整体，要是喜欢想《清空万里》这样风格的人，我推荐你耶买买这书。
1,"这是物有所值的三星级酒店,设施齐全包括洗浴间小毛巾/吹风机等,房屋装修新.服务态度好如前台微笑服务好.位于市中心但是临街道而喧闹,房间隔音效果不好.早餐一般. 补充点评 2007年9月4日 ： 房屋价格适中,但是协程预定没有价格优势,该酒店前台价格与协程一样."
1,老板每次出差到北京都要订这家酒店的，对它很满意哦
1,外表很靓，体积小巧，用来工作上网足够了。 性价比很高 我女朋友看了也很喜欢，他想买樱红色带小花的1000H，希望京东可以提供该机型。
1,hp的这款机软件方面虽然有点欠缺，但是打了个电话给HP总部，立马将所需驱动发到了邮箱，装上之后发现这台机蛮好用的，其它方面都很好，外观也蛮时尚大气的，过几天再去加个内存，那就更完美了。嘿嘿。。
1,"读南先生的书,就如同在迷雾中行走时突然看到前方有一个光亮在远远地牵引着你,让你心中为一之一振.对于人生、对于这个世界我们有太多想了解的东西,这套书会给我们很多的启发，相信每个人看过都会有所得。虽然这套书的内容很多在网上已看过，但是还是很迫切地买了一套自己收藏，随时再拿出来仔细品读，个人觉得买这套书真的是非常值得，能在茫茫书海中碰到这套书真的感觉很幸运！"
1,前台　楼层服务员都不错，房间安静整洁，交通方便，吃的周围也挺多．唯一不足，卫生间地漏设计不好，导致少量积水．
1,环境还不错，我姐她们指定住的地方，住过很多次了 喜欢。。。
1,这套书真的很好，除了印刷、纸质非常好之外，还设定小活页可以翻来翻去来表达故事中人物的动作、故事情节等，真的非常生动。里面的主角：河马、小猪、小老鼠和小鳄鱼深得囡囡的喜欢。记得书刚买回来的时候她就老吵着要读给她听，这套书买的大半年了，边边角角都被翻烂了，现在才上来写评论，我是想让更能负责任地写出用后的评论，让其他妈咪做参考。孩子一岁半时，建议可以买这套书给他（她）了。
1,1 跟我以前的ibmx31 比起来键盘键要松，但好像更容易敲 更省力 2 随机的vista也不错啊 习惯就好啦 3 感觉很好 ibm的风范 联想的特点 中国人的胜利 4 大气 配置合理 高清 视频音频均很出色 5 京东的送货的小伙子很可爱 建议给他们加工资
1,整体来说还是比较满意的，散热挺好，噪音也不大，运行VISTA也还算顺畅
1,"入住的时候礼宾在哪里?房间里的花盆特别象90年代初期的田园花盆,极为难看.更可怕的是入住的时候门口不管客人,照常做大范围清洁."
1,小巧散热性好，女士用很轻便，比公司的hp轻很多。 自身带的vista系统用了赠送的内存条稍微快了些。问题暂时没有发现，不过声音感觉太小。
1,东西很不错，性能和外观都很可观。非常不错，只是装系统时会蓝屏，后来在联想网站才找到了解决办法，得把硬盘的一个东西给关掉才行，不记得叫什么了 ，大家到网上去看就好了。
1,12月1日又入住了瑞吉红塔，服务还是很好，但感觉不到以前的会心微笑了。 不过，瑞吉红塔的游泳池还是一如既往地好
1,离机场很近，15分钟，不到20块钱，可是离市区实在太远了，而且中间有段路蛮荒凉 旁边有个易初莲花，还有个明珠广场，环境还是不错的，房间也行。 携程的价格很没有竞争力，我和朋友同时入住，我的房价是548，朋友通过她公司预定，房价仅为410。
1,从组织成长角度看，四大名著是有分工的，西游记讲的是草创阶段的组织，如何活下去是最重要的；三国演义是讲国家级大组织的，如何强大、垄断是主要的，重点是如何强大；红楼梦是讲家族型组织的，它最重要的是如何保持、延续问题。比较而言，水浒传讲的是小组织如何变成大组织的难题，山头、门派，都有成长的要求，因此这部书讲的是怎么壮大的问题。它的智慧，都在这里。
1,非常不错的营养食谱，把宝宝每月需要的营养指标都给出来，让我参考给孩子搭配。而且书中给的小食谱既经典又有创新，宝宝看到每天不同花样的搭配食欲很好。这本书更让人感到很好的地方还有：根据不同月份的宝宝，罗列出很多亲子游戏和一些很实用的早教知识，很贴近生活。让我在增强宝宝的体质的同时，也懂得了如何跟宝宝互动。
1,柏杨耗心力的佳作，只是书的质量一般，盼能改进。
1,看的是电子版，实体书拿到手了，特来评分。
1,thinkpad就是不一样啊。这一款性价比很高。就是只有一个C盘，还得自己分区。麻烦。运行效果都不错啊。~~~~~~~~~~~~~~~~~~~~~~~~~~~~~~~~~~~~
1,早餐很丰富，服务也热情，早上很早退房时，前台值此人员办理手续也非常快．
1,书里的每个故事都很能给人以感动。是否能被触痛的 就因人而异了。里面的故事大多数都是存在的。通过了解别人的经历相信也对自己帮助很大。爱情也是门艺术，看这本书感觉让我更好的了解什么是爱情。本人很喜欢《意林》，记得第一次买是因为高三语文老师推荐的。此后就喜欢上了，距今有3年了，几乎每期都买。当当网 就是我给意林杂志社打电话说想买这本书，然后经他们推荐的。呵呵真心希望 《意林》越办越好!!!
1,这本书和《 好孩子的成功来自妈妈1%的改变》我都买了，非常赞同作者的一些观点，其中感触较深的是：1.对于孩子来说学习成绩并不是最重要的，关键是基本能力的培养，这一点家长一定要有远见。2.教育孩子最好的方法是在生活中学习。3.关于孩子的独立性的培养，其中一些小例子很值得家长借鉴。4.对于孩子既要有充分的自由，也要一些必要的规定，而且一旦制定规矩，就一定不要破例，这点我深有感触。
1,给我升级到“韩式房”，进门脱鞋上炕，炕上只有两个大床垫子，感觉有些简陋。 卫生间座便带冲洗装置，不错！
1,入住感想如下：找不到5星级宾馆的感觉、总体水平最多只能算4星级。虽然房价比中州皇冠便宜100元左右、但所有硬件及软件远不及中州皇冠。
1,"酒店的地理位置非常棒,住的高级商务间.感觉房间非常小.门童和服务生都非常热情.还有免费的水果.地毯和装修有些陈旧~"
1,因为屏幕是16：9，所以玩游戏或是浏览网页时，字体都超小，看得费劲
1,"门童好像不错,其他不记得了 晚上睡得还可以"
1,我是中国之声“今晚听吧”的听友，听到尹老师做的这一次节目，就立即想购买此书。可是问遍了我们这所有的书店，竟然没有。于是，我只好抱着试一试的态度上当当网看，因为第一次网上购书，也没抱多大希望。今天书来了，感觉很好，当然是指当当的服务、价格、质量，同时挑了几篇看，三个字“太棒了”。今后，我还会在当当购书。
1,"常常觉得聪明和智慧相比,我更喜欢智慧.担是,看了拉拉之后,我觉得聪明的女子更让人心生怜惜.不可否认,这是一本好书.一年前一个很好的朋友发了我一本电子档的,没有看下去,这次在当当上买了之后,用了两天看完.很吸引人,对于那些向往外企的人来说,是一本不错的指南.对于那些聪明的女子来说,更是一个完美的人生向导适合珍藏及细读的一本书!推荐"
1,房间很好，设施也很新，总的来说还是很满意的。周围的很方便，楼下隔壁都有商场。
1,应该算是阳朔最好的酒店了，在西街头上，距离汽车站又近，地段没的说了。 而且要过一个桥在到酒店里面，闹重取静，也是一大亮点。 不过阳朔毕竟是小地方，酒店房间设施应该达不到四星级的标准。
1,我同时对照统编教材，还有另一本测试题库配合来使用和强化的。因为这本书的测试题是偏向与讲解和总结的。我最喜欢这系列的出题概要，不仅有提示性还有重点标识的知识点。省去了很多自我规划的时间。
1,不是费太多的尽，就把两本书都看完了虽然自己只是个大三的学生，但却从拉拉身上看到了自己的影子。合起书本的时候，感慨人长大后，话越说越累。每句话听到，都要琢磨琢磨它后面的意思，而自己说的每句话，也都必须是慎而又慎的思考后的结论。免责成为了头等大事，纵然已是DB的HR经理，拉拉也还得面对苍凉的现实。无论是第一部还是第二部都没太交代和王伟的最后结局不管怎么样依然期望能是一个happy ending。
1,正品，包装没有开封过。PS：我上次买了个手机，包装都是打开了的。运行速度快，散热好！还送了包包和内存条！把附送的内存条装上运行速度快了很多！
1,1.显示屏没有坏点、没有亮点，在京东买的2台笔记本都是完美屏幕哦 2.键盘很好用，按键挺舒服的，但是空格键有点异样的声音 3.散热：机器散热挺好的，在键盘上面不太感觉到热，但硬盘下面较热 4.光驱：读盘能力强，用来放D版碟都没问题 5.关于屏幕还要说，颜色挺鲜艳的，真的是不错。 6.有摄像头，摄像头还挺清晰的
1,地点不错，从客运站坐TAXI到饭店大约7.5块，柜台小姐先生服务很好！房间更是优，乾净整洁舒服，一晚355的价格，算很划算。不过早餐有点贵！下次去泉州 还会去住。
1,当初看这本书是因为好奇。也是因为自己也是做广告的。希望可以从里面学点什么来。看完后。说实话刚开始没有什么感想。就像我看完了其他任何一本言情小说，玄幻小说一类的。在想想。这书写的太幸运了。对于女主人的幸运。不是所有的人都能和朋友在一个城市里瞎混，更没有一个青梅竹马的朋友能长久的在你身边陪伴。偶尔有他们的电话短信就要痛哭零涕了。
1,酒店位置非常的好，客人每次都要点名入住。 只是不知道为什么每次前台都为了吸烟区和非吸烟区和你捣糨糊，即便你预定时已经强调而且也得到了确认，前台也要试探着给你换成吸烟区做无烟处理，真真被打败了！
1,东西很喜欢，手感不错，送货很快，下单到手上才20个小时不到~~ 散热也不错~~
1,"很漂亮,外观,性价比感觉 还不错.功能简单,适合出差 外出携带.蓝呀摄象头都有了,满足基本需求.对于不是高要求的你来说,很值得购买.满足一般上网需求."
1,酒店邻近山脚，空气清新，闹市取静之处，清早起床看着窗外真有想去晨跑的感觉。临近香港的SOHO区，附近就有最长的电梯往来中环。尤其夜晚可以取阶漫步而下前往兰桂枋，一路上都是异国情调的各式餐厅及酒巴。喜欢小资的朋友就非常喜欢的了。 缺点是交通不便，其中一次返回酒店时，害得我步行了近半个小时才东问西问回到住处。进出酒店最方便的交通工具是出租。酒店的接待服务没问题。
1,位置非常好，去烟台山、东炮台、张裕葡萄酒博物馆非常近，海边步行街很漂亮，音乐喷泉也不错。 缺点：商务标间（6601）中央空调的风机盘管保温做的不好，导致结露发霉；另外免费提供的拖鞋沾水后极滑!
1,主流配置、CPU频率还略高于其他的； 蓝牙、WIFI、摄像头、读卡器都有了； 外观也很漂亮； 价格却比HP、联想的便宜。
1,我订的260的房间，还算不错了，住了两晚。是以前政府的接待宾馆，有点老，但是还算可以的，各方面都差不多，不算差，但也不是很好。我感觉床还是比较舒服的。宾馆周围比较繁华，应该是商业区。
1,我很喜欢傅佩荣的书，叙事风格很是随意。最起码，对于一些深奥的理论不会失去兴趣。也避免了国内为了学术研究和评定职称的故作深奥的书。但是有一点我不喜欢。傅佩荣讲哲学重在思辨、反省、分析。但是一提到有关大陆，便把哲学的眼光丢掉了。要么是笼统的说什么10几亿人怎么怎么样，要么说人多都浮在表面上。呵呵，还是--百川归海，有容乃大大陆有许多好的东西，另外也别把西哲看的太神秘了。但是我喜欢这本书。
1,东西不错，外观设计的好，做工精美，质量可靠，京东的送货速度很快！ 京东的东西质量还是比较放心的，没有多大问题，包装也不错，发货速度赞一个，基本当天都可以发货。东西刚用上，很不错，比想象中要好。
1,我在上大学二年级的时候，英语阅读中有一篇课文就是节选自本书的英文原版。当时读了以后，非常认同作者的观点，并且从那是开始就暗下决心：等我有了孩子，一定要坚持给TA朗读！现在我马上要当妈妈了，所以就买了这本书，希望在宝宝出生之前好好学习一下朗读方面的知识，为今后做好准备。^_^希望更多的爸爸妈妈也能加入给孩子朗读的队伍，一起给宝宝朗读吧！
1,便携，配置主流，做工不错，很有档次的一款本本，一直很喜欢，终于到手了，喜欢。。。。。。而且赠品比较超值，送的内存和硬盘都能应用到本本上，不然自己也要买的，VISTA系统没有传说的那么不好，个别设计还不错，散热很好。
1,"性价比高,外观好！还是要看看价格 毕竟3400的机器 同样配置的机器早就超出购机预算了 老祖宗说的好 一分钱一分货嘛！ 只要东西皮实 不出现什么大问题 就对得起这个价格！它的外观设计还是非常与众不同，机身中央的镶嵌的logo设计有点小资情调，配合机身润泽的钢琴烤漆，整体外观细腻精巧，让人爱不释手。"
1,《贝贝熊系列》是我儿子最喜欢的一套书。没上小学时，他每天晚上睡觉前总要我重重复复地讲前面几集给他听。上小学后，我再买了余下所有的故事，每星期学校要求写读书笔记，他就自己读，学着去理解故事的含义，然后抄下好词好句，写下简单的心得。每星期的读书笔记都得到老师的赞扬，他也从中明白了不少生活中的道理，还常常活学活用，搬来与我讲道理。
1,酒店服务不错，本来我订的标间，到了之后我要求换成大床间，酒店爽快的帮我调换了。其他各方面服务也很到位，每天有报纸 水果 咖啡 茶等免费供应。 地理位置离市中心也很近。 价格吗 由于我也没有去别的地方问价格 所以就不加评论。 总体来说这次还是很满意的。
1,佘自强，“广州汤王”，刚从北方来到南方以前还不知道，呵呵这还是买完书才知道的，不愧是名人，看来我的选择是对的，书确实有价值，对于南北的差异身体还有些不适，随着时间推移他的效果才慢慢让我看到了，经得起考验，他将中草药与日常饮食进行融合，和我们的日常生活紧密联系，让我们“健康生活”，也越来越喜欢广州的“靓汤”文化了，呵呵
1,不知道‘秘密’的作者有没有采访过本书的作者，从时间来看本书作者应该是更早了解了宇宙的秘密：‘万物皆为一物。当你想要某种东西时，整个宇宙会合力助你实现愿望。’初读会以为是一本像‘壹千零一夜’的某个神话寻宝故事，其实书中的故事寓意深刻，非常耐人寻味，对于想了解人生意义和追求自由快乐人生的读者，本书不会让你失望。读罢本书，我有一个冲动，很想立刻去做我想了两年也没做的事。
1,介绍的教育方法非常的有操作性，像施展了魔法一样神奇。原来我的宝宝（4岁半）弹琴的时候很调皮，我很生气，而她也觉得委屈，后来就变得不肯弹琴了。用了这本书教的方法，现在我们两个都很愉快，她的进步也很大。家人看到我们俩写的纸条，笑得几乎走不动路：上面有她的三条办法：把琴扔掉，不弹琴，和乱弹琴。当然在我的引导下，她自己划掉了，只留下我的那条建议：每天弹一次，好好弹！
1,平凡的记录不平凡的费德勒，有过辉煌，有过失落，有欢笑有泪水，相信他的路途依然精彩，胜也精彩，败也精彩，他的完美在于追求完美......过去喜欢，现在喜欢，将来也一直喜欢，这么一个人，创造完美，赢了多少，输了多少，付出多少，收获多少，ROGER 将继续完整他的人生，让他更加美丽，我们将依旧支持，默默注视，看他怎样打出完美比赛，画出完美人生。
1,"机器比较轻,2G是2条一G的内存.音箱的音质一般.呵呵.原来是DOS系统,回来后直接装上XP.速度不错..配置比较高."
1,"很好的酒店,很规范植得一住.餐厅一般不应该的,不知道为什么. 宾馆反馈 2008年4月17日 ： 餐厅现已重新装修，用餐环境较以前要好的多。谢谢您的宝贵意见！"
1,白色，很漂亮，做工较好，改XP很容易，下个带SATA的asus oem XP，直接安装，没问题，驱动只有无线的不对，上网下载就好
1,"闺蜜总是在半夜三更给我诉苦，说她十分想念某某某，甚至想得废寝忘食，在那个男的对他呵护备至要星星给星星要月亮给月亮的时候她三天两头玩失踪，如今人家有了女朋友她就要死要活了。我说这就是犯贱，这就是得不到了才更加爱。就像米娜姐说的一样：爱的时候,做再多事都不嫌麻烦.不爱的时候,按个手机号码都嫌费力。我决定把这本书借她看看，让她觉悟，让她阴暗的心里面重见阳光。"
1,买的第2个epc了，第一个是第一代701，如果想买笔记本请不要购买epc，如果是移动办公、经常出差，epc是最好的选择，华硕的品质，是其他国产贴牌上网本无法比的，物美价廉。
1,性价比较高。 IBM被收购后从贵族机子变成了大众机子，大家都可以过把瘾
1,个人挺喜欢书中主人公们京腔味浓厚的说话方式，更佩服作者的那些经典台词作为休闲读物，绝对可以赞一个！整本书的内容还算是以一种轻松的方式从头至尾的缓缓写来，只是在最后安排了一点小小的意外，男主角的不告而别，当然最终的结局是喜局，可是又总让我觉得有一点点的牵强...可能是我从一开始就挺喜欢男主角，所以个人很希望作者能把这个人物再描写得丰富点，但同时又挺喜欢作者简单勾了的男主角，矛盾啊...
1,轻巧，电池强劲，键盘尺寸够大，打字不吃力，cpu性能够用，WLAN性能不错，摄像头比较垃圾
1,外形简约，性能强劲，能够满足多数办公和影音娱乐需求，系统装的也很快，注意网卡的安装与其他驱动程序安装的方法稍有不同，需要注意。
1,儿子回家时，我把书拿出来和他一起找，小家伙很厉害，不起眼的物品我都没找到被他一下就找到了（真的别太低估小孩的能力），这下更来劲了，更兴奋了，吵着要我给他念要找的东西（下个月满四岁，还不识字），吃饭的时候都不舍得放下，看到儿子这么喜欢真开心！其实我自己也很喜欢，晚上等儿子睡着了，我一个人还找了一会呢，但觉得还是和儿子一起玩更甜蜜，头挨在一起，人粘在一起，心也贴在一起。
1,杜比认证的音箱不错，一直以为本本的音箱很弱，收货后下载了一段变形金刚的高清预告片，效果就本本而言，相当不错了 led的屏幕效果还是不错的，亮度好像均匀一点
1,包容是一种修养一种成熟，这种修养表现出来的不是软弱，相反是力量是魅力是过人的目光与胸怀；是对于人性的深度理解，是对于利益的整体把握，是对于个性的充分尊重，是对于共存原则的贯彻与实施。包容是一种整体观念，是一种高瞻远瞩。试想一个成熟的人，怎会在一个耍无赖的小孩面前耍无赖?试想一个君子在小人的伎俩面前怎会与之计较？书的内容好，值得一读
1,"材质很好,重量不重破难关,适合女生用,小巧的. 键盘也很大,6*电池液很耐用"
1,"帮朋友订过,大家反映还不错,住宿条件满好的.房价不贵,早餐品种还算丰富,中午自助相当便宜,建议有机会可以去尝尝.下次还是会住的."
1,在各大书店都看到过金波老师的名字，但一直没有看过他的故事，这次买了这本书，主要是认为有必要培养孩子丰富的语言表达能力。买回来看了以后，发现大人读也很好，可以回忆自己的童年梦想，而且读诗需要放松心情放平心境，可以让自己焦躁的心平静下来，非常好。决定每天早上都要起来读一首，让自己一天都能心平气和，不要为各种琐事烦躁。
1,天府丽都喜来登饭店不错。价格比较实惠。硬件绝对够五星标准了。环境也很好。服务很到位。2007年3月入住了一次。寄存行李的人很友好 位置靠近人民广场，绝对是黄金地段。 就是门口的那条路是单行线，这个要大家注意
1,1. 待机时间长，8小时左右； 2. 重量轻，1.5kg左右，出差带着方便； 3. 这个配置，基本办公，听听音乐，看看电影，够了； 4. 上网的基本设备都有了，摄像头，麦克风，喇叭，有线，无线上网，蓝牙，够用了。
1,一口气看完，感觉sales的生活是如此的跌宕起伏，一张order可以让你平步青云，升到一个很高的位置，也可以让你一下子跌入谷底，以前所作的努力都付诸东流。这其中除了销售技巧和人脉外，还包含着很多运气的成分。好好把握机会。不仅适合做sales的人阅读，对其他的工作职位的人也受益匪浅，尤其对于刚刚步入职场的学生，或许可以对职场有个感性的认识。
1,我觉得这篇小说越写越好了，后面的感觉比前面舒服的多，前面亦舒的味道太多，后面写出来自己的感觉了。厉择良在写意面前应该是很矛盾的心里吧，他的腿其实带给了他很大的自卑，至少在沈写意那是这样的，所以才会有这么多矛盾的行为。当厉择良想从床上起来时，侧眼看到那一边被迫卸下来的假肢，面色一凉，人也闷了下去，这里看的人真难过。要厉择良在写意面前坦然的露出这条腿需要的不是一般的勇气！
1,东西不错，烤漆面漂亮，机器运行稳定，速度快。东西不错，烤漆面漂亮，机器运行稳定，速度快。东西不错，烤漆面漂亮，机器运行稳定，速度快。东西不错，烤漆面漂亮，机器运行稳定，速度快。东西不错，烤漆面漂亮，机器运行稳定，速度快。东西不错，烤漆面漂亮，机器运行稳定，速度快。东西不错，烤漆面漂亮，机器运行稳定，速度快。东西不错，烤漆面漂亮，机器运行稳定，速度快。
1,其实，非常感谢从来没有见过面的任老师。这本书真的很值得推荐给想考研的学子们！本人也是大学里面的老师，这本书真的很棒！希望更多的人，可以通过自己的努力，实现自己的梦想！
1,送货快，下单后第二天下午就送到了。应该未被拆过，特意看了下，连个指印也没有。Vista也还好，不觉得比台式机开机时慢很多；送的包包很喜欢，好多小包包，很有趣。
1,先說說書的品質吧，沒有什麽可以挑剔的地方，挺好的，裏面正文的排版也讓人看得很舒服；現在說說裏面的東西，感覺張小嫻的洞察力很強，很多的情感問題生活問題都能說得簡單有透徹，每次看了裏面的文字后都一種恍然大悟的感覺！不錯不錯~~~我覺得裏面關於一些心理方面的成份蠻大的~就是分析雙方的心理需求或者什麽的，通過這樣的方式讓讀者折服。
1,突出之处节能，电池续航时间长。小巧精制，可以这样她，真是十分不错的上网小本本。
1,房间一般，隔音感觉不是很好，地理位置不错，就在江边，靠江的房间开穿远眺就能看见大佛。服务态度餐厅的比前台好很多，早餐品种少了点。
1,环境安静，离火车站近。房间布置不错，早餐以中餐为主，丰富。下次接着住
1,价廉物美，2999买到这个配置，很多买了上网本的朋友都说值。自己装了XP+sp3+IE7+WM11，驱动上官网自己下载安装的，过程很顺利。运行xp非常流畅，安装了office2003、Acrobat Reader、WinRAR等常用软件后仍然保持良好的性能。
1,1.外观不错，颜色我很喜欢； 2.散热效果还可以，开了一天，电池这里有一点点偏高，比同事用的那台联想散热差一点 3.键盘按键挺软的，赞一个
1,真的是不错，我给2岁半的儿子买的，开始还有点担心，觉得这每本书都有近30页，会不会太长了。担心他坐不住，结果，念完一本又一本，一晚上要读完5、6本时，首先受不了的就是我了。书很有意思，经常被逗得咯咯直笑，有时又紧张的不行。推荐给同事，她给自己6岁的女儿了，能够自己阅读，也非常喜欢。难怪是好几周的销售冠军呢。
1,这本书最大的优点是所有的儿歌都很顺口，不是很长，一般读一两遍都可以背下来了，毕竟给宝宝念儿歌，一边念还要一边拿着书很不现实嘛；还有就是这些儿歌都有一定的教育意义，听得多了对宝宝的行为习惯还是有一定好处的。而这本书的缺点就是纸质不怎么好，被我宝宝（半岁）抓在手里一下就撕烂了，唉。
1,今天刚收到未用 应该不错 先不枉下评价等用一段时间再给发表使用情况、心得体验给大家提供参考
1,很高端的一款机器，以前卖场都卖的很贵，415出来以后，这个就降价了。大家反应这款的性能都不错，镁铝合金，防滚架。。。对于4999的价钱来讲，确实很无敌
1,共三本。我女儿刚看了二本，生物和文明版。女儿特别喜欢生物版中关于恐龙和史前人类，刚拿到生物册，第一个晚上就讲了一个小时。现在她正在阅读文明册，对英法百年战争中的黑死病兴趣多多。就整个文明册而言，主要涉及的是世界的发展史，中国方面涉及的内容比较少。目前我只看到关于孔子、兵马俑及中国古代的一些知识，有点不过瘾。但图画不是很精美。我有一个朋友的孩子一看到科技册，直觉上认为画太难看。
1,环境不错。交通也便利。服务不错。下次还会考虑的
1,这是这个系列的第二本书，也是我看完第一部作品后迫不及待的想看的。同样花了我一个晚上，把整本书一口气看完才肯罢手。中国地大物博，悠久的历史使书中各种探险有可能存在，所以加深了书的可看性。甚至我还想，如果我还年轻，也许我也会追随他们一起云游四海。虽然盗墓贼的出发点不好，但是盗亦有道，那些讲究门派规矩的盗贼们可以帮助那些深埋在地下的历史遗迹重见光明。
1,每次都住这里！ 尤其是餐厅，让人流连忘返：）
1,服务还可以，房间好，888888888888888888888888
1,外观时尚，使用很好，三天的全天开机工作测试和四天的正常使用，没有出现问题，第一步已经通过了，估计是不会出问题了。呵呵
1,很引人深悟的一本书，柏杨老师讲的应该来说很客观，有些人不认同，再或者强烈的批判，也许是因为语言有些过激和尖锐，但是我们总是在埋怨，亦或许是自满得不知所以，但又这个功夫的我们却从来不知道自省，身为被指责的对象，我们应该好好想想：我们是不是做得很好了，是不是没有什么能让别人指责的了！或者说柏杨老师因为那10年的冤狱有些愤慨，但是他同时在唤醒我们内心深处的某种东西！
1,因为悦华酒店没房间了才通过携程定泉州酒店的。其实泉酒的整体比悦华大气，装修也很讲究，唯一比不过悦华的就是服务和早餐。
1,1、屏的外观比较漂亮，比我这前买的那个好看。 2、性能还行，一般办公用用够了。
1,"漂亮的,配制很不错的.一见倾心也不过如此的. 价位也可以接受的.到达很快就是快递公司不让人满意的."
1,《台北故宫》一书是纪录片的文字化，分为几部分，如果你是先看纪录片再看书的话，会觉得前两三个部分的内容很熟悉，因为大部分在纪录片中已经看过。个人认为书中后面部分很好看，介绍了台北故宫的最有名的文物的一些小故事和一些与台北故宫有渊源的人物，比较有看头。看书介绍文物的同时，还可以配合纪录片一起看，是视觉与感受得很好的结合。如果先看书再看纪录片的话，应该会知道哪些是纪录片中重点看得内容。
1,4399元的时候抢购的。配置高价格低。很划算。机身整体外观比较稳重，做工还是很结实的。配置也算比较高。能够应付现在主要的一些应用。而且毕竟是thinkpad。散热之类的做的还行。键盘手感也还行。比起T系列来是厚重了一些，不过价格摆在那。。。
1,东西不错，外观设计的好，做工精美，质量可靠，京东的送货速度很快！ 京东的东西质量还是比较放心的，没有多大问题，包装也不错，发货速度赞一个，基本当天都可以发货。东西刚用上，很不错，比想象中要好。
1,3月12日入住。 价格方便，在哈尔宾算比较高的，而且是比较老的酒店，设施比较的旧，隔音的效果不好。 前台其实还不错，没有前面的哥们说的那么寒碜。交流下来还是挺愿意服务好客户的。 晚上没有骚扰电话。 应该说如果你觉得价格合适的话，应该算比较不错的宾馆了。 火车站去那边8元的起步费。飞机场的话，做门口的大巴到火车站，只要20元，然后再打车。交通还是比较方便的，步行就是秋林，远大。吃饭的话去远大楼上也不错。
1,配置合理，功能齐全，酒红色很好看，键盘很有弹性，手感好。 现在的价格也不错，没有发现亮点和暗点。 京东送货够快。
1,这本书从我买来到现在我已经看了3/4，觉得还是很好的，发现原来只是自我感觉良好。本来这书是买给我妹妹看的，觉得她经常抱怨，想让她看看，改变一下，我在给她之前自己看了一下，现在才发觉我对她的一切作为也是一种抱怨，我也要改变自己的做法。细细品味，世界其实很美好，只是我们看的角度。。。很好的一本书，因为是外国人写的，很多逻辑和国人不一样，不过里面有很多话确实很对。
1,书拿回家两天，女儿一直粘着我给她念。她很喜欢！我也很高兴！！！
1,"听说是柳州最好的饭店了,原来是市政府的招待所.靠近一条河,景观不错. 出行交通也还可以. 房间没有留下什么特别深的印象,但是觉得底楼中餐厅的服务员态度特别好, 勤快,亲切,吃顿饭送了好几次热毛巾."
1,外观可以，整体配置不错，已改XP系统，外观可以，整体配置不错，已改XP系统，外观可以，整体配置不错，已改XP系统，外观可以，整体配置不错，已改XP系统，
1,"这是一个关于双胞胎兄妹的故事,这对不幸的双胞胎却遇到了富有爱心的夫妇,虽然之前他们也历经磨难,那趟他们一直没有机会赶上的火车,那清晨迷路后却意外地闻到浓浓的肉香味时,感动的不仅是这对双胞胎,还有我!相信吸引读者的不仅仅是故事的情节,当然情节也是相当的精彩!在给本书下评论的时候,我选择了适合它的人群,其实这本书,不仅适合那些未成年的孩子,也是成年人的良师益友!"
1,之前看过电视剧《双面胶〉，所以买了《蜗居〉回来看，一口气读完后，感慨为什么是悲剧结尾。在读大学的时候，我总是认为世界上只有黑色和白色。步入社会后，发现更多的地带是灰色。小说中的宋，除了已婚的家庭背景，和海藻是那么般配。海藻也在宋的呵护下，充分满足精神上和物质上的满足。虽然小贝的离去让人失望，但本以为能以大欢喜结尾，但道德上告诉我们情妇总是不能欢喜得过一辈子。期待电视剧版的《蜗居〉
1,威廉&#183;欧奈尔的经典之作；有朋友看了我买的书后说；不适用我们国内的A股市场。我刚刚看了几章就把我吸引住了！人性的弱点是不分国家和文化的~结合我自己八九年的炒股票经历——书中描绘的情景就像是我之前和现在所经历的一样！我为什么没有在几年以前看到欧奈尔的这本书呢？书中的很多理论对我们散户很有借鉴意义。强烈推荐！
1,外观比想象的好，各个借口位置设计比较合理。笔记本刚好够用，紧急实惠。 声音散热比较小。
1,"房间很干净,服务很好.宽带上网速度很快.是商务旅行的理想选择. 但是走廊的一头总是开着大门,透进很大的风.门外好象正在装修,有点杂乱.跟门内环境差距较大,希望改进. 宾馆反馈 2008年5月7日 ： 您好！感谢您对大连银帆宾馆的中肯评价！近期大连银帆宾馆主楼装修改造工作已经完成，您所指的应该是康体俱乐部大楼的短期工程，现将尽快整修，感谢您在银帆装修期间一如既往的支持。"
1,小说很早就看过，一直在纠结要不要买来收藏。买，肯定有人说不就是一本青春小说，还是半个同人形式的 意义不大；不买 可是书里那些往事曾经是触动我的，真实的，让我不由自主地有共鸣的；结果还是情感战胜理智~ 哇咔咔到货的时候专门看了看 嗯 有盘~（虽然我私底下更加喜欢另外一版《此间》的广播剧）~书的封面有点压痕 不过都还好~最后让我照搬一句不知道哪里来的签名，经不住似水流年，逃不过此间少年。~
1,性价比高，散热好，底部一点都不觉得烫，风扇噪音也比较小。 加上送的1G内存，vista跑得还挺快，上网速度也比原来快，因为还是原来的宽带，那么应该是本本的功劳了
1,这本书是买给我妈用的，但我也从中学到了一些。我觉的这本书的最大优点在于它所用的食材对于普通老百姓比较好找，市场上都有卖，价钱也不贵，做法也容易，很实际。不像有些书上写的不是食材中国没的卖，就是超级贵，贫民根本卖不起，又或是做法很讲究，佐料都难买的那种....这本书虽然内容是少了点，但总的来说还是好的，希望以后多有一些适合中国老百姓的书出现。
1,豪华房很新很漂亮，象套间一样大，有一个专门的行李间；阳台很大，洗手间既有浴缸也有淋浴，还有个小梳妆间。服务也一流，都是见过世面的姑娘们，专业而得体。餐厅也很好，“吃在丁山”嘛，就是价格也是五星级的了。总之是个超级好酒店，专为住这儿，也值得来南京一次呢！
1,MP3文件太大，本想放在手机里常常听听，但无法选择段落，每次都得从头开始，不大方便哦！再就是，随书的光碟很易损坏，可否将MP3文件放在网上，购书者凭书的序列号或别的什么上网下载，就避免来回寄书的麻烦了哦！
1,本次出差临时入住此酒店（携程推荐此酒店入住率比较高）。酒店为挂牌4星，环境不错，卫生间内设施陈旧，至少10年没有更换设施了，标准A.B房的卫生间面积4平米左右，比较拥挤。前台服务已经达到4星标准，餐厅服务管理有些欠缺。酒店签约客户标准A房只有180元（是否含早情况不明），相比携程的价格还是有较大差距，希望在价格方面携程还要多与酒店交涉，给我们会员更好的服务。
1,买的是很用了?，又申请了价保，还是很超值的，外形很好看，就是装系统的是很麻烦些，先装的xp很烦，最后又装的vista，跑起来还是很爽的，就是还要自己下载驱动，总体来说还是很超值的，512独显也是相当不错的
1,"门面太小,房间也小,连出租车司机都不熟悉, 有待改进哦"
1,磨砂表面真的不错，一点儿都不留手指印；自带的系统恢复软件让人觉得很放心；IBM的做工也不错；键盘灯蛮不错的，风扇真安静啊。
1,"玩游戏和做设计还可以 ,用的XP系统,2G内存可以开3个虚拟机,可以同时开Adobe一套和AptanaStudio, 外加魔兽, 还流畅 不卡 不错了"
1,说它不错是因为这本书上的习题与学校的教材同步。一年级的上学期孩子就想买这本书，当时感觉学校的作业量太大了，没必要再多作一些题。一年级的下学期作业开始减少，为了考试之前的复习，买了这套书。平时我们是不作的，只是在考试前作，这样可以检验孩子对知识的掌握程度，然后再针对掌握不扎实的知识点进行重点复习。
1,： 配置不错，奔腾双核感觉也不差~价格合适 不足： 装系统比较麻烦~ 总结： 不错，对得起这个价钱
1,距拱北关口近，标准间太小，豪华大床不错，服务好 早餐不好太草率了其他還不錯
1,外观漂亮大方，功能适合办工，声音在笔记本来说很不错了，加了根内存，其实用VISTA也不卡的
1,外观漂亮，就是不知道是不是耐脏。这个白色不是钢琴烤漆，不容易收集指纹，还好。配置比较均衡，自己加个内存就好。
1,海滩有点名过其实了，也确实远了一点，交通也不方便，但酒店本身是很不错的。 在尖沙咀半岛酒店（靠近香港青年会的那一边）有黄金海岸酒店自己的专线巴士，来回都是免费的（楼上有说要收费的，可能是和司机沟通不好）。班次可以到酒店的网站下载（，不建议其它交通方式，这是我的忠告！ 附近有超市，茶餐厅和麦当劳，要求不高的话吃是没问题的。
1,孩子不同的年龄阶段都需要不同的教育方法，一直为怎么教育好小孩子苦恼，看到则本书后，真的有找到导师的感觉，这些方法我和老婆都很喜欢，认为不仅仅适用于几岁的小孩，即使上了小学、初中、青春期，这些方法也仍然能够适用。感谢则本书，让我改变了做为一个父亲的心态，希望即将成为父母或已经成为父母的人都能看一看。
1,预订海景花园大酒店已经没有房间了，于是换到了这里，看到外表有些疑惑，因为酒店并不大，入住时却得到了出乎意料的惊喜：前台服务很温馨，cheak in的速度很快，门童很热情，主动给你提行李，如果开车去会记住为你留好车位；房间面积不小，装饰得很精致，还有果盘赠送；环境稍差些，看不到海景，但是从酒店出来，穿过马路一直向海走，再过一条马路就到了著名的韩式烧烤---李朝木炭烧烤了，另外一点不足就是旁边有一家KTV，晚上能感觉到有些吵。总体感觉很不错，可以给4星。
1,"【荐书】其实,这本书不仅仅让孩子认识时间、方位、颜色、数字、味道、反义词以及体会各种动作,还有各种各样惟妙惟肖的动物出现,还有好几国的风土人情,不同的风景特征.6岁的儿子和2岁2个月的女儿都喜欢,当然,给他们讲的时候,侧重点各有不同.喜欢这些让孩子能主动一看再看的书."
1,好文章是品出来的，在多次阅读过程中，发现这确是一本极富创新的理论新著。里面涉及应用的批评方法是我们做文本批评极好的范例。
1,╮(╯▽╰)╭ 哎……终于结束了。这场情感交割，没有赢家。才情横溢的作者，勾画了这么一个故事，美丽却也残忍。失去心爱的人，得到世界又如何？也许主人公也是迫不得已，但是，多少有些……自私的成分。对于皇帝，他的确很难做到专一，尽管机关算尽，也许女主人公最后攀上高位，然而，不能跟自己爱的人在一起，是不是有些遗憾？这再一次验证了一句古话：有得必有失！看自己如何把握衡量了……
1,用过的所有笔记本中只有thikpad的温度是我可以接受的，连续使用10个小时以后键盘表面温度和开始一样
1,书一拿回来，忍不住一口气看完，对自己的心灵触动真大，看完整本，居然有种想流泪的冲动，可能书中许多故事，许多思想、情绪似曾相似，而自己却身陷其中，那么茫然，无法解除，终于找到，那么亲切温馨，我真得看清楚自己，有你带路真好，书中许多细节，真的需要细细的回味，反复的看，不断的收获，真是一本非常棒的书。
1,"改了招牌以后第一次光顾,感觉没啥变化.自助早餐涨价了不少 宾馆反馈 2008年8月8日 ： 感谢您对本酒店的支持！我们将一如既往地保持5星级的服务标准， 欢迎您再次下榻， 衷心祝您身体健康， 工作顺利!"
1,京东办事效率很高，速度很快，头天下午的订单，第二天上午就受到货了，不过京东客服假期休假却播放无人等候录音，导致浪费很多电话费。
1,长城是老牌子了，朋友相中这一款，配置高，外观很漂亮，音量和播放都是触摸式的，很不错，京东包装也很扎实。
1,我觉得这是本家长和孩子都会喜欢的图书。针对生活中孩子会面临的各种问题，我家宝宝看过书了，如果遇到类似的问题，他也会想到书中是怎么讲的，就不会那么紧张了。
1,外观很棒，全黑的质感我喜欢。 电池确实超级耐用，放电了将近7.5小时（看电影，上网）才提示自动关机 屏幕质量好，没有找到坏点亮点 巧克力键盘对于手比较大的人来说，也很好用。很少出现盲打错误。
1,外观精美，轻触键操作方便，官方网站软件资料下载更新及时。 360发货速度快，口碑较好。
1,"这家酒店真的不错.在这住了4天给了我3 个惊喜: 1.房间比我想像的要大,还有沙发. 2.每天有水果送. 3.服务员竟然在有条件的情况下免费帮你洗衣服.(帮我洗了一条牛仔裤). 以后有机会再来无锡我还住这."
1,除有点笨重外，散热，屏幕都不错。能当台式机用。用了一个月了，还没发现有任何问题。
1,套房很不错。风景也很好。唯一美中不足的是酒店的位置比较难找，交通也不大方便。
1,酒店很超值，干净卫生，尤其值得一提的是在前台办理入住时服务员看到我们携带一个小孩，主动提出酒店有大床带单床的房间，而且价格不变，服务热情，周到，价格合理，真是不错的选择，下次去肯定还选他。
1,n280性能还行，做工细致。用过好几款上网本，键盘算是上网本当中最舒服的了。wifi配合我的tp-link 841n实现300m速度，很棒！无线驱动安装最好去华硕官网下载最新版，随批次不同有三款不同无线网卡。SD卡槽完全没入机身，不像有的上网本露出一节在外面。本批次硬盘是希捷9，HD性能测试略低，用用感觉一般，声音小。屏幕最高亮度比其他上网本略低。
1,此书是从基因科学的角度阐述人类的起源，和我们传统的民族观，历史观大相径庭。根据基因科学家的研究，现在地球上可以找到的所有人类的祖宗是共同的，都是那对非洲亚当夏娃。作为中国人，一开始很难接受，其实外国人开始也不接受。不过，相信的学者，包括百姓越来越多，坊间越来越多听见关于黑亚当夏娃的议论了。耐着性子读完它吧，挺有意思的呢。
1,离火车站、汽车站较远，不利于自助游！但酒店的环境和服务还是不错的......
1,投诉内容： 2009-5-22收到一张发票号码：02840189(上面写着订单号：4491950）金额为：8591元，但是实际上4月9号订单号：4491950 金额应该是：11808元，这样的财务水准是不是有点问题？？？？？？？？？？现在汇款（货款）金额与发票金额不符财务没用办法入账？？？？？？？？？？？？？
1,时间跨度比较长，以福贵一家的坎坷命运为主线，讲述了福贵和他家人风风雨雨几十年的遭遇，而不同年代的遭遇，透出一个时代的缩影，从解放战争、大跃进到文化大革命，最后，他们的生活已经变得麻木，失去的太多，面对生活，大概只剩下“活着”。小说露出一股悲悯情怀和伤感的黑色幽默，它将历史浓缩为个人命运，而命如蝼蚁般的个人命运，只能是枉自兴叹的生命之痛。能活着就好！很好的一本书，不要错过。
1,性价比较高!现在看都没有了!庆幸自己出手了!自己用着非常不错!就是不知道为什么没有进网许可
1,"房间内环境还是不错的,就是上网有点贵,12块一个小时,还有门口修路,门前环境不好"
1,这本书也是被铺天盖地的评论所诱惑而买的（太跟风了，这个毛病不好），读的时候，脑中老是浮现这是张爱玲的自传性质的小说，所以把书中每个人物去对号入座，满足了窥私欲，对文章的语言等本应该注意的东西倒没有欣赏，这样的读书心态很不好很不好！！！总的来说，这还是一本很好的小说“这是一个热情的故事，我想表达出爱情的万转千回，完全幻灭了之后还有点什么东西在。”
1,"绝对的市中心位置,对面就是丁香莲,隔壁就是卖最好的湖笔的王一品总店.步行5分钟就是最热闹的红旗路,定的是豪华双人房,因为"
1,服务态度很好，但就是做事拖拉。 地段位置还比较方便。
1,"这次住尖东,其实也不是很不方便.走路到弥墩道或者去海港城都不远.离星光大道很近.房间是边套的海景房,还不错,很干净,面积也大.每天有两小块巧克力送。有迎宾的水果。海景嘉逸的大堂比较小，让人感受不到五星级，服务和早餐都还不错的，周围环境也好。除了海景，离公园也很近。比住在海港城附近更舒适。"
1,6月下旬去丹东，在携程网上预定了丹东国际酒店2天的住宿。24日傍晚抵丹东，便打车去酒店。丹东城市不大，一说国际酒店，司机都知道。酒店在一条不起眼的小街上，周围环境一般。到总台一问，接待员说没有收到携程的预定单。我给他们看了手机收到的携程确认短信，接待员说那好吧，就按携程预定价住下吧。 我说，能不能给个朝鸭绿江的房间，接待查了一下电脑，说可以，不过房间小了点，我说没关系，反正一个人住。安排的是15层（接待员还真满足了客人看江的要求），进了房间，往窗外一看，蜿蜒的鸭绿江就在眼前，朝鲜一侧的房屋和农田也清晰可见，稍远处隐约可见鸭绿江桥！房间略显旧了些，但床、被还较整洁、干净。这江景房的性价比应该是超值的！ 想当年国际酒店在丹东大概是数一数二的，现在来看，装修上比不上新开业的，大堂不太光亮，楼层的电梯口也只开了一小部分灯光，但服务上还不错。服务员遇到客人都会问好。特别值得一提的是23楼的旋转餐厅，可以与深圳国贸和上海新锦江顶楼的旋转餐厅相比拼！毕竟是在丹东那么一个边境小城里。20元的自助早餐较丰盛，再加上可以面对鸭绿江，饱览异国风光（尽管是农田沙洲景色）。在丹东国际酒店2天的停留还是给我留下来不错的印象。
1,暗蓝色钢琴烤漆上盖外观时尚、整机看起来不厚也不太重，接口挺多。模具的设计和质量都还可以。镜面液晶屏蛮清晰蛮亮不错。运行速度和配置也符合产平介绍，达到应有水平。
1,1、大品牌，值得信赖。发票保修卡齐全，保修两年， 售后应该有保证。 2、做工不错，屏幕很好，没坏点亮点。 3、体积小，方便携带。 4、自带XP 家庭版系统，内带操作系统恢复盘和驱动光盘。
1,"房间可以,特别的套房,非常不错, 就是餐厅太脏了,早餐搞得没胃口,"
1,从开始读关于家庭教育的书，到现在也不知读了多少本。但至今为止我认为这本是对我感触最深的一本。书中的阅读是学习的魔杖，让我最受感动。女儿今年读一年级，学习很轻松。她在中班时就可以自己单独看小说。曾经很多人问我，你女儿是什么时候认识这么多字呢？一直以来我也感到很奇怪，她是从什么地方认识这么多字？看了这本书后我才明白原来她是在我给读故事中学会的。写这么多就是想说这真的是一本难得的好书！
1,是一家不错的酒店，如果说问题，就是两次我没有打开“请勿打扰”的情况下，酒店服务员敲门，我还没有走到门口的时候，他们已经擅自开门了，呵呵，以后入住的，特别是正在进行敏感事情的朋友要注意哦！！ 补充点评 2008年7月2日 ： 我在网上订房时，补充说明要求“15F或者16F，最好能够看到柳江的房间”，安排房间时满足了我的要求。 宾馆反馈 2008年7月31日 ： 非常感谢您对我们服务提出的宝贵意见，给你带来不便我们深表歉意，我们一定加强员工的培训，避免出现类似的服务差错。我酒店按五星级标准装修的24-26楼豪华观景客房即将竣工，期待您的光临！！
1,1 钢琴漆，很滑很亮。 2 LED宽屏，看起来很爽 3 按键很舒服 4 活动赠品多
1,外观好看，适合女生的本.做工扎实，屏幕绚丽，立体声喇叭音质好，整机发热量低，散热较好.运行时声音小。
1,喜欢微微的勇敢和敢爱敢恨，那是怎样的勇气让她那样的义无返顾？陈孝正总是以为，无论他什么时候到，微微总是在原地等他，但是他怎么可能理解微微在等待的过程中需要多少次的自我安慰和期待？他给她的，我倒感觉像是依赖，因为习惯，所以有了依赖，就算等若干年之后他愿意为了微微放弃一切的时候，也很那分辨那到底是爱还是男人征服欲望的驱使？微微执着的让人心疼！
1,房间还可以（我住的是二十一层），但空调不太好--温度不好调节以及噪音不小，淋浴水量也不是很大。另外就是酒店电梯太少了，只有两部可以用。每次都要等好长时间才能等到电梯。下次估计不会再住了
1,整体外型比照片好看很多，外壳也有防指纹的设计，发热量也可接受。
1,预订之后才看的别人点评，立刻感觉有点紧张，甚至都想取消预订。真正入住以后，才发现没有网友反映那么不好。房间设施还是可以的，灯光设计比较舒服，宽带上网、免费长话、房间服务都还不错，早餐也还可以。店前确实在修路，但没有那么恐怖，我住的临街房，双层玻璃完全可以隔音的，当然我是住在15层。打车也还没那么困难，只要不在早晚高峰，还是比较方便的。周遭餐饮也还丰富，但要走对方向。368的房价，相比安徽消费水平来说，的确有点不低，但总体还是可以选择入住的。
1,"距离川沙公路较近,但是公交指示不对,如果是""蔡陆线""的话,会非常麻烦.建议用别的路线.房间较为简单."
1,分门别类的介绍了很多外敷、内调的方子。正在按书中的一篇治痘痘，期待效果。觉得要是有些方子能增加一下详细的使用方法就好了，如一天用几次，敷脸的话大概多长时间。痘痘篇中有很多外敷的面膜和洗脸的药粉，尽管开篇介绍了痘痘的分类，但在这些上没有阐述适合哪种痘痘或所有痘痘都适用。还有不足的就是吃药膳也要分体质，书中之介绍了药膳的材料，做法，作用，没有强调哪些人不能吃，那些人减量吃。
1,相比1000H，电池不突出。 待机时间更长。 上网本的基本功能都有了。
1,福建山水大酒店 1、看来升4★还是有道理的，服务不错（专人接待和洗衣能比较及时地送达）； 2、早餐的皮蛋瘦肉粥不错（尽管第三天早上的有点糊味）； 3、二楼的餐饮值得推荐（招待客户时）； 4、设备比较齐备，有棋牌室，尽管没去打麻将，看了看环境还可以； 5、地理位置不错，窗户对面居然就是－洲际酒店，但打车比洲际方便很多； 6、房间上网速度不错，有600KB/s的样子； 7、不足嘛： A、福州酒店好像都是一样的问题－－房间购大，但厕所比较小，尤其是马桶的Size……； B、二楼的餐饮无商务套餐，结果比较浪费（按单人50元餐饮计算），已提过此建议，不知是否会改进； C、房间窗户隔音效果比较差。我住在16楼，第一天刮小台风，窗户震了一夜。第二天白天和第三天白天，楼下某车警报器发癫似的直冲云霄……好在房间有个小音响，开到3/4格音量放着摇滚，感觉居然还不错…… D、明显存在的问题：8号中午一点多结账时，结果结账的地方才1个人（而且还在忙着统计“对账单”），同一个柜台的接待处却有3个人，而此时并无Check in的客人，但接待的3人“无动于衷”……（为赶回来看奥运会开幕式，只好要求她们加快或来一个人来帮忙） 结果又遇到刷卡有问题。我还没急，结账的那位却风风火火只会把卡左刷右刷的刷了n次（完全无视系统的“报错提醒”）我再三提醒看“请看看是什么错误信息”，才知道是余额不足。只好分别回房间和到商务中心，共转帐二次，结果还是刷卡错误－－回来后问银行柜台咨询才知道是：因为短时间内刷卡太频繁，银行保护把卡锁了…… 其实：中午时间本来就是Check Out人比较多的时候（从我开始结账到结账完毕，共有四位客人在Check out，却无人Check in），前台人员配备明显不合理；如果结账的那位女同志仔细一点，发现刷卡有问题时多看下提示，就不会耽误客人如此多的时间，而且不会导致锁卡（好彩为看开幕式归心似箭，提前了1个小时CheckOut，否则……）； 出现问题时，请冷静点处理，居然比我还急（尤其是她那说话的声音又高又尖又快），如果我也象她那么样急一下，不吵架才怪…… 当然，酒店的服务从始至终，包括最后处理卡问题时知道换另外一位接待来处理，服务态度还是可以接受的，总体上此酒店还是值得推荐的，希望能百尺竿头更进一步。 最后，携程的价格比我在前台听的某价格贵了少许，虽然我接受了此价差入住了，但携程还请加油！
1,N280比N270提升不少，但最重要的是电池续航时间真的很长，上网、看电影7小时没问题，一个字，爽！！！
1,学了十多年英语，但一直一瓶不满半瓶摇的，工作几年后，深感英语的重要，就跟一个朋友学。她有多年的英语教学经验（主要是教像我这种学过但没学好的已工作的人），在挑选教材时把市面上的都看遍了，最后选中这个。她的理由就是：这个教材从人物名字的选择，到情景会话和俗语的选择，都和现实贴得很近。比如现在很多美国女孩叫EMILY，书中也有conversion里的主人翁叫这名。现在我学完了1，正在学2。
1,配置好；用了三个小时散热很满意；外型也很时尚，很小巧，跟14寸的大本相比移动性实在是优
1,昨天带宝宝在朋友的小区玩。有工人正在植树，宝宝目不转睛地观察着。妈妈告诉宝宝，他们正在种树呢。宝宝没有吭声。过了一会儿，爸爸过来了，爸爸问，他们在干什么。宝宝说，他们正在挖宝藏。哈哈，宝宝准是想起了弗洛格带着小熊一起挖宝藏的故事。感谢可爱的小青蛙弗洛格，给了宝宝丰富的想象力，一个多彩美丽的世界。
1,第一部已经看完，对第二部满怀期望。合上书本，盛宣怀、张蹇、荣宗敬、宋汉章、陈嘉庚、范旭东、卢作孚，........一个个熟悉的名字从脑海里一一闪过。如果这些为国家和民族做过不同形式贡献的人们，知道在今天这个物欲横流的现代世界，依然有人将他们的名字、他们的事迹传播在广大读者当中，为我们所纪念，他们的在天之灵也应该感到欣慰了吧！
1,酒店还算不错的，价格实惠，服务也很到位，推荐下！
1,"外观旧,停车场小,乱,还另外收钱,不过酒店还干净."
1,书看到今天马上就看完了，作为一本尽量保留当事人经历的书籍来说，内容上有断续，但衔接很好，而且最大的感受是可以一书两用，一是对911文化前后的简单了解，二是可以把本书作为对911文化深入了解的索引、拓展。看过本书，对普利策奖有进一步了解的欲望，这也算读本书的第三收获吧。
1,对我来说，没有比读到一本好书更快乐的事了，《女子生活圣经》就是我翻开不想停下的一本书，我庆幸在二十五岁是能读到它，作者的观点我十分认同，一向认为自己是一个对生活很理智的人，在看到这本书时，我想自己还缺少生活的智慧，洒脱但缺少平衡，这是需要时间打磨的，我需要认真思考这个问题。这本书是一本值得珍藏拥有的，也是一本极力推荐给好朋友们看的读物，作为礼物送给我的闺蜜不错哦！
1,一下子买了2台，同事一台自己一台。。。总体感觉还不错。。电池耐用，屏幕好，键盘好用。
1,各种励志，成功学的书汗牛充栋。自己多年以来也读了不少，后来干脆对于这种书敬而远之。因为，这种书中往往是自我催眠，各种雕虫小技，给人以智慧的实属凤毛麟角。但是郑老师的书，以佛教智慧贯穿，融合现代人的感受和困惑，帮助人转识成智，读后让人觉得内心温暖，同时又加强了智慧的判断力。台湾人的人文主义教育，传统文化的教育，对于人内心世界的关怀可能要比新富的大陆的更加进步一些。
1,"没有桑拿设备,理由是正在维修,但真正的原因是不赚钱."
1,红旗下成长的人见到的只会是红色，并且需要不断以自己的鲜血继续渲染前人染过的耀眼浮华，来继续弘扬自由与民主。“人是生而自由的，但却无往不在枷锁之中。自以为是其他一切的主人的人，反而比其他一切更是奴隶。”自由是人所想往的，其原始意义甚至高于民主。当费尔玛用“没有人是生而自由的”命题为人类社会现状寻找依托时，卢梭等几代人提出了自由的追求。
1,只看过西西的《解体》。印象已经不深了。记得要不就是标点很少，节奏很快；要不就是标点很多，停顿太多。还是一个比较有才华的女子。
1,总体不错，窗外就是江，周围吃的也很多。（乐山人民有些不友好，当心敲诈，吃东西最好多走几家问问价。）要的是180的标间，房间空间很大，虽然有些成就，不过也算对得起他的价格了，早餐没吃，送了两瓶小矿泉水，不够喝，建议换小桶装的。
1,二岁半的儿子一直喜欢贴贴书，买过很多，个人认为这是买过的最好一套。动手能力，认知能力，观察能力，对数学的启蒙都包含在了每一页的精彩画面中。更让我惊喜的是还有培养孩子好习惯和道德品质的内容，这下不用再单独买了，孩子喜欢，接受得也快。另外纸张质量很好，后面的几套也一定会买下来。特意将感受写在这里，希望对所有爱孩子的父母有点帮助，毕竟，找到一套好书送给孩子不太容易。
1,酒店服务员真好，我被大雨截在长途车站，给酒店电话之后派车接了我。 房间不敢恭维，太旧了，而且有味道。 总体而言服务还可以。
1,没有“就设计讲设计”，而是在讲解“设计思维”中更多的讲解到了设计的本质来源和最终服务对象：人类思维。通过讲解人类思维，让人明白“为什么应该这样做”而不仅仅是“应该要怎样做”。是一本讲解“设计之道”而不是“设计之术”的书。翻译得也不错。启发很多，受益匪浅。对设计方面的新手以及做过一段时间设计的人员都比较有帮助。
1,打开包裹看到这本书时，书的外面还包了一个塑料袋，里面的纸张摸上去也很舒服，字的大小适中，最主要是因为很喜欢朱生豪前辈的翻译版本，因为需要看原文，但是对原文很难做到全面理解，所以选择拿来前辈的经典译本对照来看。这本书除了收藏了莎翁的四大悲剧之外，还收藏了我本人很喜欢的一部悲喜剧--Romeo & Juliet，所以这本书在我的眼里就变得十分完美了，呵呵~
1,发热量没有网上说的恐怖，当然，前提是不要长时间游戏！CPU够了，等便宜了换个p8600的。
1,虽然这本书出版的时间比较早了，但是今天看来，特别是对青少年一代看看还是蛮有收益的，其中有许多的道理只值得我们学习的，但是也有一些人性的灰暗面是要我们警惕的，不能看到恶而变得恶，而是要防止恶。这也是作者一直要说明的一层意思，正如书名——我不是教你诈。仁者见仁，智者见智，看这个的时候要有自己的观点和想法，社会的不好的一面是存在的，但是不要因噎废食，学习如何正确的面对吧！
1,钢琴烤漆的外壳，透着水纹肌理，感觉不错。这款笔记本的配置也不错，甚是合理搭配！物有所值！自己装了XP系统，运行很流畅 ，一般办公用足够了
1,这本书已买很久，小孩也看完很久。近日，小孩说借给我看，于是我就看了第一篇长篇小说——《林中飘过白衣女人》，后面还有两篇短篇小说还没有看。这本书确实很有吸引力，难怪小孩她那么喜欢看，后来又让我给她买了《太空陵墓》，也看完了。我觉得，这一类书小学生看得多了，一定会变得更聪明和更勇敢，因为书中的三个小虎子就是既聪明又勇敢的小孩儿，他们的行为一定会对阅读者有所影响。
1,"我觉得本本还是不错的,简单干净.性能也还好.而且我喜欢HP这个牌子,我们家台式机也是HP的."
1,这家酒店感觉达不到五星，应该处在四星的水平。客房勉强还可以，但早餐做的不好，品种也少，跟同事住这里，基本上是吃了几口就走了。
1,全新行货（我的机子是5月27日出厂的），配置合理，性能突出。做工还行。另外赞赞京东，送货那个快啊。。。。
1,"我是10月20日一家人入住的,北京五日游,从门童,柜台接待,餐厅服务,卫生,都比较温馨,热情,礼貌,给人一种宾至如归之感.入住,结帐都很及时,速度很快.到北京各景点交通很方便.周围的景点步行10分钟到达的有梅"
1,“主管会计必读”这本书独具匠心，一改革以往这类版本书的编排风格，从内容上编排上更加贴近实际工作。是一本难得一见的好书。是我们会计人员身边不可缺少的工具书，也是我们会计人员的良师益友。作为会计人员手边有一本这样的书，就等于免费请了一位好老师。对提升工作效率增强自身竞争力有百利无一害。一个好的“主管会计”可以增强企业的竞争能力（人才的竞争），化风险为效益。和乐而不为呢？
1,我买的是￥15，现在已经￥12了，降得好快！俺没赶上！:(
1,看过前一本《大便书》后，跟着买了这本。其实两本书风马牛不相及的，一本是说肠胃排泄，一本是说能量调理，不过都不错就是啦，日常花上几分钟都可以练一下。里面附送的海报很有意思，可惜是正反面的，不方便看，我复印了好几份，办公室、家里书房都贴上了，同事们看着好也纷纷跟着练。动作和呼吸大概是瑜伽的套路，比较简单就是，插图画得好玩，价格打了折也正好划算。呵呵，随身带着，开会时可以看看。
1,最近在读第二遍。这本书，似乎更详细的在展示各种斗争。分析的很透彻，很明白。有很多道理都是很好的。比如，不是敌人，是双赢。但是，最后的感觉是这本书，太细节了。整整一本书也没有写完一个故事。这让我有时觉得有点烦。虽然知道实际中的情况要比书中更加复杂。但是，还是不想如此仔细的看一个故事。看这个书时，会累。因为真的不想如此复杂。太复杂了。我不是那种复杂斗争的人。
1,很早之前就买了《不一样的卡梅拉》第一辑，那时候女儿还没学多少字，都是我反复的给她读的。六一来了，想送给她一样很特别的礼物，正好看到了《不一样的卡梅拉》第二辑，就送给她做节日礼物了。女儿拿到书，马上兴高采烈的看起来，一口气把三本都看了，还向我说书里的故事，评论它们之中发生的事情。很希望能一直继续看到卡梅拉一家和他们的朋友之间发生的故事！
1,"速度比预想的要快.商场里试用过其他机器,觉得有点慢,这个还可以.n280的可能比n270性能上稍微好那么一点点."
1,轻、薄对于X200那就不用太多评价了，赠送的包包相当的范儿，皮质的很有商务的感觉
1,看了这本书，觉得人还是简单点好，阿嬷简简单单，充满生活的智慧，任何时候都不低头，只是不断地往前走，往前走，不抱怨，不担忧，只是往前走，乐观的往前走；有点迟钝的小昭广简简单单，外婆说什么就信什么，在困苦的环境中也快乐的成长。健康而且活泼，娓娓道来的记叙方式仿佛在面前徐徐展开了生活的画卷，让人忍俊不禁，随着他们饥饿而难过，随着他们幽默的言语而快乐。 是本好书，值得一看！
1,酒店的位置很好，走出去就是松花江畔，如果住靠江边的房间，早点起来推开窗就有机会看到雾凇了。交通也比较方便，从火车站打车过去也就是跳一次表。 酒店的设施半新不旧，感觉是老三星级宾馆翻新过的。房间比较大，但是布局不怎么好。淋浴头不够大，总是水量不足的样子。
1,入住的房间不可以开窗，空气流通欠满意，比较遗憾 宾馆反馈 2008年7月10日 ： 首先因饭店房间安排造成您的不满表示歉意。同时我们会与携程及时沟通将您的要求录入到“饭店客史信息中”，在您下次入住时前台就可以根据客史信息直接给您安排可以开窗的房间了。 河北世纪大饭店期待您的再次光临！
1,买这本书是因为要去美国学房地产分析，所以想先了解一下那里的财产法。书拿到手后首先觉得设计很好 封面简洁，开本大小适中，字体印刷也很清楚。这几天看了第一部分，更觉得买这本书的决定是正确的。它不是一本单纯罗列法律条文的书，而是从立法的角度介绍财产法，为了使读者更好的理解，在有些条款后还增加了浅显的例子。总的来说 我非常喜欢这本书。
1,[荐书]很可爱的小册子，随时可以带着翻看下，心情超靓，我把她放在办公室抽屉里，闲暇之时瞄上一眼，感觉很舒服，内容多多，本人超喜欢的，好东西大家分享，喜欢绘画的朋友应该看看哦。
1,"定单5216523与6月3号要求处理补发赠品.现在已经20号了,仍然未补发.这服务也""太到位""了吧,买了东西就甩手不管了?难道这就是京东一惯的""作风""?现在都出了大礼包了.要求给一个满意的结果.不要一拖再拖!!!(而且我们拿到手就发现键盘问题,已经拿去修了.才买几天啊?)这些结果都让人都郁闷!!!"
1,这次入住的宜兴宾馆性价比还是比较高的，房间很大，房内布置也比较温馨。早餐品种太少了，服务员态度比较好。
1,总体感觉不错，191元/间的标间物有所值。
1,配置不错，不到4K可以双核+独显，性价比很高。经测试为完美屏，运气不错。
1,分区时出现拒绝访问，怎么分都不行，请求帮助！ 送的1G内存条，怎么安装呢？应该不能自己擅自安装吧
1,"房间还算干净整洁,服务也可以,以这个价格来说,不错了,建议大家要定有窗户的房间,但是餐厅不够好,有一次吃的蘑菇是酸的,附近没有超市,不太方便,买水果都要走很远,"
1,"非常好的酒店,除了前台的服务态度. 房间设施非常好,飞利浦的液晶彩电,还有电脑备用. 只是,可能因为是通过携程预定而非直接预定的原因,房间的位置非常差."
1,TM的机器发热控制要比家用的好，价格方面也很不错，这个价位这个配置，只能用超值来形容
1,入住没什么问题，前台把握安排在23楼， 那里可真是馊臭，一出电梯非常难闻。进了房间里面还是有这个味道。 就快要吐出来了。 实在是忍无可忍，打电话给总台，要求换房。 后来换到39楼。 服务生说是23，24楼市公寓楼，有人在做饭的。 晕！！！ 也说明酒店不重视携程的客户。 如果是他们酒店ACCOR的会员的话，肯定不会安排在23楼。 还有个奇怪的问题是， 为什么携程总是没有早餐的？ 什么酒店都没有， 感觉是携程吃了我们的早餐。
1,"帮家人订的,没什么好说的,香港的酒店嘛,有这样的性价比就可以了."
1,这价钱买到这种配置的笔记本，没什么可挑的了，送的东西又多，机器也好，配置合理。此外，摄像头很清晰。
1,3999抢到的，这个配置这个价格真的很合算了！键盘手感很好！外观也漂亮，重量也合适！
1,周四中午下的订单，周五一早就收到货了，下午拿去电脑城装系统80元，再加了根1G的内存条200元，所有人都说“值”！！ 只是，我的手脚比较重，不知道经摔不经摔？？
1,服务一流，门口公交四通八达，早餐丰富，值得一住。我到厦门五天，两天锦江之星，两天厦门宾馆，都不错，很满意。
1,我正在写这本书的心得，勘误和疑点，有兴趣的朋友可以访问我的网站，交流切磋。www.smallstonesoft.com
1,"看了蔡先生的書已經超過十年了,從中學時期已經非常喜歡他了,還記得以前星期天趕著回家看他的節日的年代.這幾年時間小了,看書小了但也不時會想起蔡先生的書.這本新書是我看過最喜歡的一本.講了很多關於食物、素材、做法。非常有趣，我按書上的做過做過的四季豆，得到家人朋友的認可。用氣水盖刮姜十分好用，誠意推介~~呵呵~~還有其他的書關於對生活，做人的態度也十分欣賞。誠意推介在巴士上看~~"
1,本本很漂亮，外观不错，配置也不错，但是拿货的时候没注意，在本的下方掉了一小块漆，想着都已经把本本拿走了，估计人家也不会管了，好在不是很明显，总体还OK。
1,其实，当初我买这本书很偶然，是我家的一个亲戚，看电视说有个王晨霞，写的书很有一些道理，后来我就在当当网上订了一本，刚开始没觉得会有多大的收获，可是把全书看完后，感觉真的不一样，很多反映在我们手心的东西真的和我们身体的疾病息息相关，我介意身体不太好的朋友们看看这本书，有时候去医院体检，什么也检查不出来，但是不代表你没有病，通过看掌纹，你自己就可以知道自己该注意什么了。
1,许多关于生命、生活的真谛，对我们这些平凡人来说，只有在不断的经历洗礼后，才能真切地感受到它。通过对前世、今生、来世之间关联的探索学会了学习，改变，感恩，在一次次经历中使自己向更圆满的方向前进。
1,对孩子而言，他们只要喜欢里面的图画就很不错了，别想到要去通过此本真正教会他们单词，这是不现实的。
1,这款机器的配置 这个价位买来 很超值啦，2G 3代的内存，320G的硬盘，512M的独显！！
1,"非常感谢携程工号84392的客服人员,帮助妥善解决了由客人自己信用卡担保的失误,没有及时告知的事件. 下次有机会会再次光临本宾馆,支持携程"
1,烤漆面板相当漂亮！各项功能都很齐全，送人的，很满意呢！虽然还没有试用。
1,安装xp系统后，感觉速度很快，其内存质量很好，与双通道内存速度相当。sis的芯片组也没说的那么差。所带的驱动盘是傻瓜式，直接安装就行了。机器运行比较安静，能够满足大多数人的需求。
1,毕竟是惠普的产品，外观做工上还是简约而不简单～ 这个配置，在这个价位真的也没有什么可挑剔的了～ 再低端，也是定位在商用本，呵呵～
1,优点：1）和汽车站在一个院子内，出行便利 2）斜对面就是大排挡一条街，各种小吃和水果一应俱全 缺点：服务员态度一般，服务水平有待提高
1,房间面积太大，导致小功率空调制冷制热效果差，另外床与电视相距较远，观看起来相对比较费劲。
1,"刚去的时候有点难找,不过服务真是很不错哦~~ 而且金碧辉煌的~~! 房间虽然不大不过我一个人住肯定够,很舒适 而且窗外是海景和轮船呢~~嘿嘿.. 酒店就在海鲜街上,走不远还有皇后大道~ 交通呢..其实在香港交通都会很方便拉~ 酒店门口就有有轨电车~可以到地铁站也可以直接到中环旺角什么的.. 出门不远有个锅贴大王东西又好吃又便宜~~推荐！ 下次有机会还会考虑住这儿.! 补充点评 2008年7月24日 ： 有空调!可以自己调温度！"
1,人生在世，不因为生存而改变信仰，不因为生存而被生活改变，而是为了改变生活而生活着！精彩的辩词告诉读者的东西已超越了文辞本身。意大利哲学家克罗齐说过：“一切历史都是当代史”。我们从书中鲜活的历史事件和生动的人物内心，感受的不仅是生命的尊严和思想的自由，更多的是一种改变自我的同时又改变生活方式和生存状态的精神文化的传承。
1,"这本书的观点是颠覆了固有营养学上的许多论断.令我感受最深是她提出的三种健康食法:素食,生食,断食!素食我是推崇的,至于生食与断食,并不那么容易可以做到了.断食都还可以,但生食对于现在的生活来说,不是件容易的事.要不是就自家种罗!那时间不是要花在上面去吗?那正常的工作应该如何安排呢?是件头痛的事啊!!不过,她的这些观点对于现在肉食的人类来说算是一种提醒.因为这样子下去,这个世界肯定会失衡的."
1,要专业来讨论，理论依据有点弱，要当小说看，又看不下去，很多问题很分散，没有聚集，主题也不是太明显，最后看完了好像整本书就一个目的：要真金白银才是真正货币。个人主观感受：主要问题就是各章节主题不清楚，也没有什么针对性。另外，既然是通俗小说，各机构、人物都应该有个合理的介绍，结果就是突然一棒子出来了，有时候搞得不清不楚的。不过仍然可算是可翻第二遍的书。
1,散热较好。整体做工不错。安装系统、驱动、软件很顺利，从中午开机到下午，运行了几个小时，掌托、键盘等处温度控制的很好，没有发热感。屏幕很亮很清晰，适合看720p的高清视频。另外，包装中还赠送了一个原厂的USB光电鼠标，比较惊喜！
1,房间还可以，楼下有食街，服务态度很好！ 不过网络不太好，总是断线；早餐一般般。
1,酒店有点旧，房间比较小，但酒店的位子不错，就在海边，可以直接去游泳。8楼的海景打开窗户就是海。如果想住在热闹的地带，这里不是一个很好的选择，不过威海城市真的比较小，打车还是相当便宜的。晚上酒店门口出租车比较少。
1,看完这本书后我最想知道的就是谁才是我的那五个人？后来转念一想，我是永远猜不到的。也许人生就是这样吧，我们往往无法注意到一些在我们生命中起到至关作用的一些人或事。又或许，我们埋怨，颓废，却总是忽略了生命本身的价值。在看完这本书后，在我看来，那就是过好每一天。
1,体积小，6心电池续航时间长，做工和手感一流，速度本人主要以工作和看片为主，足够用了。无线上网还没试，本人手机有GPRS包月，到时用蓝牙ftp联一下，估计有够慢。重量比一般的上网本重，但还可以接受。
1,外观，键盘，性能和电池都挺不错，但就是进不了系统，郁闷啊。硬盘嘎吱响，怀疑有问题。虽然楼上有人讲F9导入系统可以解决问题，但验货的时候可不知道，京东的售后也没提这个方法，直接换货了，还是换个新的保险
1,想买很久了，终于在京东赠送很多东西的情况下，下了订单。京东总部自提点的前台MM都很灵的：） X200的外形比较经典，很喜欢非镜面外壳，CPU性能很不错
1,以前在学校读书的时候老板曾经带我们去过这里打保龄和吃饭等等，环境不错，房间也挺舒服，是闵行区比较高档的酒店
1,"在那里住了2晚,觉得还是很不错的.首先办理入住手续时接待小姐的态度非常好,特别有礼貌和耐心,让人觉得很窝心,不像大陆的服务员爱理不理的.另外房间虽小了点但非常干净,在香港这个地方,对于三星级的酒店来说已经很不错了. 酒店的地理位置很好,就在油麻地地铁站出口处,交通很方便,而且离女人街和通菜街都非常近,穿过对面小学旁边的小路就可到了."
1,《生命的教导》上册是一个人类工作者开悟的成长历程。他把赚钱更多的是当成一种社会生存的工具。一次偶然的机会，我经历了生命的蜕变，瞥见了自己的完美，虽然我现在依然徘徊在需要被需要的层面，但那动人的生命之源让我无法停止再次见到它的渴求。当我看到了瑞哈夏对内在存在执着的探险，我为此感动。那也会成为我的路。我也想成为那样的一名咨商。在这之前，我先要成为自己。
1,爸妈来北京，看爸爸很喜欢保健，便给他找了这本书看。。。拿回家之后，爸爸看到了书名，便“贪婪”的读起来，尤其记住了“红豆薏米粥”，从此我们的早饭+晚饭都会有一碗。虽说没有什么特殊的感觉，但是里面的好多验方，还是简单易行的。。。现实生活节奏很快，去健身房，熬瘦身汤，似乎都耗时太多。。有一本这样的书，简直可以神乎其神的潜移默化中养生，着实有些修身的功效。。呵呵
1,很好很强大，超高性价比！真没想到今天3300块钱就是买一台满足80%游戏的笔记本，你还等什么？赶快下手哦！
1,"服务生很周到，携程和酒店的合作应该很好，有水果送，又可以免费洗烫2件衣服，而且速度很快。就是酒店的网速有待提高,网络游戏不能玩真是遗憾啊.前台服务很周到,表扬下"
1,酒店位于市中心，非常方便。虽然没有时间去看，但听说附近也有很多景点。总体来讲，酒店的服务还是非常不错，但房间比较小，而且应该是两个房间封门而成为的单独小间，硬件上感觉达不到5星级的标准。三楼的法式餐厅不错。
1,我是6月5-6日住的，主楼园景双人房，对酒店非常满意，设施还算新，房间够大，布置也不错，大堂够气派，服务也好，酒店外就是白鹭洲风景区，一出酒店就是湖，非常舒服，而且地段也不错，10元就能到中山路，送的自助早餐不错。如果下次去厦门，我也会再住这里的。
1,"房间应该超出30平米,是HK同级酒店中少有的大;重装之后,设备也不错.房"
1,很不错的酒店。 住的8号楼，设施蛮新的，服务态度很好，门童很殷勤，早餐也颇丰富（早餐是我判断宾馆水平的重要标准），在细节上做得比较好，比很多挂牌四星要好。 地理位置应该也算不错的。 下次去还会住。
1,质量做工都不是很差，大家说的音箱问题没有仔细测试，再则音箱本来就是笔记本的弱项，能出声就行了，没有太高要求。 外形比较中庸，适合要求普通的人，想最求个性可以绕道了。 电池待机还没测试。应该很普通吧。
1,性能不错 运行速度也挺快 声音很小 如果只上上网 发热量还是很小的
1,这套书是手绘书，很可爱的笔线，纸质非常好。每本都薄薄的，讲一个故事情节，但足以教会小朋友一些好日常习惯、让小朋友们更自信、更有礼貌、更能表达自己的意愿。这套薯是每晚囡囡睡觉前必读的书之一，她百读不厌，每次听都是津津有味，她甚至会提前跟我说：“妈咪，下来小熊会怎样怎样，小白兔会怎样怎样......那样不乖，要这样做才对......”这套书也是推荐给家有一岁半宝宝的妈咪
1,快8岁的儿子酷爱历史，我从《小学生领先一步读历史》系列丛书里挑选了这本《探秘清朝》。儿子看了喜欢得不得了，真是爱不释手！谈谈我的感受吧，书印刷很好，书本不大恨适合携带。书内字体很大，很适合孩子看，一点不费眼睛。穿插了一些图画使历史类书籍显得不那么枯燥。内容也挺丰富的，特别适合低年级的孩子阅读。于是，接着把其余9本都买了，送给儿子做儿童节礼物，相信他一定会喜欢！
1,为爱哲学和历史的，此书值得一读，尽管书写的有点散，因为是对三个人物的生命与思想，在那段特殊的历史背景下，所做的透析。看过之后，就会发现历史，命运与自由之间的错综复杂的穿插关系。但是，也可以说，如果没有命运的话，也就没有自由。面对命运您做何种选择？而命运又是来自何处？这则是每个人的确应反思的问题。
1,"服务态度很好。入住后虽然发生了一件不是很令人愉快的事情,但是由于大堂经理及时的、出人意外的处理方式,让这次的入住有了特别美好的回忆,以后有机会还会选择瑞吉红塔的。"
1,外观不错，电池续航能力强，键盘明显优于其他机器，显示屏还算清晰
1,中华民族历史悠久，很赞同这样的看法：学成语，是学古文化的一种好的方式。成语里有文学、历史、军事与哲学，小孩子喜欢的是故事、情节，通过对比学习，不仅让孩子听了故事，同时让他们牢牢掌握了一些成语。小的时候我就很喜欢那些出口成章、成语就在嘴边的那些人。长大了就开始通过各种手段自学、或者从别人那里学习。不仅我要学，孩子长大了，也让他学。
1,我认为，这本书很值得品位一番，通过阅读，首先，我们在以后的工作中可以避免犯这些错误；其次，我们可以轻易的识破这些伎俩；最后，我们应该尤其注重职业道德问题，在这个领域内，我们至少要保持自己的纯洁，决不可利用自己的专业知识撒谎，做一些负面的事情。中国的统计发展如此缓慢，需要一大批讲原则的专业人士，我的信念就是从自己做起，为祖国的统计事业贡献微薄的力量。
1,"酒店的大堂很不错,房间也很好,温馨、舒适，是个不错的五星级酒店。"
1,低电状态还能用1个半小时，这款机器太强了，样子也很好看，赶上促销2899拿下，感觉很超值
1,性价比很高~~~显卡是3430 不错~~~~~装一个萝卜花园的ghost版就全部驱动都有了~~~很方便~~~比HP的方便多了~~~
1,头天晚上看中，没想到第二天活动送了那么多东西！ 这款是从三十几款中选出来的，超喜欢
1,1、打车到宾馆和离开，送上登记出租车牌号的卡片，如有物品遗漏，便于查找；2、前台服务很快；3、在3楼中餐厅吃了两顿晚餐，口味蛮好，服务一流，主动引导入座便于观看电视的座位，方便收看奥运，早餐设有厦门小吃区有特色，无论晚餐还是早餐，用餐后服务员都送至电梯；4、因飞机较晚，抱着试试看的想法，反映了一下，免费延长退房2小时，很感动；5、花了不长时间做了问卷调查，送了礼品，惊喜；6、挂了“请勿打扰”，服务员悄悄递了卡片，提醒要清理房间可随时进行，很好；7、地理位置方便，去轮渡、南普陀、厦大等，2元钱空调公交搞定，比的士清凉、宽敞；还有很多，不一一说了，第一次到厦门是10年前没住厦门宾馆，这次住了，以后到厦门就住这里了！
1,"以前的书名为《从中学生到女演员》，是留下青春回忆的一部书，即有作者的也有读者的。有的章节以前读的时候是很快乐的，再次读时竟然感动流下了眼泪。作者美丽爽直的文风在二十年后依然温暖，清新人的心灵。细细一看，人在年少时要如何对待困难,诱惑,批评,否定?自由有个性成长而又能融入世俗，一切皆有答案，但是不是只能在中年才能领悟作者在一群平淡，轻松的文句中所述的道理？"
1,当时一次性在当当买了好几百元钱的书，没想到儿子从一大堆书里面，拿出了这本包装比较独特的书，自已用牙撕开CD的包装，自已放到CD机里面，躺到床上。。。。。机子读“DAVE”他也跟着读“DAVE”。。。。。。翻开书，里面的英文字符都很大，图画也很漂亮，拿到书每一课都是看图说话，跟儿子一起讲故事再让他去听英文，不管他听不听得懂，能吸引他注意力就算成功了。。。。
1,功能食用，触摸键设置合理。配置和价格性价比高。键盘手感相当好，笔记本上方的摄像头也很食用。总体感觉很好，建议不进行大型游戏和影响编辑的购买。系统上网，看片相当好，可能是进行了优化。操作系统是VS的，不习惯可以自己换成Xp，毕竟现在的系统盘很先进。
1,人可以失败，但不可以被击败，外在的肉体可以接受折磨，但是内在的意志却是神圣不可侵犯的，这是《老人与海》一再强调的论点。真正的大师都是用最简单的语言来表达最深刻的道理，真正的好作品都是用生命的历练做题材，《老人与海》所刻画出来的正是海明威的一辈子最好的画像，正如海明威所说，?我一直读过２００多遍，每读一次，我就多一份收获，好像我最后得到了我这一生辛苦工作所欲得到的东西?。
1,机器很轻，屏幕效果很好 我这台屏幕没有发现坏/亮点机器本身就带VISTA
1,苹果的设计非常的人性化，很讲究用户体验，即使是刚到手的小白，用起来还是很有意思的。
1,我本来一直很喜欢的，可是这次有几个问题想说说：一是酒店门口的服务生太冷漠，形同虚设，我到酒店那天早上下雨，东西很多，打车去的时候他们居然站在那里一动不动，连伸手拉一下车门都没有。如果想要小费我想你做了别人肯定会给你。建议改进，至少可以帮客人拿一下东西吧。二是酒店前台通知不及时，我那天入住的时候说是住两晚上，可是前台服务员只要我压了500元的押金，后来没有通知我，第二天我回酒店就发现门打不开了，打电话问了才告诉我说是押金不够，显然服务一点都不人性化，希望能改进。 另外，酒店的行李寄存服务很好，环境也很好，总的来说都很理想，就是希望能改进上面两个问题，做的更好，那样客人会更加喜欢你们宾馆。 期待你们的改进和回复。 宾馆反馈 2008年6月17日 ： 尊敬的携程会员：感谢您们对我们宾馆一直的关注和支持！针对您所反映的问题，我们管理层非常的重视。立即由相关部门结合实际展开调查和核实，同时借鉴您的合理化建议并采取一些有效的整改。从而对您的善意的提醒再次表示感谢！同时也十分感谢携程网提供了这样一个好的平台，希望诸位会员空闲之时多多给我们宾馆提出建议和评价。我们将以真诚的服务态度欢迎诸位的光临！
1,这是一套非常红火，非常受孩子们喜欢的书，因同名的电视剧和电影的播出，书也变得非常热，孩子一直是非常喜欢。从贴纸到书，到电视剧甚至是毛绒玩具都要占为己有才安心。确实这书也是画面精美，图案逼真，对话风趣幽默，别具特色，有时候我自己闲来也会翻看一下，给自己一点轻松。唯一的缺点也是太长了，等待也是很痛苦的一件事情哦~~
1,大连很不错的酒店了，不过差点和南山花园那个搞错0.0
1,3788入手，运气好。外观好看，做工很扎实，屏幕绚丽，立体声喇叭音质超好，整机发热量低，运行时声音小。
1,这本书，我才读了二篇就被吸引住了。作者很有才气，写出了自己的真情实感，说得上是文笔清晰，语言流畅，真情流露，文字也很美。跟随作者的脚步，我们一直向南方进发，草木的香气扑鼻而来，花儿开了，是别样的火红，走进南国的草木深处，小溪清清，果实累累，剖开一枚异果，香甜弥漫，令人陶醉，令人口水要流出来了。作者，让我们领略了无数的奇花异果，长了眼界，长了知识，满足了好奇心。好书，我推荐。
1,总体来说还不错，交通服务都还行，酒店有点年纪了，看上去档次不像四星的，大堂很旧，呵呵，性价比还凑合吧。
1,之前很喜欢明晓溪的书，之前没买过，只买了这一本！书的质量挺好的，但是基本上全是连载，没办法，就只看了几个后面的小故事，感觉一般啦！要想看完这些连载估计还要买很多的书，所以一下子就没了兴趣，因为在看最小说嘛！而且在这两本杂志中，最小说是不可撼动的，所以不准备再买了，就让它继续待着吧！但对这本书还是肯定的，有喜欢明晓溪的朋友还是尽情的支持吧1真的很有明晓溪的特点！
1,今天看了新闻，有一位明星因为癌症去世了，一个歌手阿桑。唉，想想现在的社会要生活的健康真的不容易。买了姜老师的这本书，觉得很有收益。从食物出发，寻找健康是最最根本的。而且既做了公益事业——环保，自己也达到了健康状态，两全其美。如果你不能长期坚持吃素，我觉得偶尔或者坚持吃，或者搭配吃也挺好的。只要能对自己有健康的帮助，我相信你不会不去做的。一本好书，看看吧。有用。
1,一直认为ACER是高性价比的代名词，本本不错，完美屏，30万像素的摄像头依然很清晰，系统也很好装，至少觉得比惠普的本本好装多了，值得购买。
1,这本书很真实细腻地反映了花季少女在患白血病后的心路历程和经历。我感叹于作者怎么能在40多岁的年纪还能用10多岁少女的口吻写下这本书。这里虽然充斥着死亡的恐惧、对上天的抱怨，但是我看到了更多的是人性的光辉，不论他是由什么东西表现出来的。看到泰莎最后能那么安详地去世，我悟到了可怕的不是死亡，可怕的是在临死之际还有很多为了的心愿未完成。这是一本很值得一看的书。珍惜当下，珍惜生命吧。
1,整体性能不错，外观也还可以，用GHOST XP盘也能顺利安装，关键是难得搭配了INTEL PM45芯片组，比矽统的好多了。
1,房间干净，还有净水装置，还有浴袍。免费送的早餐也过的去。性价比不错。唯一不足就是前台结帐的时间比较长！
1,"此期间预订，入住首日酒店赠送每间房10元洗衣券一张，通过携程预订，入住首日每房还可获赠欢迎水果一份。 “ 我入住的时候，上面两项一个都没看到。。。 宾馆反馈 2008年7月16日 ： 首先对您上次入住的时候漏送洗衣券及水果一事向您表示深深的歉意，由于您入住当天为6.18会议接待高峰，造成前台漏送您洗衣券及水果，我们已严肃处理此事。在您下次入住的时候我们会补送洗衣券及水果并为您提供更优质的服务。
0	用的是Linux系统,一般用户需要重装,缺少蓝牙模块,电池使用时间稍短,发热量较大
1	性价比高 linux其实也挺好用的 也正是由于linux是免费的 所以性价比才这样高
1	还可以,促销399,价钱不错.不过酒店躲在新工房后面,确实是一个疮疤
0	书写得很好，就是中间有很多页码混乱，看得时候颠来倒去-麻烦！想调换，又怕连这本也没了。但愿当当网的“当”不是上当的“当”。
0	是看了其他读者的评论买的，不知道为什么还不少人觉得它好。读了三分之一，实在觉得所言无物；感觉没什么收获，里面讲的内容网上随便搜搜就能找到。帮助性不大，是到现在买的最失望的一本书。
1	酒店的位置很好,距离火车站非常近.总提感觉酒店的性价比不错,房间不是很大,但是对于出公差来说,也是十分不错的选择了.
1	地点和位置很好，晚上比较安静，设施较全。对于一般的自助游来说比较合适。
0	光驱不太好,会刮碟.刚塞一张DVD就怀了,换其他的也很明显地刮碟,要换比较麻烦,凑合着用吧.
1	外观时尚大气，价格也还可以。没发现过热情况。用了几天感觉质量不错，值得拥有。
1	买来送人的，没有拆包，也不知道到底怎么样？不过京东的东西，我信得过！
0	卖得很热的一本书，讲得也有些道理。只是不喜欢作者一副自以为是的口气，看到后面就看不下去了，心情不好，炫耀什么？？！！还有，书里有很多所谓的中药配方什么的，就不知道这个作者是否是药剂专业出生？否者就是半路出家的半桶子，骗骗无知的人，利用别人爱美的心理而已，没有什么专业性。一个小女子把自己说成专家，靠卖嘴皮赚钱，不值一提。让人笑话而已。
1	非常好的位置，便于交通，面对星湖。地毯很厚实，感觉不错。
0	预装的linux版本不是常用，可以装Ubuntu版本的。还有安装一键还原时会死机，还有官方的显卡驱动装不上，少个dll文件。还有该型号的同个设配用了多个不同的驱动，找驱动不好找。
0	房价较贵，位置也比较偏，房屋隔音效果较差。屋外说话，里面的清清楚楚。不是每间房间都有宽带，我第二天换了一件有宽带的，不过网速也慢。我入住的时候，在携程上定房价格是320，但是入住第二天发现携程上这家酒店的价格降到了300元，和前台商量，居然不肯给我降价。 我出差本来住挺长时间，不过在这家酒店住了2天，赶快抽空在市内找了另外一家酒店。不但价格便宜很多，网速也快，而且房屋干净漂亮多了。 拉萨酒店价格变动大，旺季价格很高，淡季价格很便宜。另外，这边住店一般都要和经理讲价，我后来住的酒店和他们客房经理商量，房价比到前台直接开房便宜了50元。经济型酒店经常爆满。
0	换系统太麻烦，我花了9头牛两只老虎的力气才弄好，建议以后都帮我们装好XP，大家更愿意买
0	我在这个订单里共订了六本书，结果当当网给我发错了五本，而且当当网送货上门后还必须付款后才能打开包装看，如果有问题的话当时送货的人还不管，只有和当当在网上交涉，我是七月份收到书的，现在当当网给我发错的书我已经发回去快一个月了，没有任何反馈，我不知道我这次是不是上当了，反正没有人给我反馈，希望当当网能够给一个答复！
0	这是我看过文字写得很糟糕的书，因为买了，还是耐着性子看完了，但是总体来说不好，文字、内容、结构都不好
0	求医不如求己1——3 都是好书，如坚持看，并坚持做。我想效果一定很好。我建议大家，都能买，通过当当买，其他的途径比较贵。
1	看过很多关于巴菲特的书，和这本书一样，基本都是写关于他投资以及和人交流的事情。但是，这些书都有一个特点，就是在巴菲特无论是购买公司股票还是与人打交道，都不会看到他急噪、愤怒和狂热的表现。他都是那么的心平气和，不追求明星股，不为牛市而狂热，不被危机而恐吓。也不以别人的态度而改变自己的风格。我觉得这正是我们都在学巴菲特，但是都普遍缺乏的性格特质。
0	续航能力差，发热量大，屏幕分辨率果然限制了不少软件的运行，凌动平台性能低
0	严重后悔，决定以后都不要买这些书。当然，我买其也不是准备着自己看的了。全是胡扯，一如现在沸腾着的大国崛起
0	28号定的货物，到今天还没有送到。一直以来都是这样子，除了买高价的那些书，还比较快点，这次只买50块就慢到爆了
1	总体来说还不错，完美屏，配置挺好，加了个2G内存，工作用足够了，外观比较漂亮，塑料感稍重，但这个价钱还可以啦。
0	一起买了好几本书，其他都还好，唯独这本，质量差的可以，很盗版。。。。。。。。
1	就是冲着电池性能去的，看电影大概能用到5小时以上，用节电模式应该还能再长。机器整体做工不错，键盘用着很舒服。
1	电池强劲，虽然没有达到9.5小时，但初次使用觉得6小时应该有的 。 键盘舒服，尺寸大小合适。
0	就是装机时，要先进BIOS设置，改一下硬盘传输方式，那成IDE的，先前不知道，搞得装个XP系统 ，费了好久时间啊。
0	驱动太难装了，到现在MIDI的驱动也没有装上，装声卡驱动是要先装一个补丁包，太费事了
0	1、分区不合理，惠普的品牌机的通病。2、发热量确实很大，又买了块散热器。
0	做工较之T系列的相差很远，虽然价格差的也很多。收到货之后发现屏幕右下角液晶屏和边框之间缝隙比较大，隐约能看到里边拉丝的双面胶。装内存的时候更看到机器里边不少用胶布或者双面胶的地方。当然，这跟京东无关。
0	字很大,内容不够充实当初看大家评论说得很好才买的但实际上却没那么好,感觉深度也不够如果你还在犹豫买不买这本那还是选择一本其他更好的购买吧在同类的书里面觉得这本实在不出色
0	这个酒店就是招待所改建的，所以各项硬件设施非常简陋，关键是大门在二楼，也没有无障碍楼梯，背着行李上楼，更没有服务人员帮忙！ 晚上在一个居民区里休息，都不敢开窗户，总之，很不满意！
1	服务还可以，房间好，888888888888888888888888
0	一开始读的时候还觉得行，有模有样，再往后就觉得前后的反差太大，就如贺顿的经历，一个仅上过初中的女孩！
1	其实里面的那些明星跟这本书没什么关联，很是肤浅地在去付读者，有点小上当的感觉吧，有用的那些内容不知道都是怎么拼到的，虽然也学到很多常识，却很是缺乏实际实践性
0	早上八点多到酒店,预先订了房的,却被告知十二点
0	房间設备太差,连空调都没安装,下次如有机会再去不会再选此酒店.
1	造型大方美观，而且性价比高，回去就装上了Win7，除了开机慢点，一点问题都没有，运行流畅！！
1	酒店环境不错，比较有特点，附楼比较一般。没怎么用服务员，感觉服务中上吧。
0	轻松的了解了职场状况，容易产生共鸣，处理问题的方式和技巧值得学习，故事感人。
0	为什么这本书在购书付钱时未标注缺货，却在付钱之后说是缺货，并且在付钱后近两周还是缺货？是否存在信用问题？
1	世界上最可贵的是什么，理解！教育小孩，理解更重要！要进入孩子的世界，明白孩子的想法，才能从根本理解孩子的行为。小豆豆是个幸福的孩子，有这样的妈妈，有这样的校长，有这样的学校。好的性格比好的成绩更重要，这是我作为一个母亲对教育儿子的教育观念，这也是小豆豆妈妈和校长给我的启发。哄儿子睡着后就开始读，读起来很让人开心，心里满满的都是爱。
1	喜欢这本书的封面，简洁明了。刚看完这本书的时候，一头雾水。合上书本，好好想想，这个故事是说牧羊人追寻梦想，经过种种磨难，长途跋涉，终于到达目的地，找到宝藏。每个人心中都有自己的声音，很多时候都没有勇气去相信，接受它。牧羊人在王的指引下，努力朝着宝藏前进。放弃羊群，外出游荡，放弃工作和安逸的生活，接受考验，坚持梦想，有舍才有得。最终找到属于自己的宝藏。
0	在老火车站旁，环境不好。感觉房间也不怎么干净，房间里东西也贵。
1	在当当上买了那么多书，这是第一次有写。书评的冲动。实在觉得作者说的太好了，不推荐出来，自己都觉得过意不去。书里有很多经验都值得细细回味，特别关于课外阅读那部分让我共鸣不已，并且特地拿给我爸看。在孩子教育上，他外公就是主张不要花那么多时间进行课外阅读，把课本读好读精就行了，我虽说觉得他不对，但理论上不能说服，这下可有后援了哈哈！！
1	据说这是北海最好的三星级酒店，生意不是一般的好，人气很旺，那天晚上到的时候大堂气氛浓烈，感觉很温馨。房间的卫生间小了点，不过服务好，心里就舒畅了。我住的房间还送早餐、果篮、晚上还有巧克力，最绝的是楼层服务员告诉我网络客人还可以免费烫衣服……哇。晚上大堂副理还电话拜访我，我告诉她电视调不好，她还亲自上来帮我调。总体感觉不错，大堂副理请我帮忙宣传一下，我同意了哈哈。
1	已经在使用了从5.26开始就读了《端午节的故事》开始小傢伙并不喜欢呢后来慢慢引导，孩子会针对每本书后面的“换一种方式看看”的小图片进行“看图说话”还是很有收获的！虽然孩子并没有表现出巨大的兴趣但我觉得这种文化是需要一个长期的接触，才能称之传承我不急哟~~再说孩子对这本书表现出“看图说话”已与其它的阅读书目不同了！书好，我的引导更好！呵呵~~
0	请大家千万别住别墅，别墅的空调特差，很难制冷，而且经常半夜断电。酒店前台的服务意识很差，态度极为不好，明明有制冷好的主楼房间，就是不给携程的客户住。如果前台问你们别墅的房间可以不可以，一定不能同意。 补充点评 2008年7月15日 ： 另外，早餐不太好，我们一般7点半去吃就没剩什么东西了，和团餐标准一样简单的不能再简单了。
1	就像上面所说，内容浅显易懂，非常直观地反应了当代美国的许多现象、变化，预测了将来的变化。这些现象不仅仅发生在美国，应该是世界性的，很多也在当代中国社会存在。但个人感觉并没有想象中的那么好。和《长尾理论》《蓝海战略》那种对我的那种启发相比，这本书只能说大部分是在满足我的好奇心（可能与我看这类书方法的变化有关吧）。总的来说这本书还是有看头的。
1	房间干净，还有净水装置，还有浴袍。免费送的早餐也过的去。性价比不错。唯一不足就是前台结帐的时间比较长！
1	后来还帮同事买的。他很喜欢。据说回家后一口气看完了。对书里面的一些小诀窍铭记于心并常常练习。真是个热爱健康热爱生命的好青年。这本书他赞不绝口，一直感谢我向他推荐，而他也将健康的理念向更多人推荐。不错！
1	性价比不错，玩游戏中高配足够了。数字小键盘很实用，基本不用外接键盘了。 玩游戏时，风扇声音不大，赠送的鼠标虽然小了点，可是灵活度还可以。
1	在这个酒店住过至少有四次，进行一下简单的评价： 房间的面积比较大，够得上四星的标准，只是有些房间稍旧了点； 房间的设施中规中矩，还行，电脑的上网速度还可以； 卫生间的花瓣很欣赏，这一点相当不错； 客房服务员的态度非常好，很欣赏； 总体感觉较好，推荐！！！
1	宾馆本身还是很不错的，餐厅的服务相当到位，就是宾馆位置不太好，周围不太好
0	不适合我29岁的年纪看， 怎么就觉得那么没意思呢，高直的漫画我买了两本，一本也不喜欢，我的一个狂热热爱漫画的朋友也不喜欢。
1	我们都是某种综合体。之所以给自己贴上A型啊B型啊之类的标签，也只是觉得自己身上那种类型的特质占的比例更重一些而已。而且，不同的时期里不同类型特质的比例或许还会变化。“喂喂，我今年可是打算当一回A型人了啊，请大家注意，按说明书上说的那些来理解我的行为。”或者，到了明年，“呃，那个。最近我身上B型人的特质有所抬头了呢，请大家多给我一些B型人的空间。。。。。。”
1	性价比超级高。我在中关村的渠道报价都不如京东的活动价格。这点绝对的牛。
0	外壳容易印指纹，比较难看，贴上膜好一些，但膜太难贴了，气泡好多 整体有一点点重
0	也许没有达到作者的境界？论述与其二哥恩怨一段，只能表现作者是一个典型的中国特色的企业家。不具备世人的惊醒作用。本人非常厌恶这一段。对本书的阅读也到此为止，我已不感兴趣。这是我购买比较失败的一本书。
0	小家伙只知道自己看图片,书应该更适合父母看,个人觉得价格高了．教育家长的，可以不用买．书里只有图片没有文字，很简单的几页．不值．让父母反醒的，是不是总在对小朋友这不可以，那不可以做．
0	1.硬盘速度太慢 2.整机性能一般，多开几个QQ，再开视频就卡的厉害 3.触摸屏下的按键很硬，使用很不方便 4.发热厉害，机子底部明显发烫 5.散热风扇声音比较大，特别是晚上安静的时候明显
1	总台小姐凌晨0：30打电话询问房卡之事，惊扰本人美梦，使我一夜未眠，区区小事，为何不能次日早晨与我联系，服务欠周到，尚需改进
1	简单，大方，在同类尺寸的款型的笔记本中不显厚重，轻薄感！很安静，几乎没有声音，音质不错屏幕不错，显的细腻可观。感谢马连道提货点的工作人员（前台客服），服务态度超好，值得贵公司其他员工学习。
1	从机场到酒店大约25分钟，37元左右。酒店环境还不错，因为以前住过的原因感觉很亲切。离傅家庄公园非常近，早上去的时候正好赶上涨潮，捡了好多海带回来，味道还真是不错。建议打车到燕窝岭再徒步到老虎滩沿途风光非常美！ 酒店可以卖到优惠的景点门票。
0	此次入住简直就是失望到愤怒的过程。 先是晚上11点到酒店，竟然被告知没房了--我可是当天下午用信用卡担保过的！接下来就是前台和携程联系，等了将近1个小时才进到房间，看到房间的设施，只有两个字：失望！而且当时我告知前台，第二天还有一个老外入住，希望把房间保留到晚上，前台满口答应。 次日晚上带老外入住，又告诉我没房！！又联系确认了半天，最终给找了两张单人床的小房间，而且窗户就对着早餐餐厅！真的愤怒了。这种水平的酒店如何能被大家评为4分？？！要不是展览会期间酒店不好找，早就住1晚就退房了！ 宾馆反馈 2008年5月28日 ： 尊敬的宾客您好： 感谢您的光临以及您的宝贵意见，我们对给您造成的困扰表示非常抱歉，我们会加强对员工的培训来提高服务质量，避免同类问题再发生，期待您的再次光临。
0	正在刷新BIOS、装XP系统、装驱动，工程没完，不知道长期使用怎么样。听网上说无线网卡有些问题，有点怕！
1	物流速度太慢了,物流速度太慢了,物流速度太慢了,物流速度太慢了,物流速度太慢了,物流速度太慢了,物流速度太慢了,物流速度太慢了,物流速度太慢了,物流速度太慢了,物流速度太慢了,物流速度太慢了,物流速度太慢了,物流速度太慢了,物流速度太慢了,物流速度太慢了,物流速度太慢了,物流速度太慢了,物流速度太慢了,物流速度太慢了,物流速度太慢了,
0	设施陈旧,卫生差.感觉:四星的大门,二星的客房,没有服务(住了两晚,没见服务员来打扫) 补充点评 2007年8月16日 ： 价高质次
1	还可以,不过第一次入住的时候没有送水果,这次送了,不过第二天把我第一天存的水果换了,虽然房务中心帮我换了两个苹果,不过一个坏的,不过总体还可以,听说马上要涨价了,因为听说评上了四星级,哎
0	不知是硬盘还是什么东西 已运行咔咔咔咔咔咔咔咔响个不停，很有节奏，可以当鼓点听，拿去华硕的售后竟然说正常~！！怒~！！！怒不敢言~！！！万一给抓进去关一年可亏了~！！！！
1	《夭色》是一部很值得收藏的书。除却极少几张不佳外，其他的都是精细华丽，令人赞叹的作品。国内很少有像韩露这么高水平的漫画家，服饰布景构图都美如幻境。尤其是画这样奇幻类的作品，难度很大，都靠自己去想象。过去买STORY100漫画100小说版的同学们也不要因为那些画都看过了就犹豫哦~要集齐也很不容易。与其零散的小开本杂志，还是用华丽纸质华丽装帧去配她华丽丽的作品吧！
0	Linux系统不太好用,平时习惯用Windows xp 系统,一下子用这个系统感觉很不习惯,建议开发或预装Windows xp系统.
1	看完之后兴奋了很久...因为我也处于那种阶段...值得学习...很值...而他们的那些精神和想法还有那些经典的语句...让人深思...里面好几个地方我看着看者就哭了...钱小样...我太佩服她了...她能承受那么多...还是不屈不挠...愈挫愈勇(用了里面对小样的形容)还有那蚂蚁论...也让我思考了很久...才发现我其实也是一只小蚂蚁...建议广大正在实现梦想青春年少的朋友们购买...
0	因为看了《士兵突击》的连续剧，爱它，所以买它。以为可以让自己感动的影视，其书更值得自己收藏。但真让人失望！
0	全是一些虚的东西,看过和没看一样好多东西她不说人家也知道,说了也白说,一点实用性也没有
0	功能条台花哨，太多灯了，会审美疲劳。硬盘网卡这些指示灯的位置太隐蔽，不方便。散热还行，D驱偏热，光驱响动有点大！
0	房间太小,宾馆有租四轮自行车的,很破,骑不动,后来服务员说他们的车都是东方绿舟淘汰的.酒巴装修的还可以,就是蚊子太多,象轰炸机.
0	这本书是骗人的,买这本书后是个教训.集结号出了后,我就没再去买书了,不会再上当了
1	房间比较大，就是马路噪音有点大，双层玻璃只要开一点点就受不了了。 宽带1小时10块有点太黑了，这年头宽带还收费。 以前也在西藏大厦住过，感觉前台服务比以前好些了。二楼的饭菜太一般了。 整体还可以。
0	唉！这个酒店真是让我失望！！！上次住就感觉不好，这次去发现床上竟然有JB毛儿！不说什么了，希望携程努力控制酒店的档次！
1	不算是一本很专业的书，但作为日常养生的参考还是不错，有很多从前不知道的保养知识。看了此书对中医养生有了更浓厚的兴趣，当然尤其是能使自己又美丽又健康的法子，正在尝试，但愿有效果。呵呵，现在买了很多花草茶，还有茯苓粉，打算再做种子眼霜。嘻嘻，女人就是爱折腾，只要能让自己变美，就绝不怕麻烦，所以，从这个方面讲，算是本好书吧
0	内存太小而且不能加只能换，只有一个内存插槽。运行慢的要死，想办法换成XP。
0	内存有点小，不过现在内存白菜价，可以随便加。另外电池让我稍稍失望，只能支持2个小时，显得有点不够。sis的主板有待验证，希望不要像传说中的那么差。
0	单人间太小了，居然要350元/天，杀猪呀！
1	前台服务员很热情,由于工作关系,本人清晨5:00离开酒店时,酒店给客人准备了早点心,让客人感到十分温馨和体贴.
0	也许黄金海岸有自己的酒店评级机构,给此中心评了个四星"",不然不好意思收四五百的房租啊!也就二星的标准,大堂里蚊子那叫一个多...卫生间和浴室的门都关不上,的用手扶着!电话不响,得用自己的手机. 毛巾不知是哪年的了，估计本世纪初的产品。装修用的是最低档的地砖和大理石...另外，当地民风极差，无论你在酒店里，海滩上，外面餐馆，只要你出手消费，必定挨宰！ 下次宁愿远赴青岛威海，也不来黄金海岸，南戴河了。海水的品质，也如当地酒店和民风，差！"
1,很一般的酒店，因为定不到赣电了勉强入住下吧
1,"目前还未看完,但作者的确是一个很有意思的女人,呵呵,所以即便是30几岁,也离了婚,那又怎么样呢!没有人希望自己不幸福快乐;在我的周围也有几个疯癫的女子,包括我自己,虽然那种和自己对话,或跟某件物品说话的事情也经常发生,但拿着菜刀劝说自己,哭泣的时候单脚站立这样类似的事情,还从没尝试过,哈哈...有时侯,能听到自己内心的声音,真是一件神奇的事..."
1,"显卡显存大,其它都一般,屏幕也还行,试玩了侠盗飞车4感觉画面还不错. 正在下载极品飞车12,到时候看一下测试结果如何."
1,刚开始看这本书，心情很轻松，兰心与小猪是一对无敌可爱的搭档，虽然各自都有着家国天下的重担，但是为人处事却不乏夸张诙谐，总是这一对配对很难对的家伙。尤其是看似女强的搭配，却更衬托了小猪为人的宽厚儒雅，风度翩翩~后半部分开始进入坚持的情节旋律当中啦，看得俺蛮捏一把汗的，对荧惑的结局其实有点小伤心啊……他真是个让人心疼的伏师啊。。。
1,"喜欢吴小波的文字,带着新闻人特有的冷静,如针线般密密地将这些历史织补到一起。看着这本书，我的脑海里却全是激荡三十年，成也英雄，败亦人杰。10个案例里，无一例外地充满了冒险家的气息和敢为人先的豪迈，正是为他人所不敢为，他们成功了，却又因为各种原因（企业扩张的原始冲动占多）迅速陨落，怎不让人叹息。这是个传奇的年代，无法评说它的颜色，只知道色彩绚烂之极，原来竟在消逝前那一刻。"
1,白色钢琴烤漆很漂亮，声音效果很棒，对于用来上上网，做些文字办公，看看电影，只要不超级大片的完全够用了，关键是便捷性很好。电池在连续办公时用了5个半小时。
1,性价比很好，优点大家都说了，不再赘述。 各位如果想用XP一定用SP3的，所有的驱动都涵盖了，不用上网找（可能会出现一些细小的不兼容）
1,性能强劲，外观漂亮，NBA典藏版特别。其实散热还是可以的，比我以前用的IBM要好，完美屏LG的。
1,本来想买惠普的!也就3500左右!不过能便宜300!2955!太值啦~也是两年保修!屏够大~键盘也挺舒适~基本有的咚咚都有了~给老人家用刚好适合!
1,总体感觉还是不错的，介绍的比较全面，很多的东西都是其他的书籍上学不到的，可惜就是英文的，在国内关于中文排版的系统理念还未形成，至少关于系统的阐述汉字排版的书籍不多，就是有介绍的也很肤浅，我曾经就搜过n多关于汉字排版的买过好几本关于汉字排版的书籍，但很令我失望，都不怎么样，希望以后中国在这方面多向先进国家学习，完善中文排版一套理论体系。
1,作为老宾馆，感觉环境和服务都很到位了。离地铁很近，出门就到很方便。但是按五星级饭店的性价比，南京人说这家不是很划算。我自己住感觉不错。订的市景房，床很大很柔软，特意要的靠拐角的房间，很安静。里面的内部设计也很大方舒适。电视放墙边的设计不是很好，躺床上扭脖看一会儿就吃不消了。楼下的餐饮去尝了，味道还可以，但是偏贵，早餐太贵，没去。电梯要用卡，来访的朋友说很不方便。空调很足哦。
1,本人近日有一问题想不通，写来大家共同探讨：如果梦回大清中的晓薇、步步惊心里的若曦、勿忘中的阿离、尘世羁里的凌儿、不辞冰雪为卿热中的尘芳、许你来生中的若涵、还有梦回大清.瑶华中的瑶华、恍然如梦中的婉然还有秋霁等等等等穿越女主们，如果同时穿了，那会发生什么样的故事呢，不知哪位穿越作者能够写出？
1,环境非常好，服务非常好，交通不方便，价格有点贵
1,配货很快； 做工还不错； 用了几天散热挺好； 双显卡切换可能能电省电吧
1,配置比较均衡，尤其显卡使用的是GDDR3的显存，性能又有提升； 外形漂亮，键盘手感好； LED屏幕的亮度和色彩都非常出色； 附送的内存和鼠标都非常实用，相当于又有了一定程度的优惠...
1,"本书能完全从实际出发，对于生活中汉英翻译的错误和不妥之处,先点评然后再与国外的公示语进行比较，是从事翻译者的良师益友,是一本不可多得的好书.对规范我国公示语,避免笑话的发生，起了非常重要的作用，也给有关人士提供了一本不可多得的参考书。.缺点是：有些细节的地方，在照片上的词句看不清楚,要是能在照片下面再写一遍就好了!"
1,这是晓晓最喜欢的图画书之一。我猜有两个原因：一则这是讲友情的故事，小孩子最需要伙伴，所以这样的故事能引起共鸣。譬如晓晓就把自己叫“小蓝”，把她的小伙伴小宝叫“小黄”。二则书中的主人公居然是颜色，这也是宝宝生活中比较熟悉的现象，把颜色当作人来讲确实很有创意，颜色的融合就像人们的拥抱，在孩子看来，真的太有趣了。而且，对颜色的认识加深了，真好！
